Final Project/12-5/R2=R12=R13=10k, f=59Hz, V=15V/square/square FFT.CSV

Model,TBS1052C
Firmware Version,v2015-08-04-prequal4ch70_v1.3

Point Format,Y
Horizontal Units,Hz
Horizontal Scale,1562.5
Sample Interval,12.5
Filter Frequency,2e+08
Record Length,1250
Gating,0.0% to 100.0%
Probe Attenuation,1
Vertical Units,dB
Vertical Offset,0
Vertical Scale,20
Label,
FFT-FREQ,FFT-AMPL
0.000e+00,-8.55937
1.250e+01,3.89688
2.500e+01,16.3531
3.750e+01,22.0188
5.000e+01,27.6875
6.250e+01,26.8656
7.500e+01,26.0438
8.750e+01,17.7844
1.000e+02,9.525
1.125e+02,2.55313
1.250e+02,-4.41562
1.375e+02,3.65625
1.500e+02,11.7313
1.625e+02,15.2594
1.750e+02,18.7875
1.875e+02,16.3438
2.000e+02,13.9031
2.125e+02,5.09063
2.250e+02,-3.71875
2.375e+02,-5.78125
2.500e+02,-7.84062
2.625e+02,1.40313
2.750e+02,10.6469
2.875e+02,12.3813
3.000e+02,14.1156
3.125e+02,10.0188
3.250e+02,5.92188
3.375e+02,0.74375
3.500e+02,-4.43125
3.625e+02,-4.71562
3.750e+02,-4.99687
3.875e+02,2.46563
4.000e+02,9.93125
4.125e+02,9.96875
4.250e+02,10.0063
4.375e+02,4.65313
4.500e+02,-0.696875
4.625e+02,-2.55937
4.750e+02,-4.41875
4.875e+02,-2.61563
5.000e+02,-0.8125
5.125e+02,4
5.250e+02,8.81563
5.375e+02,7.35
5.500e+02,5.88438
5.625e+02,0.484375
5.750e+02,-4.91562
5.875e+02,-5.125
6.000e+02,-5.33438
6.125e+02,-1.81875
6.250e+02,1.7
6.375e+02,4.45
6.500e+02,7.20312
6.625e+02,4.32188
6.750e+02,1.44063
6.875e+02,-1.62812
7.000e+02,-4.69687
7.125e+02,-6.55313
7.250e+02,-8.40625
7.375e+02,-2.73125
7.500e+02,2.94688
7.625e+02,4.04375
7.750e+02,5.14062
7.875e+02,0.93125
8.000e+02,-3.27812
8.125e+02,-3.8125
8.250e+02,-4.34375
8.375e+02,-6.75625
8.500e+02,-9.16875
8.625e+02,-2.84375
8.750e+02,3.48125
8.875e+02,2.80625
9.000e+02,2.13438
9.125e+02,-1.47187
9.250e+02,-5.07812
9.375e+02,-5.10625
9.500e+02,-5.13125
9.625e+02,-5.16875
9.750e+02,-5.20312
9.875e+02,-1.0625
1.000e+03,3.08125
1.012e+03,0.91875
1.025e+03,-1.24375
1.038e+03,-3.3
1.050e+03,-5.35312
1.062e+03,-5.95938
1.075e+03,-6.5625
1.088e+03,-4.31562
1.100e+03,-2.06562
1.112e+03,-0.225
1.125e+03,1.61563
1.138e+03,-1.2625
1.150e+03,-4.14062
1.162e+03,-4.50312
1.175e+03,-4.8625
1.188e+03,-7.01562
1.200e+03,-9.16875
1.212e+03,-5.05313
1.225e+03,-0.934375
1.238e+03,-0.63125
1.250e+03,-0.328125
1.262e+03,-3.48125
1.275e+03,-6.63125
1.288e+03,-5.475
1.300e+03,-4.31875
1.312e+03,-7.64375
1.325e+03,-10.9688
1.338e+03,-5.8
1.350e+03,-0.63125
1.362e+03,-1.79375
1.375e+03,-2.95625
1.388e+03,-4.53437
1.400e+03,-6.10938
1.412e+03,-5.96875
1.425e+03,-5.82812
1.438e+03,-6.98125
1.450e+03,-8.13125
1.462e+03,-4.60312
1.475e+03,-1.075
1.488e+03,-3.71562
1.500e+03,-6.35625
1.512e+03,-5.71875
1.525e+03,-5.08125
1.538e+03,-6.66875
1.550e+03,-8.25312
1.562e+03,-6.625
1.575e+03,-4.99375
1.588e+03,-3.8625
1.600e+03,-2.72812
1.612e+03,-4.9375
1.625e+03,-7.14375
1.638e+03,-6.125
1.650e+03,-5.10312
1.662e+03,-7.95938
1.675e+03,-10.8156
1.688e+03,-7.34687
1.700e+03,-3.875
1.712e+03,-4.47187
1.725e+03,-5.06562
1.738e+03,-6.09687
1.750e+03,-7.12812
1.762e+03,-6.19062
1.775e+03,-5.25312
1.788e+03,-8.6625
1.800e+03,-12.0719
1.812e+03,-8.13125
1.825e+03,-4.1875
1.838e+03,-5.63125
1.850e+03,-7.07187
1.862e+03,-6.60625
1.875e+03,-6.14062
1.888e+03,-6.32187
1.900e+03,-6.5
1.912e+03,-8.34062
1.925e+03,-10.1781
1.938e+03,-7.65937
1.950e+03,-5.14062
1.962e+03,-7.09062
1.975e+03,-9.0375
1.988e+03,-7.09062
2.000e+03,-5.14062
2.012e+03,-7.5125
2.025e+03,-9.88125
2.038e+03,-8.91875
2.050e+03,-7.95312
2.062e+03,-7.34687
2.075e+03,-6.74063
2.088e+03,-7.60625
2.100e+03,-8.47187
2.112e+03,-6.87812
2.125e+03,-5.28437
2.138e+03,-9.38125
2.150e+03,-13.4781
2.162e+03,-10.2344
2.175e+03,-6.9875
2.188e+03,-8.17812
2.200e+03,-9.36562
2.212e+03,-8.19375
2.225e+03,-7.01875
2.238e+03,-6.69062
2.250e+03,-6.3625
2.262e+03,-10.2937
2.275e+03,-14.225
2.288e+03,-11.025
2.300e+03,-7.82187
2.312e+03,-9.00937
2.325e+03,-10.1937
2.338e+03,-8.17188
2.350e+03,-6.14688
2.362e+03,-7.04062
2.375e+03,-7.93437
2.388e+03,-9.93125
2.400e+03,-11.925
2.412e+03,-10.8375
2.425e+03,-9.75
2.438e+03,-10.0062
2.450e+03,-10.2594
2.462e+03,-7.9125
2.475e+03,-5.56562
2.488e+03,-8.45937
2.500e+03,-11.3531
2.512e+03,-11.3625
2.525e+03,-11.3719
2.538e+03,-11.0719
2.550e+03,-10.7719
2.562e+03,-9.68125
2.575e+03,-8.59062
2.588e+03,-7.19687
2.600e+03,-5.8
2.612e+03,-11.0406
2.625e+03,-16.2781
2.638e+03,-13.4781
2.650e+03,-10.6781
2.662e+03,-11.8344
2.675e+03,-12.9906
2.688e+03,-10.0375
2.700e+03,-7.08125
2.712e+03,-7.4
2.725e+03,-7.71875
2.738e+03,-12.8812
2.750e+03,-18.0437
2.762e+03,-14.9906
2.775e+03,-11.9375
2.788e+03,-12.4
2.800e+03,-12.8625
2.812e+03,-9.57187
2.825e+03,-6.27812
2.838e+03,-8.2125
2.850e+03,-10.1469
2.862e+03,-12.7687
2.875e+03,-15.3906
2.888e+03,-15.1937
2.900e+03,-14.9969
2.912e+03,-12.4906
2.925e+03,-9.98125
2.938e+03,-8.2375
2.950e+03,-6.49063
2.962e+03,-9.86875
2.975e+03,-13.2437
2.988e+03,-14.2656
3.000e+03,-15.2844
3.012e+03,-15.8156
3.025e+03,-16.3438
3.038e+03,-12.3844
3.050e+03,-8.42188
3.062e+03,-7.64062
3.075e+03,-6.85938
3.088e+03,-12.7625
3.100e+03,-18.6625
3.112e+03,-17.425
3.125e+03,-16.1875
3.138e+03,-15.3594
3.150e+03,-14.5281
3.162e+03,-10.8438
3.175e+03,-7.15937
3.188e+03,-7.96562
3.200e+03,-8.76875
3.212e+03,-16.1906
3.225e+03,-23.6094
3.238e+03,-20.725
3.250e+03,-17.8375
3.262e+03,-15.6031
3.275e+03,-13.3687
3.288e+03,-9.84687
3.300e+03,-6.32187
3.312e+03,-9.17188
3.325e+03,-12.0219
3.338e+03,-16.9062
3.350e+03,-21.7875
3.362e+03,-20.9312
3.375e+03,-20.075
3.388e+03,-14.9531
3.400e+03,-9.83125
3.412e+03,-8.58125
3.425e+03,-7.33125
3.438e+03,-11.9969
3.450e+03,-16.6625
3.462e+03,-18.7562
3.475e+03,-20.85
3.488e+03,-21.0469
3.500e+03,-21.2406
3.512e+03,-14.7719
3.525e+03,-8.3
3.538e+03,-8.52187
3.550e+03,-8.74375
3.562e+03,-14.9812
3.575e+03,-21.2156
3.588e+03,-22.4344
3.600e+03,-23.6531
3.612e+03,-19.5125
3.625e+03,-15.3719
3.638e+03,-11.7062
3.650e+03,-8.0375
3.662e+03,-9.19062
3.675e+03,-10.3406
3.688e+03,-23.9219
3.700e+03,-37.5
3.712e+03,-34.0063
3.725e+03,-30.5094
3.738e+03,-21.4531
3.750e+03,-12.3937
3.762e+03,-9.82187
3.775e+03,-7.25
3.788e+03,-10.9031
3.800e+03,-14.5562
3.812e+03,-27.5344
3.825e+03,-40.5094
3.838e+03,-33.3937
3.850e+03,-26.2781
3.862e+03,-18.3219
3.875e+03,-10.3656
3.888e+03,-9.29688
3.900e+03,-8.22812
3.912e+03,-13.3156
3.925e+03,-18.4
3.938e+03,-30.9594
3.950e+03,-43.5187
3.962e+03,-32.8375
3.975e+03,-22.1531
3.988e+03,-15.375
4.000e+03,-8.59687
4.012e+03,-9.66875
4.025e+03,-10.7375
4.038e+03,-16.8062
4.050e+03,-22.875
4.062e+03,-26.2094
4.075e+03,-29.5406
4.088e+03,-22.2063
4.100e+03,-14.8687
4.112e+03,-11.6906
4.125e+03,-8.50937
4.138e+03,-10.4531
4.150e+03,-12.3937
4.162e+03,-22.3875
4.175e+03,-32.3813
4.188e+03,-30.9625
4.200e+03,-29.5406
4.212e+03,-20.9625
4.225e+03,-12.3812
4.238e+03,-10.725
4.250e+03,-9.06875
4.262e+03,-12.7125
4.275e+03,-16.3531
4.288e+03,-19.75
4.300e+03,-23.1469
4.312e+03,-23.3125
4.325e+03,-23.4781
4.338e+03,-17.1062
4.350e+03,-10.7344
4.362e+03,-10.1906
4.375e+03,-9.64687
4.388e+03,-15.6594
4.400e+03,-21.6719
4.412e+03,-21.9281
4.425e+03,-22.1844
4.438e+03,-21.7
4.450e+03,-21.2156
4.462e+03,-15.35
4.475e+03,-9.48125
4.488e+03,-11.1437
4.500e+03,-12.8031
4.512e+03,-16.6344
4.525e+03,-20.4656
4.538e+03,-21.425
4.550e+03,-22.3812
4.562e+03,-19.175
4.575e+03,-15.9688
4.588e+03,-12.65
4.600e+03,-9.33125
4.612e+03,-12.3094
4.625e+03,-15.2844
4.638e+03,-18.0687
4.650e+03,-20.85
4.662e+03,-21.8625
4.675e+03,-22.875
4.688e+03,-17.4562
4.700e+03,-12.0344
4.712e+03,-11.4312
4.725e+03,-10.825
4.738e+03,-14.0312
4.750e+03,-17.2375
4.762e+03,-18.1687
4.775e+03,-19.0969
4.788e+03,-20.2344
4.800e+03,-21.3719
4.812e+03,-16.1437
4.825e+03,-10.9125
4.838e+03,-11.3656
4.850e+03,-11.8187
4.862e+03,-16.0375
4.875e+03,-20.2562
4.888e+03,-19.2437
4.900e+03,-18.2312
4.912e+03,-18.4562
4.925e+03,-18.6781
4.938e+03,-14.7719
4.950e+03,-10.8625
4.962e+03,-12.6969
4.975e+03,-14.5281
4.988e+03,-16.5406
5.000e+03,-18.55
5.012e+03,-19.0906
5.025e+03,-19.6281
5.038e+03,-17.8781
5.050e+03,-16.125
5.062e+03,-13.3969
5.075e+03,-10.6656
5.088e+03,-14.0562
5.100e+03,-17.4469
5.112e+03,-16.95
5.125e+03,-16.4531
5.138e+03,-19.5562
5.150e+03,-22.6562
5.162e+03,-17.7156
5.175e+03,-12.7719
5.188e+03,-12.8094
5.200e+03,-12.8469
5.212e+03,-14.9219
5.225e+03,-16.9969
5.238e+03,-16.85
5.250e+03,-16.7
5.262e+03,-19.4281
5.275e+03,-22.1531
5.288e+03,-17.0406
5.300e+03,-11.925
5.312e+03,-13.5812
5.325e+03,-15.2344
5.338e+03,-16.3156
5.350e+03,-17.3937
5.362e+03,-16.6969
5.375e+03,-16
5.388e+03,-17.0656
5.400e+03,-18.1281
5.412e+03,-15.325
5.425e+03,-12.5187
5.438e+03,-14.1812
5.450e+03,-15.8406
5.462e+03,-16.1875
5.475e+03,-16.5312
5.488e+03,-17.2156
5.500e+03,-17.8969
5.512e+03,-16.8781
5.525e+03,-15.8562
5.538e+03,-14.4906
5.550e+03,-13.1219
5.562e+03,-15.9875
5.575e+03,-18.8531
5.588e+03,-16.9719
5.600e+03,-15.0875
5.612e+03,-18.8187
5.625e+03,-22.55
5.638e+03,-18.5625
5.650e+03,-14.5719
5.662e+03,-14.7344
5.675e+03,-14.8937
5.688e+03,-15.8562
5.700e+03,-16.8187
5.712e+03,-15.8844
5.725e+03,-14.9469
5.738e+03,-19.2344
5.750e+03,-23.5188
5.762e+03,-18.6219
5.775e+03,-13.725
5.788e+03,-15.9781
5.800e+03,-18.2312
5.812e+03,-16.725
5.825e+03,-15.2156
5.838e+03,-15.7469
5.850e+03,-16.2781
5.862e+03,-17.5656
5.875e+03,-18.8531
5.888e+03,-16.8406
5.900e+03,-14.8281
5.912e+03,-16.1437
5.925e+03,-17.4562
5.938e+03,-15.9187
5.950e+03,-14.3781
5.962e+03,-15.8094
5.975e+03,-17.2375
5.988e+03,-16.9562
6.000e+03,-16.6719
6.012e+03,-16.6687
6.025e+03,-16.6625
6.038e+03,-16.95
6.050e+03,-17.2375
6.062e+03,-15.4812
6.075e+03,-13.725
6.088e+03,-16.9906
6.100e+03,-20.2562
6.112e+03,-18.1281
6.125e+03,-16
6.138e+03,-16.5781
6.150e+03,-17.1562
6.162e+03,-16.4437
6.175e+03,-15.7312
6.188e+03,-14.6937
6.200e+03,-13.6531
6.212e+03,-18.5656
6.225e+03,-23.4781
6.238e+03,-19.5219
6.250e+03,-15.5625
6.262e+03,-17.3
6.275e+03,-19.0344
6.288e+03,-16.4406
6.300e+03,-13.8438
6.312e+03,-15.1031
6.325e+03,-16.3594
6.338e+03,-18.75
6.350e+03,-21.1406
6.362e+03,-18.6125
6.375e+03,-16.0844
6.388e+03,-17.1062
6.400e+03,-18.1281
6.412e+03,-15.7
6.425e+03,-13.2687
6.438e+03,-16.475
6.450e+03,-19.6812
6.462e+03,-18.7437
6.475e+03,-17.8031
6.488e+03,-18.9406
6.500e+03,-20.075
6.512e+03,-17.9875
6.525e+03,-15.9
6.538e+03,-14.9187
6.550e+03,-13.9344
6.562e+03,-18.1594
6.575e+03,-22.3812
6.588e+03,-20.4469
6.600e+03,-18.5094
6.612e+03,-19.1687
6.625e+03,-19.8281
6.638e+03,-17.3719
6.650e+03,-14.9156
6.662e+03,-14.5344
6.675e+03,-14.15
6.688e+03,-19.6719
6.700e+03,-25.1938
6.712e+03,-22.9187
6.725e+03,-20.6437
6.738e+03,-20
6.750e+03,-19.3531
6.762e+03,-16.4
6.775e+03,-13.4469
6.788e+03,-15.2094
6.800e+03,-16.9688
6.812e+03,-20.5969
6.825e+03,-24.225
6.838e+03,-22.4344
6.850e+03,-20.6437
6.862e+03,-19.3
6.875e+03,-17.9562
6.888e+03,-15.2437
6.900e+03,-12.5312
6.912e+03,-16.4688
6.925e+03,-20.4031
6.938e+03,-21.3938
6.950e+03,-22.3812
6.962e+03,-22.6875
6.975e+03,-22.9906
6.988e+03,-18.8687
7.000e+03,-14.7469
7.012e+03,-14.325
7.025e+03,-13.9
7.038e+03,-18.525
7.050e+03,-23.1469
7.062e+03,-22.1937
7.075e+03,-21.2406
7.088e+03,-21.8969
7.100e+03,-22.55
7.112e+03,-18.0375
7.125e+03,-13.5219
7.138e+03,-14.5719
7.150e+03,-15.6187
7.162e+03,-20.6437
7.175e+03,-25.6656
7.188e+03,-25.4312
7.200e+03,-25.1938
7.212e+03,-21.6
7.225e+03,-18.0062
7.238e+03,-15.5938
7.250e+03,-13.1781
7.262e+03,-15.4062
7.275e+03,-17.6312
7.288e+03,-22.3094
7.300e+03,-26.9875
7.312e+03,-26.9875
7.325e+03,-26.9875
7.338e+03,-22.0312
7.350e+03,-17.075
7.362e+03,-14.9406
7.375e+03,-12.8031
7.388e+03,-17.6781
7.400e+03,-22.55
7.412e+03,-25.725
7.425e+03,-28.8969
7.438e+03,-26.2094
7.450e+03,-23.5188
7.462e+03,-19.4031
7.475e+03,-15.2844
7.488e+03,-14.8312
7.500e+03,-14.3781
7.512e+03,-22.4437
7.525e+03,-30.5094
7.538e+03,-29.9406
7.550e+03,-29.3719
7.562e+03,-27.1
7.575e+03,-24.8281
7.588e+03,-19.0375
7.600e+03,-13.2437
7.612e+03,-15.6437
7.625e+03,-18.0437
7.638e+03,-25.7812
7.650e+03,-33.5187
7.662e+03,-33.75
7.675e+03,-33.9781
7.688e+03,-25.9375
7.700e+03,-17.8969
7.712e+03,-15.6594
7.725e+03,-13.4187
7.738e+03,-16.1594
7.750e+03,-18.8969
7.762e+03,-26.6938
7.775e+03,-34.4906
7.788e+03,-35.5125
7.800e+03,-36.5312
7.812e+03,-25.9625
7.825e+03,-15.3906
7.838e+03,-14.6844
7.850e+03,-13.9781
7.862e+03,-19.0031
7.875e+03,-24.025
7.888e+03,-30.2781
7.900e+03,-36.5312
7.912e+03,-30.0938
7.925e+03,-23.6531
7.938e+03,-19.2
7.950e+03,-14.7469
7.962e+03,-14.7469
7.975e+03,-14.7469
7.988e+03,-22.6281
8.000e+03,-30.5094
8.012e+03,-34.0063
8.025e+03,-37.5
8.038e+03,-29.6594
8.050e+03,-21.8187
8.062e+03,-17.6094
8.075e+03,-13.4
8.088e+03,-16.0906
8.100e+03,-18.7781
8.112e+03,-26.6344
8.125e+03,-34.4906
8.138e+03,-39.0063
8.150e+03,-43.5187
8.162e+03,-30.8813
8.175e+03,-18.2437
8.188e+03,-16.1
8.200e+03,-13.9531
8.212e+03,-17.45
8.225e+03,-20.9437
8.238e+03,-25.1594
8.250e+03,-29.3719
8.262e+03,-30.1719
8.275e+03,-30.9688
8.288e+03,-23.0531
8.300e+03,-15.1375
8.312e+03,-15.4906
8.325e+03,-15.8406
8.338e+03,-19.3594
8.350e+03,-22.875
8.362e+03,-25.1344
8.375e+03,-27.3937
8.388e+03,-25.2719
8.400e+03,-23.1469
8.412e+03,-18.9156
8.425e+03,-14.6844
8.438e+03,-15.4812
8.450e+03,-16.2781
8.462e+03,-21.3187
8.475e+03,-26.3594
8.488e+03,-25.2937
8.500e+03,-24.225
8.512e+03,-21.9281
8.525e+03,-19.6281
8.538e+03,-16.8906
8.550e+03,-14.15
8.562e+03,-16.925
8.575e+03,-19.7
8.588e+03,-22.5469
8.600e+03,-25.3906
8.612e+03,-27.4656
8.625e+03,-29.5406
8.638e+03,-24.0531
8.650e+03,-18.5656
8.662e+03,-16.7437
8.675e+03,-14.9219
8.688e+03,-19.2875
8.700e+03,-23.6531
8.712e+03,-23.2656
8.725e+03,-22.875
8.738e+03,-26.2094
8.750e+03,-29.5406
8.762e+03,-22.5969
8.775e+03,-15.6531
8.788e+03,-16.1937
8.800e+03,-16.7344
8.812e+03,-19.3062
8.825e+03,-21.8781
8.838e+03,-22.3594
8.850e+03,-22.8375
8.862e+03,-23.225
8.875e+03,-23.6094
8.888e+03,-19.1781
8.900e+03,-14.7469
8.912e+03,-16.8312
8.925e+03,-18.9125
8.938e+03,-20.7312
8.950e+03,-22.55
8.962e+03,-22.4656
8.975e+03,-22.3812
8.988e+03,-20.8344
9.000e+03,-19.2875
9.012e+03,-17.675
9.025e+03,-16.0625
9.038e+03,-17.8469
9.050e+03,-19.6281
9.062e+03,-19.9437
9.075e+03,-20.2562
9.088e+03,-21.7031
9.100e+03,-23.1469
9.112e+03,-20.2969
9.125e+03,-17.4469
9.138e+03,-16.675
9.150e+03,-15.9
9.162e+03,-19.6906
9.175e+03,-23.4781
9.188e+03,-21.3844
9.200e+03,-19.2875
9.212e+03,-23.3406
9.225e+03,-27.3937
9.238e+03,-21.9937
9.250e+03,-16.5906
9.262e+03,-17.4437
9.275e+03,-18.2969
9.288e+03,-19.7687
9.300e+03,-21.2406
9.312e+03,-20.8219
9.325e+03,-20.4031
9.338e+03,-22.6156
9.350e+03,-24.8281
9.362e+03,-20.4
9.375e+03,-15.9688
9.388e+03,-18.6719
9.400e+03,-21.3719
9.412e+03,-20.1437
9.425e+03,-18.9125
9.438e+03,-20.3656
9.450e+03,-21.8187
9.462e+03,-20.6812
9.475e+03,-19.5406
9.488e+03,-18.2906
9.500e+03,-17.0375
9.512e+03,-18.775
9.525e+03,-20.5094
9.538e+03,-20.025
9.550e+03,-19.5406
9.562e+03,-21.8844
9.575e+03,-24.225
9.588e+03,-20.8625
9.600e+03,-17.5
9.612e+03,-18.4375
9.625e+03,-19.3719
9.638e+03,-19.725
9.650e+03,-20.075
9.662e+03,-19.2375
9.675e+03,-18.4
9.688e+03,-21.6438
9.700e+03,-24.8875
9.712e+03,-21.2594
9.725e+03,-17.6312
9.738e+03,-18.8531
9.750e+03,-20.075
9.762e+03,-19.75
9.775e+03,-19.4219
9.788e+03,-18.9187
9.800e+03,-18.4156
9.812e+03,-21.3219
9.825e+03,-24.225
9.838e+03,-21.2344
9.850e+03,-18.2437
9.862e+03,-19.6937
9.875e+03,-21.1406
9.888e+03,-19.1031
9.900e+03,-17.0656
9.912e+03,-19.4437
9.925e+03,-21.8187
9.938e+03,-21.5188
9.950e+03,-21.2156
9.962e+03,-20.0344
9.975e+03,-18.8531
9.988e+03,-20.1406
1.000e+04,-21.425
1.001e+04,-19.4094
1.002e+04,-17.3937
1.004e+04,-21.5312
1.005e+04,-25.6656
1.006e+04,-22.2656
1.008e+04,-18.8656
1.009e+04,-20.8531
1.010e+04,-22.8375
1.011e+04,-21.0062
1.012e+04,-19.175
1.014e+04,-18.7969
1.015e+04,-18.4156
1.016e+04,-22.1531
1.018e+04,-25.8875
1.019e+04,-23.2
1.020e+04,-20.5094
1.021e+04,-21.225
1.022e+04,-21.9375
1.024e+04,-19.6656
1.025e+04,-17.3937
1.026e+04,-17.7188
1.028e+04,-18.0437
1.029e+04,-20.3687
1.030e+04,-22.6937
1.031e+04,-21.6031
1.032e+04,-20.5094
1.034e+04,-20.4562
1.035e+04,-20.4031
1.036e+04,-18.6125
1.038e+04,-16.8187
1.039e+04,-19.3031
1.040e+04,-21.7875
1.041e+04,-22.8844
1.042e+04,-23.9781
1.044e+04,-22.7719
1.045e+04,-21.5625
1.046e+04,-20.9094
1.048e+04,-20.2562
1.049e+04,-18.0281
1.050e+04,-15.7969
1.051e+04,-21.5969
1.052e+04,-27.3937
1.054e+04,-24.9219
1.055e+04,-22.4469
1.056e+04,-23.2375
1.058e+04,-24.025
1.059e+04,-20.575
1.060e+04,-17.125
1.061e+04,-17.2594
1.062e+04,-17.3937
1.064e+04,-22.3938
1.065e+04,-27.3937
1.066e+04,-24.6375
1.068e+04,-21.8781
1.069e+04,-22.7
1.070e+04,-23.5188
1.071e+04,-19.7094
1.072e+04,-15.9
1.074e+04,-17.9875
1.075e+04,-20.075
1.076e+04,-22.2844
1.078e+04,-24.4906
1.079e+04,-24.8438
1.080e+04,-25.1938
1.081e+04,-22.5312
1.082e+04,-19.8656
1.084e+04,-18.3
1.085e+04,-16.7344
1.086e+04,-19.2625
1.088e+04,-21.7875
1.089e+04,-23.5906
1.090e+04,-25.3906
1.091e+04,-25.3906
1.092e+04,-25.3906
1.094e+04,-21.6438
1.095e+04,-17.8969
1.096e+04,-16.95
1.098e+04,-16
1.099e+04,-22.1031
1.100e+04,-28.2062
1.101e+04,-28.2062
1.102e+04,-28.2062
1.104e+04,-26.8
1.105e+04,-25.3906
1.106e+04,-20.9094
1.108e+04,-16.4281
1.109e+04,-16.9656
1.110e+04,-17.5
1.111e+04,-25.7406
1.112e+04,-33.9781
1.114e+04,-32.2437
1.115e+04,-30.5094
1.116e+04,-26.3312
1.118e+04,-22.1531
1.119e+04,-18.6875
1.120e+04,-15.2219
1.121e+04,-17.5437
1.122e+04,-19.8656
1.124e+04,-25.5406
1.125e+04,-31.2156
1.126e+04,-30.0562
1.128e+04,-28.8969
1.129e+04,-23.8969
1.130e+04,-18.8969
1.131e+04,-17.575
1.132e+04,-16.2531
1.134e+04,-20.3438
1.135e+04,-24.4344
1.136e+04,-25.9156
1.138e+04,-27.3937
1.139e+04,-28.1469
1.140e+04,-28.8969
1.141e+04,-23.1469
1.142e+04,-17.3937
1.144e+04,-17.3156
1.145e+04,-17.2375
1.146e+04,-23.3062
1.148e+04,-29.3719
1.149e+04,-31.4469
1.150e+04,-33.5187
1.151e+04,-28.7719
1.152e+04,-24.025
1.154e+04,-19.9406
1.155e+04,-15.8562
1.156e+04,-16.3719
1.158e+04,-16.8844
1.159e+04,-28.6969
1.160e+04,-40.5094
1.161e+04,-38.5219
1.162e+04,-36.5312
1.164e+04,-29.175
1.165e+04,-21.8187
1.166e+04,-18.6781
1.168e+04,-15.5344
1.169e+04,-19.0969
1.170e+04,-22.6562
1.171e+04,-33.0875
1.172e+04,-43.5187
1.174e+04,-39.0063
1.175e+04,-34.4906
1.176e+04,-26.4469
1.178e+04,-18.4
1.179e+04,-17.0531
1.180e+04,-15.7031
1.181e+04,-19.8656
1.182e+04,-24.025
1.184e+04,-33.7719
1.185e+04,-43.5187
1.186e+04,-38.5187
1.188e+04,-33.5187
1.189e+04,-24.9
1.190e+04,-16.2781
1.191e+04,-17.1437
1.192e+04,-18.0062
1.194e+04,-24.2594
1.195e+04,-30.5094
1.196e+04,-32.2437
1.198e+04,-33.9781
1.199e+04,-28.3188
1.200e+04,-22.6562
1.201e+04,-19.6469
1.202e+04,-16.6375
1.204e+04,-18.0312
1.205e+04,-19.4219
1.206e+04,-26.4719
1.208e+04,-33.5187
1.209e+04,-31.5312
1.210e+04,-29.5406
1.211e+04,-24.7031
1.212e+04,-19.8656
1.214e+04,-18.1062
1.215e+04,-16.3438
1.216e+04,-19.4469
1.218e+04,-22.55
1.219e+04,-25.1938
1.220e+04,-27.8375
1.221e+04,-29.5281
1.222e+04,-31.2156
1.224e+04,-24.8625
1.225e+04,-18.5094
1.226e+04,-17.4344
1.228e+04,-16.3594
1.229e+04,-22.1
1.230e+04,-27.8375
1.231e+04,-27.4125
1.232e+04,-26.9875
1.234e+04,-28.1812
1.235e+04,-29.3719
1.236e+04,-22.8125
1.238e+04,-16.2531
1.239e+04,-17.5531
1.240e+04,-18.8531
1.241e+04,-22.2594
1.242e+04,-25.6656
1.244e+04,-27.6031
1.245e+04,-29.5406
1.246e+04,-26.4062
1.248e+04,-23.2688
1.249e+04,-19.8156
1.250e+04,-16.3594
1.251e+04,-19.075
1.252e+04,-21.7875
1.254e+04,-24.0344
1.255e+04,-26.2781
1.256e+04,-27.1187
1.258e+04,-27.9562
1.259e+04,-23.8031
1.260e+04,-19.6469
1.261e+04,-18.6187
1.262e+04,-17.5875
1.264e+04,-20.2312
1.265e+04,-22.875
1.266e+04,-23.8531
1.268e+04,-24.8281
1.269e+04,-25.9094
1.270e+04,-26.9875
1.271e+04,-22.3219
1.272e+04,-17.6531
1.274e+04,-18.0094
1.275e+04,-18.3625
1.276e+04,-21.8781
1.278e+04,-25.3906
1.279e+04,-23.65
1.280e+04,-21.9062
1.281e+04,-23.0656
1.282e+04,-24.225
1.284e+04,-20.5312
1.285e+04,-16.8375
1.286e+04,-18.0062
1.288e+04,-19.175
1.289e+04,-21.5781
1.290e+04,-23.9781
1.291e+04,-24.6844
1.292e+04,-25.3906
1.294e+04,-24.1906
1.295e+04,-22.9906
1.296e+04,-20.1344
1.298e+04,-17.2781
1.299e+04,-20.0781
1.300e+04,-22.875
1.301e+04,-22.275
1.302e+04,-21.6719
1.304e+04,-24.8156
1.305e+04,-27.9562
1.306e+04,-23.3687
1.308e+04,-18.7781
1.309e+04,-18.5906
1.310e+04,-18.4
1.311e+04,-20.475
1.312e+04,-22.55
1.314e+04,-21.9625
1.315e+04,-21.3719
1.316e+04,-23.9969
