Final Project/12-5/NEW R2=R12=R13=10k, f=59H, V=18V/square_18V_FFT.CSV

Model,TBS1052C
Firmware Version,v2015-08-04-prequal4ch70_v1.3

Point Format,Y
Horizontal Units,Hz
Horizontal Scale,1562.5
Sample Interval,12.5
Filter Frequency,2e+08
Record Length,1250
Gating,0.0% to 100.0%
Probe Attenuation,1
Vertical Units,dB
Vertical Offset,0
Vertical Scale,20
Label,
FFT-FREQ,FFT-AMPL
0.000e+00,-9.37187
1.250e+01,4.68125
2.500e+01,18.7344
3.750e+01,24.1437
5.000e+01,29.5563
6.250e+01,28.55
7.500e+01,27.5438
8.750e+01,18.8156
1.000e+02,10.0875
1.125e+02,2.5375
1.250e+02,-5.00937
1.375e+02,4.90938
1.500e+02,14.8281
1.625e+02,17.6938
1.750e+02,20.5594
1.875e+02,17.5438
2.000e+02,14.5312
2.125e+02,5.53125
2.250e+02,-3.46562
2.375e+02,-4.01562
2.500e+02,-4.56562
2.625e+02,4.60625
2.750e+02,13.7812
2.875e+02,14.5688
3.000e+02,15.3594
3.125e+02,10.2594
3.250e+02,5.1625
3.375e+02,0.8625
3.500e+02,-3.4375
3.625e+02,-0.784375
3.750e+02,1.87188
3.875e+02,7.27813
4.000e+02,12.6875
4.125e+02,11.4969
4.250e+02,10.3094
4.375e+02,3.95625
4.500e+02,-2.39375
4.625e+02,-3.69062
4.750e+02,-4.9875
4.875e+02,0.24375
5.000e+02,5.475
5.125e+02,8.14688
5.250e+02,10.8219
5.375e+02,7.83438
5.500e+02,4.85
5.625e+02,0.509375
5.750e+02,-3.83125
5.875e+02,-5.5375
6.000e+02,-7.24063
6.125e+02,-0.15625
6.250e+02,6.92813
6.375e+02,7.53125
6.500e+02,8.13438
6.625e+02,3.48125
6.750e+02,-1.17188
6.875e+02,-2.25937
7.000e+02,-3.34375
7.125e+02,-3.24063
7.250e+02,-3.13437
7.375e+02,1.97813
7.500e+02,7.09375
7.625e+02,5.85625
7.750e+02,4.62188
7.875e+02,0.253125
8.000e+02,-4.11563
8.125e+02,-4.60312
8.250e+02,-5.09062
8.375e+02,-2.2125
8.500e+02,0.66875
8.625e+02,3.39062
8.750e+02,6.1125
8.875e+02,3.025
9.000e+02,-0.0625
9.125e+02,-1.925
9.250e+02,-3.78437
9.375e+02,-6.34375
9.500e+02,-8.90312
9.625e+02,-2.84687
9.750e+02,3.20938
9.875e+02,3.57812
1.000e+03,3.95
1.012e+03,0.21875
1.025e+03,-3.5125
1.038e+03,-3.81562
1.050e+03,-4.11563
1.062e+03,-5.275
1.075e+03,-6.43125
1.088e+03,-1.38125
1.100e+03,3.67188
1.112e+03,2.14375
1.125e+03,0.615625
1.138e+03,-2.02188
1.150e+03,-4.65625
1.162e+03,-4.90625
1.175e+03,-5.15625
1.188e+03,-3.5125
1.200e+03,-1.86875
1.212e+03,0.378125
1.225e+03,2.62813
1.238e+03,-0.065625
1.250e+03,-2.75937
1.262e+03,-3.42188
1.275e+03,-4.08438
1.288e+03,-6.14688
1.300e+03,-8.20625
1.312e+03,-3.96875
1.325e+03,0.26875
1.338e+03,0.490625
1.350e+03,0.715625
1.362e+03,-2.4125
1.375e+03,-5.5375
1.388e+03,-4.6375
1.400e+03,-3.73438
1.412e+03,-6.10312
1.425e+03,-8.47187
1.438e+03,-3.90937
1.450e+03,0.65625
1.462e+03,-0.728125
1.475e+03,-2.10938
1.488e+03,-3.40625
1.500e+03,-4.7
1.512e+03,-5.20312
1.525e+03,-5.70625
1.538e+03,-5.23125
1.550e+03,-4.75312
1.562e+03,-2.3625
1.575e+03,0.03125
1.588e+03,-2.68437
1.600e+03,-5.39688
1.612e+03,-4.71875
1.625e+03,-4.0375
1.638e+03,-6.85938
1.650e+03,-9.67812
1.662e+03,-5.79688
1.675e+03,-1.9125
1.688e+03,-2.02812
1.700e+03,-2.14062
1.712e+03,-4.00625
1.725e+03,-5.87187
1.738e+03,-5.20312
1.750e+03,-4.53125
1.762e+03,-7.30625
1.775e+03,-10.0812
1.788e+03,-5.85938
1.800e+03,-1.63437
1.812e+03,-3.26562
1.825e+03,-4.89375
1.838e+03,-5.08125
1.850e+03,-5.26875
1.862e+03,-5.68125
1.875e+03,-6.09062
1.888e+03,-6.25312
1.900e+03,-6.41562
1.912e+03,-4.65937
1.925e+03,-2.9
1.938e+03,-4.70938
1.950e+03,-6.51875
1.962e+03,-5.46875
1.975e+03,-4.41875
1.988e+03,-6.96875
2.000e+03,-9.51562
2.012e+03,-7.075
2.025e+03,-4.63437
2.038e+03,-4.58438
2.050e+03,-4.53437
2.062e+03,-5.7125
2.075e+03,-6.8875
2.088e+03,-5.64688
2.100e+03,-4.40625
2.112e+03,-8.07187
2.125e+03,-11.7375
2.138e+03,-7.94062
2.150e+03,-4.14062
2.162e+03,-5.55937
2.175e+03,-6.97812
2.188e+03,-6
2.200e+03,-5.02188
2.212e+03,-5.94375
2.225e+03,-6.86563
2.238e+03,-7.94062
2.250e+03,-9.0125
2.262e+03,-6.95
2.275e+03,-4.8875
2.288e+03,-6.60625
2.300e+03,-8.32187
2.312e+03,-6.46875
2.325e+03,-4.6125
2.338e+03,-7.60625
2.350e+03,-10.6
2.362e+03,-8.51562
2.375e+03,-6.43125
2.388e+03,-6.7875
2.400e+03,-7.14375
2.412e+03,-6.89688
2.425e+03,-6.64688
2.438e+03,-5.89688
2.450e+03,-5.14688
2.462e+03,-8.99062
2.475e+03,-12.8312
2.488e+03,-9.65312
2.500e+03,-6.47187
2.512e+03,-7.72812
2.525e+03,-8.98438
2.538e+03,-7.20312
2.550e+03,-5.41875
2.562e+03,-6.15312
2.575e+03,-6.8875
2.588e+03,-8.86875
2.600e+03,-10.85
2.612e+03,-9.49062
2.625e+03,-8.13125
2.638e+03,-8.66875
2.650e+03,-9.20312
2.662e+03,-7.00937
2.675e+03,-4.8125
2.688e+03,-7.8375
2.700e+03,-10.8625
2.712e+03,-10.3187
2.725e+03,-9.77187
2.738e+03,-9.84375
2.750e+03,-9.9125
2.762e+03,-8.7875
2.775e+03,-7.65937
2.788e+03,-6.52812
2.800e+03,-5.39688
2.812e+03,-10.2687
2.825e+03,-15.1375
2.838e+03,-12.1187
2.850e+03,-9.1
2.862e+03,-10.0406
2.875e+03,-10.9781
2.888e+03,-8.21562
2.900e+03,-5.45
2.912e+03,-6.66562
2.925e+03,-7.88125
2.938e+03,-10.8344
2.950e+03,-13.7844
2.962e+03,-12.0562
2.975e+03,-10.325
2.988e+03,-10.0969
3.000e+03,-9.86875
3.012e+03,-7.525
3.025e+03,-5.17813
3.038e+03,-8.44687
3.050e+03,-11.7156
3.062e+03,-11.6375
3.075e+03,-11.5562
3.088e+03,-12.3875
3.100e+03,-13.2188
3.112e+03,-10.3531
3.125e+03,-7.48438
3.138e+03,-7.04375
3.150e+03,-6.60312
3.162e+03,-10.9781
3.175e+03,-15.35
3.188e+03,-13.5906
3.200e+03,-11.8312
3.212e+03,-12.1125
3.225e+03,-12.3937
3.238e+03,-9.25
3.250e+03,-6.10312
3.262e+03,-7.07812
3.275e+03,-8.05312
3.288e+03,-11.7219
3.300e+03,-15.3906
3.312e+03,-14.8312
3.325e+03,-14.2719
3.338e+03,-12.3062
3.350e+03,-10.3406
3.362e+03,-7.95312
3.375e+03,-5.56562
3.388e+03,-8.875
3.400e+03,-12.1844
3.412e+03,-14.125
3.425e+03,-16.0625
3.438e+03,-15.475
3.450e+03,-14.8875
3.462e+03,-11.5187
3.475e+03,-8.15
3.488e+03,-7.43437
3.500e+03,-6.71875
3.512e+03,-12.3625
3.525e+03,-18.0062
3.538e+03,-16.9312
3.550e+03,-15.8562
3.562e+03,-14.9062
3.575e+03,-13.9531
3.588e+03,-9.99062
3.600e+03,-6.02812
3.612e+03,-7.76562
3.625e+03,-9.5
3.638e+03,-14.4375
3.650e+03,-19.3719
3.662e+03,-18.1812
3.675e+03,-16.9875
3.688e+03,-13.5844
3.700e+03,-10.1781
3.712e+03,-8.11562
3.725e+03,-6.05313
3.738e+03,-9.33437
3.750e+03,-12.6156
3.762e+03,-15.5906
3.775e+03,-18.5656
3.788e+03,-19.6156
3.800e+03,-20.6656
3.812e+03,-14.1719
3.825e+03,-7.67813
3.838e+03,-7.55937
3.850e+03,-7.44062
3.862e+03,-12.0875
3.875e+03,-16.7344
3.888e+03,-18.975
3.900e+03,-21.2156
3.912e+03,-17.95
3.925e+03,-14.6844
3.938e+03,-10.9062
3.950e+03,-7.12812
3.962e+03,-8.23125
3.975e+03,-9.33125
3.988e+03,-16.4937
4.000e+03,-23.6531
4.012e+03,-24.0719
4.025e+03,-24.4906
4.038e+03,-17.8344
4.050e+03,-11.175
4.062e+03,-8.89687
4.075e+03,-6.61875
4.088e+03,-10.15
4.100e+03,-13.6781
4.112e+03,-22.0938
4.125e+03,-30.5094
4.138e+03,-25.2156
4.150e+03,-19.9219
4.162e+03,-14.1531
4.175e+03,-8.38437
4.188e+03,-8.10938
4.200e+03,-7.83125
4.212e+03,-13.9531
4.225e+03,-20.075
4.238e+03,-23.7344
4.250e+03,-27.3937
4.262e+03,-22.3938
4.275e+03,-17.3937
4.288e+03,-12.3094
4.300e+03,-7.225
4.312e+03,-9.37187
4.325e+03,-11.5187
4.338e+03,-19.025
4.350e+03,-26.5312
4.362e+03,-27.1844
4.375e+03,-27.8375
4.388e+03,-19.3906
4.400e+03,-10.9406
4.412e+03,-9.33437
4.425e+03,-7.725
4.438e+03,-10.975
4.450e+03,-14.225
4.462e+03,-23.8719
4.475e+03,-33.5187
4.488e+03,-29.5938
4.500e+03,-25.6656
4.512e+03,-17.2062
4.525e+03,-8.74375
4.538e+03,-8.83125
4.550e+03,-8.91562
4.562e+03,-13.9062
4.575e+03,-18.8969
4.588e+03,-21.5625
4.600e+03,-24.225
4.612e+03,-20.1781
4.625e+03,-16.1312
4.638e+03,-12.2312
4.650e+03,-8.33125
4.662e+03,-9.71875
4.675e+03,-11.1062
4.688e+03,-18.6937
4.700e+03,-26.2781
4.712e+03,-31.8906
4.725e+03,-37.5
4.738e+03,-24.6469
4.750e+03,-11.7906
4.762e+03,-9.69062
4.775e+03,-7.59062
4.788e+03,-11.1594
4.800e+03,-14.7281
4.812e+03,-18.3187
4.825e+03,-21.9062
4.838e+03,-25.1875
4.850e+03,-28.4688
4.862e+03,-19.0062
4.875e+03,-9.54375
4.888e+03,-9.90937
4.900e+03,-10.275
4.912e+03,-15.0719
4.925e+03,-19.8656
4.938e+03,-22.0469
4.950e+03,-24.225
4.962e+03,-20.6312
4.975e+03,-17.0375
4.988e+03,-12.6312
5.000e+03,-8.22187
5.012e+03,-10.425
5.025e+03,-12.6281
5.038e+03,-16.2375
5.050e+03,-19.8469
5.062e+03,-21.5594
5.075e+03,-23.2688
5.088e+03,-17.5969
5.100e+03,-11.925
5.112e+03,-10.6844
5.125e+03,-9.44062
5.138e+03,-12.3969
5.150e+03,-15.35
5.162e+03,-17.6094
5.175e+03,-19.8656
5.188e+03,-23.0719
5.200e+03,-26.2781
5.212e+03,-18.2437
5.225e+03,-10.2094
5.238e+03,-10.3562
5.250e+03,-10.5031
5.262e+03,-14.3562
5.275e+03,-18.2062
5.288e+03,-18.3875
5.300e+03,-18.5656
5.312e+03,-17.65
5.325e+03,-16.7344
5.338e+03,-13.1969
5.350e+03,-9.65625
5.362e+03,-11
5.375e+03,-12.3406
5.388e+03,-14.9812
5.400e+03,-17.6219
5.412e+03,-19.9031
5.425e+03,-22.1844
5.438e+03,-17.7312
5.450e+03,-13.275
5.462e+03,-11.3719
5.475e+03,-9.46562
5.488e+03,-12.6531
5.500e+03,-15.8406
5.512e+03,-15.9219
5.525e+03,-16
5.538e+03,-19.7594
5.550e+03,-23.5188
5.562e+03,-17.0938
5.575e+03,-10.6656
5.588e+03,-11.3719
5.600e+03,-12.0781
5.612e+03,-14.1062
5.625e+03,-16.1312
5.638e+03,-16.8156
5.650e+03,-17.5
5.662e+03,-17.6281
5.675e+03,-17.7562
5.688e+03,-13.9125
5.700e+03,-10.0656
5.712e+03,-11.8781
5.725e+03,-13.6875
5.738e+03,-15.0156
5.750e+03,-16.3438
5.762e+03,-17.8156
5.775e+03,-19.2875
5.788e+03,-16.2937
5.800e+03,-13.3
5.812e+03,-12.5125
5.825e+03,-11.725
5.838e+03,-13.6969
5.850e+03,-15.6656
5.862e+03,-15.6656
5.875e+03,-15.6656
5.888e+03,-17.9
5.900e+03,-20.1344
5.912e+03,-16.225
5.925e+03,-12.3156
5.938e+03,-12.4344
5.950e+03,-12.5531
5.962e+03,-14.6219
5.975e+03,-16.6906
5.988e+03,-16.1781
6.000e+03,-15.6656
6.012e+03,-16.3281
6.025e+03,-16.9875
6.038e+03,-14.2062
6.050e+03,-11.425
6.062e+03,-12.9031
6.075e+03,-14.3781
6.088e+03,-14.475
6.100e+03,-14.5719
6.112e+03,-16.675
6.125e+03,-18.7781
6.138e+03,-17.0625
6.150e+03,-15.3438
6.162e+03,-13.5406
6.175e+03,-11.7375
6.188e+03,-13.825
6.200e+03,-15.9094
6.212e+03,-14.9406
6.225e+03,-13.9719
6.238e+03,-17.8219
6.250e+03,-21.6719
6.262e+03,-17.0062
6.275e+03,-12.3406
6.288e+03,-13.1562
6.300e+03,-13.9719
6.312e+03,-14.225
6.325e+03,-14.4781
6.338e+03,-14.9125
6.350e+03,-15.3438
6.362e+03,-17.0125
6.375e+03,-18.6781
6.388e+03,-15.7312
6.400e+03,-12.7812
6.412e+03,-14.4531
6.425e+03,-16.125
6.438e+03,-15.3406
6.450e+03,-14.5562
6.462e+03,-15.8125
6.475e+03,-17.0656
6.488e+03,-16.4312
6.500e+03,-15.7969
6.512e+03,-15.2312
6.525e+03,-14.6625
6.538e+03,-15.2562
6.550e+03,-15.85
6.562e+03,-14.7375
6.575e+03,-13.625
6.588e+03,-16.5312
6.600e+03,-19.4375
6.612e+03,-17.025
6.625e+03,-14.6094
6.638e+03,-14.4969
6.650e+03,-14.3812
6.662e+03,-15.0437
6.675e+03,-15.7031
6.688e+03,-15.0094
6.700e+03,-14.3125
6.712e+03,-16.9719
6.725e+03,-19.6281
6.738e+03,-16.8438
6.750e+03,-14.0562
6.762e+03,-15.0125
6.775e+03,-15.9688
6.788e+03,-14.3312
6.800e+03,-12.6937
6.812e+03,-15.0906
6.825e+03,-17.4875
6.838e+03,-17.6937
6.850e+03,-17.8969
6.862e+03,-16.6781
6.875e+03,-15.4594
6.888e+03,-16.1406
6.900e+03,-16.8187
6.912e+03,-15.2844
6.925e+03,-13.7469
6.938e+03,-17.6125
6.950e+03,-21.4781
6.962e+03,-18.5719
6.975e+03,-15.6656
6.988e+03,-16.8781
7.000e+03,-18.0906
7.012e+03,-16.2031
7.025e+03,-14.3125
7.038e+03,-14.7687
7.050e+03,-15.2219
7.062e+03,-17.2562
7.075e+03,-19.2875
7.088e+03,-17.8594
7.100e+03,-16.4281
7.112e+03,-16.7094
7.125e+03,-16.9875
7.138e+03,-15.425
7.150e+03,-13.8594
7.162e+03,-15.2406
7.175e+03,-16.6187
7.188e+03,-17.0375
7.200e+03,-17.4562
7.212e+03,-17.4562
7.225e+03,-17.4562
7.238e+03,-16.7594
7.250e+03,-16.0625
7.262e+03,-14.5281
7.275e+03,-12.9906
7.288e+03,-16.5344
7.300e+03,-20.075
7.312e+03,-19.1594
7.325e+03,-18.2437
7.338e+03,-17.7
7.350e+03,-17.1562
7.362e+03,-15.5687
7.375e+03,-13.9781
7.388e+03,-13.9781
7.400e+03,-13.9781
7.412e+03,-17.7281
7.425e+03,-21.4781
7.438e+03,-19.5562
7.450e+03,-17.6312
7.462e+03,-17.5437
7.475e+03,-17.4562
7.488e+03,-14.5031
7.500e+03,-11.5469
7.512e+03,-13.8562
7.525e+03,-16.1656
7.538e+03,-18.7687
7.550e+03,-21.3719
7.562e+03,-20.3719
7.575e+03,-19.3719
7.588e+03,-17.6969
7.600e+03,-16.0219
7.612e+03,-14.7719
7.625e+03,-13.5219
7.638e+03,-16.9937
7.650e+03,-20.4656
7.662e+03,-19.8438
7.675e+03,-19.2219
7.688e+03,-20.325
7.700e+03,-21.425
7.712e+03,-17.4531
7.725e+03,-13.4781
7.738e+03,-13.6312
7.750e+03,-13.7844
7.762e+03,-17.3656
7.775e+03,-20.9437
7.788e+03,-21.2531
7.800e+03,-21.5625
7.812e+03,-19.8969
7.825e+03,-18.2312
7.838e+03,-15.6375
7.850e+03,-13.0437
7.862e+03,-14.3469
7.875e+03,-15.6469
7.888e+03,-20.2375
7.900e+03,-24.8281
7.912e+03,-23.4906
7.925e+03,-22.1531
7.938e+03,-18.9094
7.950e+03,-15.6656
7.962e+03,-14.1375
7.975e+03,-12.6094
7.988e+03,-16.3438
8.000e+03,-20.075
8.012e+03,-21.8438
8.025e+03,-23.6094
8.038e+03,-21.6187
8.050e+03,-19.6281
8.062e+03,-16.375
8.075e+03,-13.1219
8.088e+03,-13.4062
8.100e+03,-13.6875
8.112e+03,-19.0906
8.125e+03,-24.4906
8.138e+03,-23.6844
8.150e+03,-22.875
8.162e+03,-21.4375
8.175e+03,-20
8.188e+03,-16.0125
8.200e+03,-12.0219
8.212e+03,-14.4219
8.225e+03,-16.8187
8.238e+03,-24.0187
8.250e+03,-31.2156
8.262e+03,-28.3031
8.275e+03,-25.3906
8.288e+03,-20.3062
8.300e+03,-15.2219
8.312e+03,-14.1844
8.325e+03,-13.1469
8.338e+03,-16.0906
8.350e+03,-19.0344
8.362e+03,-23.7531
8.375e+03,-28.4688
8.388e+03,-26.9312
8.400e+03,-25.3906
8.412e+03,-19.3469
8.425e+03,-13.3
8.438e+03,-13.8469
8.450e+03,-14.3937
8.462e+03,-19.3094
8.475e+03,-24.225
8.488e+03,-26.2156
8.500e+03,-28.2062
8.512e+03,-23.1687
8.525e+03,-18.1281
8.538e+03,-15.4437
8.550e+03,-12.7594
8.562e+03,-14.4625
8.575e+03,-16.1656
8.588e+03,-28.3375
8.600e+03,-40.5094
8.612e+03,-35.5094
8.625e+03,-30.5094
8.638e+03,-23.0062
8.650e+03,-15.5
8.662e+03,-14.2031
8.675e+03,-12.9062
8.688e+03,-16.1656
8.700e+03,-19.4219
8.712e+03,-26.4719
8.725e+03,-33.5187
8.738e+03,-28.95
8.750e+03,-24.3813
8.762e+03,-18.825
8.775e+03,-13.2687
8.788e+03,-13.8594
8.800e+03,-14.4469
8.812e+03,-19.6969
8.825e+03,-24.9469
8.838e+03,-28.6656
8.850e+03,-32.3813
8.862e+03,-26.1062
8.875e+03,-19.8281
8.888e+03,-16.3937
8.900e+03,-12.9594
8.912e+03,-15.3812
8.925e+03,-17.8031
8.938e+03,-24.5094
8.950e+03,-31.2156
8.962e+03,-31.8
8.975e+03,-32.3813
8.988e+03,-23.5875
9.000e+03,-14.7937
9.012e+03,-14.1906
9.025e+03,-13.5875
9.038e+03,-16.2281
9.050e+03,-18.8656
9.062e+03,-24.6875
9.075e+03,-30.5094
9.088e+03,-27.5
9.100e+03,-24.4906
9.112e+03,-19.2
9.125e+03,-13.9094
9.138e+03,-14.275
9.150e+03,-14.6375
9.162e+03,-19.1469
9.175e+03,-23.6531
9.188e+03,-25.0063
9.200e+03,-26.3594
9.212e+03,-22.3875
9.225e+03,-18.4156
9.238e+03,-15.7781
9.250e+03,-13.1375
9.262e+03,-14.7094
9.275e+03,-16.2781
9.288e+03,-21.0844
9.300e+03,-25.8875
9.312e+03,-30.1906
9.325e+03,-34.4906
9.338e+03,-25.5406
9.350e+03,-16.5906
9.362e+03,-14.9469
9.375e+03,-13.3
9.388e+03,-16.8844
9.400e+03,-20.4656
9.412e+03,-21.8062
9.425e+03,-23.1469
9.438e+03,-24.7125
9.450e+03,-26.2781
9.462e+03,-19.9844
9.475e+03,-13.6875
9.488e+03,-14.4406
9.500e+03,-15.1937
9.512e+03,-18.9437
9.525e+03,-22.6937
9.538e+03,-24.5281
9.550e+03,-26.3594
9.562e+03,-23.1125
9.575e+03,-19.8656
9.588e+03,-16.7594
9.600e+03,-13.6531
9.612e+03,-16.0094
9.625e+03,-18.3625
9.638e+03,-21.7781
9.650e+03,-25.1938
9.662e+03,-28.2062
9.675e+03,-31.2156
9.688e+03,-23.4312
9.700e+03,-15.6469
9.712e+03,-15.7094
9.725e+03,-15.7687
9.738e+03,-17.8844
9.750e+03,-20
9.762e+03,-21.4969
9.775e+03,-22.9906
9.788e+03,-24.0938
9.800e+03,-25.1938
9.812e+03,-20.0125
9.825e+03,-14.8281
9.838e+03,-15.1437
9.850e+03,-15.4594
9.862e+03,-19.3031
9.875e+03,-23.1469
9.888e+03,-22.7656
9.900e+03,-22.3812
9.912e+03,-20.6469
9.925e+03,-18.9125
9.938e+03,-16.625
9.950e+03,-14.3344
9.962e+03,-15.9344
9.975e+03,-17.5312
9.988e+03,-19.0531
1.000e+04,-20.575
1.001e+04,-23.1219
1.002e+04,-25.6656
1.004e+04,-21.3531
1.005e+04,-17.0375
1.006e+04,-15.8719
1.008e+04,-14.7062
1.009e+04,-17.7781
1.010e+04,-20.85
1.011e+04,-20.8969
1.012e+04,-20.9437
1.014e+04,-23.9656
1.015e+04,-26.9875
1.016e+04,-20.7594
1.018e+04,-14.5281
1.019e+04,-15.6844
1.020e+04,-16.8375
1.021e+04,-17.7031
1.022e+04,-18.5656
1.024e+04,-20.375
1.025e+04,-22.1844
1.026e+04,-20.4969
1.028e+04,-18.8062
1.029e+04,-16.6219
1.030e+04,-14.4344
1.031e+04,-15.9688
1.032e+04,-17.5
1.034e+04,-18.7406
1.035e+04,-19.9781
1.036e+04,-21.6656
1.038e+04,-23.35
1.039e+04,-20.175
1.040e+04,-16.9969
1.041e+04,-16.8438
1.042e+04,-16.6906
1.044e+04,-18.3344
1.045e+04,-19.9781
1.046e+04,-19.7594
1.048e+04,-19.5406
1.049e+04,-21.8844
1.050e+04,-24.225
1.051e+04,-20.4437
1.052e+04,-16.6625
1.054e+04,-17.075
1.055e+04,-17.4875
1.056e+04,-18.5594
1.058e+04,-19.6281
1.059e+04,-19.5844
1.060e+04,-19.5406
1.061e+04,-20.0031
1.062e+04,-20.4656
1.064e+04,-18.4125
1.065e+04,-16.3594
1.066e+04,-17.7906
1.068e+04,-19.2219
1.069e+04,-18.3094
1.070e+04,-17.3937
1.071e+04,-20.2719
1.072e+04,-23.1469
1.074e+04,-20.7219
1.075e+04,-18.2969
1.076e+04,-17
1.078e+04,-15.7031
1.079e+04,-17.5281
1.080e+04,-19.3531
1.081e+04,-18.6031
1.082e+04,-17.85
1.084e+04,-21.1156
1.085e+04,-24.3813
1.086e+04,-20.3719
1.088e+04,-16.3594
1.089e+04,-17.225
1.090e+04,-18.0906
1.091e+04,-17.5437
1.092e+04,-16.9969
1.094e+04,-17.8875
1.095e+04,-18.7781
1.096e+04,-19.3781
1.098e+04,-19.9781
1.099e+04,-18.6094
1.100e+04,-17.2375
1.101e+04,-17.8937
1.102e+04,-18.55
1.104e+04,-17.8094
1.105e+04,-17.0656
1.106e+04,-19.0406
1.108e+04,-21.0156
1.109e+04,-20.2188
1.110e+04,-19.4219
1.111e+04,-18.9875
1.112e+04,-18.55
1.114e+04,-18.1937
1.115e+04,-17.8375
1.116e+04,-17.4375
1.118e+04,-17.0375
1.119e+04,-18.8062
1.120e+04,-20.575
1.121e+04,-19.3094
1.122e+04,-18.0437
1.124e+04,-17.7188
1.125e+04,-17.3937
1.126e+04,-16.9937
1.128e+04,-16.5906
1.129e+04,-17.2437
1.130e+04,-17.8969
1.131e+04,-20.1406
1.132e+04,-22.3812
1.134e+04,-19.8094
1.135e+04,-17.2375
1.136e+04,-18.2062
1.138e+04,-19.175
1.139e+04,-17.5719
1.140e+04,-15.9688
1.141e+04,-18.9375
1.142e+04,-21.9062
1.144e+04,-21.2094
1.145e+04,-20.5094
1.146e+04,-19.3594
1.148e+04,-18.2062
1.149e+04,-18.2062
1.150e+04,-18.2062
1.151e+04,-17.5469
1.152e+04,-16.8844
1.154e+04,-19.8812
1.155e+04,-22.875
1.156e+04,-21.125
1.158e+04,-19.3719
1.159e+04,-19.9187
1.160e+04,-20.4656
1.161e+04,-18.7719
1.162e+04,-17.075
1.164e+04,-18.5
1.165e+04,-19.9219
1.166e+04,-21.5344
1.168e+04,-23.1469
1.169e+04,-21.8281
1.170e+04,-20.5094
1.171e+04,-19.9
1.172e+04,-19.2875
1.174e+04,-17.85
1.175e+04,-16.4094
1.176e+04,-18.0187
1.178e+04,-19.6281
1.179e+04,-20.3219
1.180e+04,-21.0156
1.181e+04,-20.7625
1.182e+04,-20.5094
1.184e+04,-19.175
1.185e+04,-17.8375
1.186e+04,-16.6469
1.188e+04,-15.4531
1.189e+04,-18.6219
1.190e+04,-21.7875
1.191e+04,-22.0844
1.192e+04,-22.3812
1.194e+04,-21.3625
1.195e+04,-20.3406
1.196e+04,-18.0031
1.198e+04,-15.6656
1.199e+04,-16.4969
1.200e+04,-17.3281
1.201e+04,-21.3594
1.202e+04,-25.3906
1.204e+04,-23.5312
1.205e+04,-21.6719
1.206e+04,-20.7594
1.208e+04,-19.8469
1.209e+04,-17.4312
1.210e+04,-15.0125
1.211e+04,-17.5062
1.212e+04,-20
1.214e+04,-22.8344
1.215e+04,-25.6656
1.216e+04,-23.6687
1.218e+04,-21.6719
1.219e+04,-19.0625
1.220e+04,-16.4531
1.221e+04,-16.125
1.222e+04,-15.7969
1.224e+04,-18.5062
1.225e+04,-21.2156
1.226e+04,-22.4125
1.228e+04,-23.6094
1.229e+04,-23.0813
1.230e+04,-22.55
1.231e+04,-18.8969
1.232e+04,-15.2406
1.234e+04,-15.9656
1.235e+04,-16.6906
1.236e+04,-20.7906
1.238e+04,-24.8875
1.239e+04,-24.2719
1.240e+04,-23.6531
1.241e+04,-20.9437
1.242e+04,-18.2312
1.244e+04,-16.7375
1.245e+04,-15.2406
1.246e+04,-16.9031
1.248e+04,-18.5656
1.249e+04,-23.0344
1.250e+04,-27.5
1.251e+04,-25.7625
1.252e+04,-24.025
1.254e+04,-20.7562
1.255e+04,-17.4875
1.256e+04,-16.5125
1.258e+04,-15.5344
1.259e+04,-19.2062
1.260e+04,-22.875
1.261e+04,-26.2094
1.262e+04,-29.5406
1.264e+04,-26.1187
1.265e+04,-22.6937
1.266e+04,-18.9281
1.268e+04,-15.1625
1.269e+04,-15.6656
1.270e+04,-16.1656
1.271e+04,-22.5312
1.272e+04,-28.8969
1.274e+04,-28.8969
1.275e+04,-28.8969
1.276e+04,-24.7812
1.278e+04,-20.6656
1.279e+04,-18.0625
1.280e+04,-15.4594
1.281e+04,-17.5
1.282e+04,-19.5406
1.284e+04,-30.025
1.285e+04,-40.5094
1.286e+04,-33.75
1.288e+04,-26.9875
1.289e+04,-21.8031
1.290e+04,-16.6187
1.291e+04,-16.5375
1.292e+04,-16.4531
1.294e+04,-19.9875
1.295e+04,-23.5188
1.296e+04,-25.6781
1.298e+04,-27.8375
1.299e+04,-26.8625
1.300e+04,-25.8875
1.301e+04,-21.0219
1.302e+04,-16.1562
1.304e+04,-16.5625
1.305e+04,-16.9688
1.306e+04,-22.4031
1.308e+04,-27.8375
1.309e+04,-28.3687
1.310e+04,-28.8969
1.311e+04,-23.9656
1.312e+04,-19.0344
1.314e+04,-17.2437
