Final Project/12-5/NEW R2=R12=R13=10k, f=59H, V=18V/triangle_18V_FFT.CSV

Model,TBS1052C
Firmware Version,v2015-08-04-prequal4ch70_v1.3

Point Format,Y
Horizontal Units,Hz
Horizontal Scale,1562.5
Sample Interval,12.5
Filter Frequency,2e+08
Record Length,1250
Gating,0.0% to 100.0%
Probe Attenuation,1
Vertical Units,dB
Vertical Offset,0
Vertical Scale,20
Label,
FFT-FREQ,FFT-AMPL
0.000e+00,-9.54375
1.250e+01,-1.45312
2.500e+01,6.64062
3.750e+01,12.1656
5.000e+01,17.6906
6.250e+01,16.675
7.500e+01,15.6594
8.750e+01,6.74063
1.000e+02,-2.17813
1.125e+02,-12.6656
1.250e+02,-23.1531
1.375e+02,-14.7375
1.500e+02,-6.31875
1.625e+02,-3.29062
1.750e+02,-0.2625
1.875e+02,-3.37187
2.000e+02,-6.48125
2.125e+02,-19.2344
2.250e+02,-31.9844
2.375e+02,-31.5469
2.500e+02,-31.1062
2.625e+02,-21.2594
2.750e+02,-11.4125
2.875e+02,-10.6812
3.000e+02,-9.95
3.125e+02,-15.6937
3.250e+02,-21.4375
3.375e+02,-26.1938
3.500e+02,-30.95
3.625e+02,-28.9031
3.750e+02,-26.8562
3.875e+02,-21.4844
4.000e+02,-16.1094
4.125e+02,-17.1719
4.250e+02,-18.2344
4.375e+02,-27.8687
4.500e+02,-37.5
4.625e+02,-36.65
4.750e+02,-35.7969
4.875e+02,-30.7563
5.000e+02,-25.7156
5.125e+02,-22.7469
5.250e+02,-19.7781
5.375e+02,-22.8469
5.500e+02,-25.9156
5.625e+02,-29.1281
5.750e+02,-32.3406
5.875e+02,-36.3406
6.000e+02,-40.3406
6.125e+02,-33.3312
6.250e+02,-26.3219
6.375e+02,-24.575
6.500e+02,-22.8281
6.625e+02,-29.1437
6.750e+02,-35.4594
6.875e+02,-34.125
7.000e+02,-32.7875
7.125e+02,-33.6406
7.250e+02,-34.4906
7.375e+02,-31.7344
7.500e+02,-28.975
7.625e+02,-28.9531
7.750e+02,-28.9281
7.875e+02,-33.7
8.000e+02,-38.4688
8.125e+02,-35.0406
8.250e+02,-31.6125
8.375e+02,-32.4813
8.500e+02,-33.35
8.625e+02,-30.0594
8.750e+02,-26.7656
8.875e+02,-29.475
9.000e+02,-32.1844
9.125e+02,-33.3813
9.250e+02,-34.5781
9.375e+02,-35.7188
9.500e+02,-36.8563
9.625e+02,-35.675
9.750e+02,-34.4906
9.875e+02,-31.7344
1.000e+03,-28.975
1.012e+03,-34.2062
1.025e+03,-39.4375
1.038e+03,-36.6437
1.050e+03,-33.8469
1.062e+03,-34.1688
1.075e+03,-34.4906
1.088e+03,-32.9
1.100e+03,-31.3094
1.112e+03,-30.7281
1.125e+03,-30.1437
1.138e+03,-37.3188
1.150e+03,-44.4906
1.162e+03,-42.4156
1.175e+03,-40.3406
1.188e+03,-37.2906
1.200e+03,-34.2375
1.212e+03,-33.2125
1.225e+03,-32.1844
1.238e+03,-34.05
1.250e+03,-35.9156
1.262e+03,-40.6875
1.275e+03,-45.4594
1.288e+03,-41.4813
1.300e+03,-37.5
1.312e+03,-39.7188
1.325e+03,-41.9375
1.338e+03,-38.8687
1.350e+03,-35.7969
1.362e+03,-38.0688
1.375e+03,-40.3406
1.388e+03,-42.4156
1.400e+03,-44.4906
1.412e+03,-39.4062
1.425e+03,-34.3188
1.438e+03,-41.3937
1.450e+03,-48.4688
1.462e+03,-46.9656
1.475e+03,-45.4594
1.488e+03,-40.2031
1.500e+03,-34.9469
1.512e+03,-38.4438
1.525e+03,-41.9375
1.538e+03,-39.7188
1.550e+03,-37.5
1.562e+03,-39.7188
1.575e+03,-41.9375
1.588e+03,-46.7094
1.600e+03,-51.4781
1.612e+03,-42.9
1.625e+03,-34.3188
1.638e+03,-39.4062
1.650e+03,-44.4906
1.662e+03,-41.9656
1.675e+03,-39.4375
1.688e+03,-38.1469
1.700e+03,-36.8563
1.712e+03,-37.1781
1.725e+03,-37.5
1.738e+03,-35.3281
1.750e+03,-33.1531
1.762e+03,-42.3156
1.775e+03,-51.4781
1.788e+03,-43.6375
1.800e+03,-35.7969
1.812e+03,-36.65
1.825e+03,-37.5
1.838e+03,-35.9094
1.850e+03,-34.3188
1.862e+03,-34.4062
1.875e+03,-34.4906
1.888e+03,-35.4594
1.900e+03,-36.4281
1.912e+03,-33.2719
1.925e+03,-30.1125
1.938e+03,-32.7344
1.950e+03,-35.3531
1.962e+03,-34.8375
1.975e+03,-34.3188
1.988e+03,-34.4062
2.000e+03,-34.4906
2.012e+03,-35.675
2.025e+03,-36.8563
2.038e+03,-35.1031
2.050e+03,-33.35
2.062e+03,-35.1031
2.075e+03,-36.8563
2.088e+03,-35.9031
2.100e+03,-34.9469
2.112e+03,-34.7188
2.125e+03,-34.4906
2.138e+03,-36.8344
2.150e+03,-39.175
2.162e+03,-37.0625
2.175e+03,-34.9469
2.188e+03,-37.6437
2.200e+03,-40.3406
2.212e+03,-40.9094
2.225e+03,-41.4781
2.238e+03,-40.4594
2.250e+03,-39.4375
2.262e+03,-45.4594
2.275e+03,-51.4781
2.288e+03,-45.9094
2.300e+03,-40.3406
2.312e+03,-42.9
2.325e+03,-45.4594
2.338e+03,-42.3188
2.350e+03,-39.175
2.362e+03,-41.8344
2.375e+03,-44.4906
2.388e+03,-47.9844
2.400e+03,-51.4781
2.412e+03,-43.6375
2.425e+03,-35.7969
2.438e+03,-37.3625
2.450e+03,-38.9281
2.462e+03,-38.7
2.475e+03,-38.4688
2.488e+03,-38.4688
2.500e+03,-38.4688
2.512e+03,-43.4688
2.525e+03,-48.4688
2.538e+03,-42.1344
2.550e+03,-35.7969
2.562e+03,-38.0688
2.575e+03,-40.3406
2.588e+03,-40.3406
2.600e+03,-40.3406
2.612e+03,-37.9
2.625e+03,-35.4594
2.638e+03,-36.3969
2.650e+03,-37.3312
2.662e+03,-35.9125
2.675e+03,-34.4906
2.688e+03,-36.8344
2.700e+03,-39.175
2.712e+03,-37.6719
2.725e+03,-36.1656
2.738e+03,-35.3719
2.750e+03,-34.5781
2.762e+03,-37.0094
2.775e+03,-39.4375
2.788e+03,-38.1469
2.800e+03,-36.8563
2.812e+03,-37.6625
2.825e+03,-38.4688
2.838e+03,-38.8219
2.850e+03,-39.175
2.862e+03,-38.3375
2.875e+03,-37.5
2.888e+03,-40.9969
2.900e+03,-44.4906
2.912e+03,-43.2156
2.925e+03,-41.9375
2.938e+03,-42.1938
2.950e+03,-42.45
2.962e+03,-43.4719
2.975e+03,-44.4906
2.988e+03,-42.4156
3.000e+03,-40.3406
3.012e+03,-45.9094
3.025e+03,-51.4781
3.038e+03,-45.3281
3.050e+03,-39.175
3.062e+03,-41.8344
3.075e+03,-44.4906
3.088e+03,-44.975
3.100e+03,-45.4594
3.112e+03,-43.4688
3.125e+03,-41.4781
3.138e+03,-41.9656
3.150e+03,-42.45
3.162e+03,-42.45
3.175e+03,-42.45
3.188e+03,-39.975
3.200e+03,-37.5
3.212e+03,-44.4906
3.225e+03,-51.4781
3.238e+03,-44.4062
3.250e+03,-37.3312
3.262e+03,-41.3969
3.275e+03,-45.4594
3.288e+03,-45.4594
3.300e+03,-45.4594
3.312e+03,-41.4813
3.325e+03,-37.5
3.338e+03,-41.4813
3.350e+03,-45.4594
3.362e+03,-42.45
3.375e+03,-39.4375
3.388e+03,-40.4594
3.400e+03,-41.4781
3.412e+03,-44.975
3.425e+03,-48.4688
3.438e+03,-46.4813
3.450e+03,-44.4906
3.462e+03,-42.9844
3.475e+03,-41.4781
3.488e+03,-44.975
3.500e+03,-48.4688
3.512e+03,-42.3188
3.525e+03,-36.1656
3.538e+03,-38.8219
3.550e+03,-41.4781
3.562e+03,-39.4062
3.575e+03,-37.3312
3.588e+03,-38.2531
3.600e+03,-39.175
3.612e+03,-38.3375
3.625e+03,-37.5
3.638e+03,-37.1781
3.650e+03,-36.8563
3.662e+03,-44.1688
3.675e+03,-51.4781
3.688e+03,-43.6375
3.700e+03,-35.7969
3.712e+03,-38.6375
3.725e+03,-41.4781
3.738e+03,-39.4906
3.750e+03,-37.5
3.762e+03,-37.9844
3.775e+03,-38.4688
3.788e+03,-41.9656
3.800e+03,-45.4594
3.812e+03,-40.4594
3.825e+03,-35.4594
3.838e+03,-38.7
3.850e+03,-41.9375
3.862e+03,-39.7188
3.875e+03,-37.5
3.888e+03,-37.1781
3.900e+03,-36.8563
3.912e+03,-38.6
3.925e+03,-40.3406
3.938e+03,-38.9219
3.950e+03,-37.5
3.962e+03,-39.4906
3.975e+03,-41.4781
3.988e+03,-40.9094
4.000e+03,-40.3406
4.012e+03,-40.3406
4.025e+03,-40.3406
4.038e+03,-45.9094
4.050e+03,-51.4781
4.062e+03,-46.4781
4.075e+03,-41.4781
4.088e+03,-41.7094
4.100e+03,-41.9375
4.112e+03,-46.7094
4.125e+03,-51.4781
4.138e+03,-44.4906
4.150e+03,-37.5
4.162e+03,-38.9219
4.175e+03,-40.3406
4.188e+03,-40.3406
4.200e+03,-40.3406
4.212e+03,-39.4062
4.225e+03,-38.4688
4.238e+03,-41.4813
4.250e+03,-44.4906
4.262e+03,-41.8344
4.275e+03,-39.175
4.288e+03,-38.2531
4.300e+03,-37.3312
4.312e+03,-40.9125
4.325e+03,-44.4906
4.338e+03,-39.7188
4.350e+03,-34.9469
4.362e+03,-35.5562
4.375e+03,-36.1656
4.388e+03,-35.7594
4.400e+03,-35.3531
4.412e+03,-36.1063
4.425e+03,-36.8563
4.438e+03,-44.1688
4.450e+03,-51.4781
4.462e+03,-43.4688
4.475e+03,-35.4594
4.488e+03,-37.9
4.500e+03,-40.3406
4.512e+03,-37.9
4.525e+03,-35.4594
4.538e+03,-35.4594
4.550e+03,-35.4594
4.562e+03,-38.9562
4.575e+03,-42.45
4.588e+03,-38.3438
4.600e+03,-34.2375
4.612e+03,-36.3531
4.625e+03,-38.4688
4.638e+03,-39.4062
4.650e+03,-40.3406
4.662e+03,-38.9219
4.675e+03,-37.5
4.688e+03,-39.4906
4.700e+03,-41.4781
4.712e+03,-38.6375
4.725e+03,-35.7969
4.738e+03,-36.65
4.750e+03,-37.5
4.762e+03,-42.9844
4.775e+03,-48.4688
4.788e+03,-42.9844
4.800e+03,-37.5
4.812e+03,-40.9969
4.825e+03,-44.4906
4.838e+03,-42.4156
4.850e+03,-40.3406
4.862e+03,-39.6344
4.875e+03,-38.9281
4.888e+03,-40.4344
4.900e+03,-41.9375
4.912e+03,-39.6344
4.925e+03,-37.3312
4.938e+03,-38.3844
4.950e+03,-39.4375
4.962e+03,-45.4594
4.975e+03,-51.4781
4.988e+03,-43.4688
5.000e+03,-35.4594
5.012e+03,-38.4688
5.025e+03,-41.4781
5.038e+03,-40.9094
5.050e+03,-40.3406
5.062e+03,-37.2906
5.075e+03,-34.2375
5.088e+03,-39.3656
5.100e+03,-44.4906
5.112e+03,-39.975
5.125e+03,-35.4594
5.138e+03,-38.4688
5.150e+03,-41.4781
5.162e+03,-41.4781
5.175e+03,-41.4781
5.188e+03,-40.9094
5.200e+03,-40.3406
5.212e+03,-40.3406
5.225e+03,-40.3406
5.238e+03,-40.9094
5.250e+03,-41.4781
5.262e+03,-40.9094
5.275e+03,-40.3406
5.288e+03,-42.4156
5.300e+03,-44.4906
5.312e+03,-46.4813
5.325e+03,-48.4688
5.338e+03,-43.8219
5.350e+03,-39.175
5.362e+03,-43.8219
5.375e+03,-48.4688
5.388e+03,-42.9844
5.400e+03,-37.5
5.412e+03,-40.9969
5.425e+03,-44.4906
5.438e+03,-40.9125
5.450e+03,-37.3312
5.462e+03,-39.4062
5.475e+03,-41.4781
5.488e+03,-43.4688
5.500e+03,-45.4594
5.512e+03,-43.9562
5.525e+03,-42.45
5.538e+03,-39.8906
5.550e+03,-37.3312
5.562e+03,-39.4062
5.575e+03,-41.4781
5.588e+03,-38.4688
5.600e+03,-35.4594
5.612e+03,-37.9
5.625e+03,-40.3406
5.638e+03,-38.9219
5.650e+03,-37.5
5.662e+03,-36.7094
5.675e+03,-35.9156
5.688e+03,-40.2031
5.700e+03,-44.4906
5.712e+03,-39.4906
5.725e+03,-34.4906
5.738e+03,-34.4062
5.750e+03,-34.3188
5.762e+03,-35.2437
5.775e+03,-36.1656
5.788e+03,-36.5125
5.800e+03,-36.8563
5.812e+03,-40.675
5.825e+03,-44.4906
5.838e+03,-40.1437
5.850e+03,-35.7969
5.862e+03,-38.0688
5.875e+03,-40.3406
5.888e+03,-41.3969
5.900e+03,-42.45
5.912e+03,-39.6531
5.925e+03,-36.8563
5.938e+03,-44.1688
5.950e+03,-51.4781
5.962e+03,-45.9094
5.975e+03,-40.3406
5.988e+03,-42.4156
6.000e+03,-44.4906
6.012e+03,-46.4813
6.025e+03,-48.4688
6.038e+03,-46.4813
6.050e+03,-44.4906
6.062e+03,-42.4156
6.075e+03,-40.3406
6.088e+03,-38.8375
6.100e+03,-37.3312
6.112e+03,-38.8375
6.125e+03,-40.3406
6.138e+03,-38.2531
6.150e+03,-36.1656
6.162e+03,-39.0531
6.175e+03,-41.9375
6.188e+03,-40.6875
6.200e+03,-39.4375
6.212e+03,-38.3844
6.225e+03,-37.3312
6.238e+03,-37.3312
6.250e+03,-37.3312
6.262e+03,-37.3312
6.275e+03,-37.3312
6.288e+03,-38.2531
6.300e+03,-39.175
6.312e+03,-37.6719
6.325e+03,-36.1656
6.338e+03,-36.5125
6.350e+03,-36.8563
6.362e+03,-37.1781
6.375e+03,-37.5
6.388e+03,-35.8687
6.400e+03,-34.2375
6.412e+03,-37.8594
6.425e+03,-41.4781
6.438e+03,-39.4906
6.450e+03,-37.5
6.462e+03,-39.7188
6.475e+03,-41.9375
6.488e+03,-45.2031
6.500e+03,-48.4688
6.512e+03,-42.6625
6.525e+03,-36.8563
6.538e+03,-41.1594
6.550e+03,-45.4594
6.562e+03,-45.4594
6.575e+03,-45.4594
6.588e+03,-45.4594
6.600e+03,-45.4594
6.612e+03,-43.4688
6.625e+03,-41.4781
6.638e+03,-44.975
6.650e+03,-48.4688
6.662e+03,-42.3188
6.675e+03,-36.1656
6.688e+03,-43.8219
6.700e+03,-51.4781
6.712e+03,-45.9094
6.725e+03,-40.3406
6.738e+03,-42.4156
6.750e+03,-44.4906
6.762e+03,-46.4813
6.775e+03,-48.4688
6.788e+03,-44.4062
6.800e+03,-40.3406
6.812e+03,-40.3406
6.825e+03,-40.3406
6.838e+03,-38.2531
6.850e+03,-36.1656
6.862e+03,-36.8344
6.875e+03,-37.5
6.888e+03,-37.9844
6.900e+03,-38.4688
6.912e+03,-38.8219
6.925e+03,-39.175
6.938e+03,-40.3281
6.950e+03,-41.4781
6.962e+03,-42.9844
6.975e+03,-44.4906
6.988e+03,-41.8344
7.000e+03,-39.175
7.012e+03,-43.8219
7.025e+03,-48.4688
7.038e+03,-48.4688
7.050e+03,-48.4688
7.062e+03,-45.4594
7.075e+03,-42.45
7.088e+03,-45.4594
7.100e+03,-48.4688
7.112e+03,-45.4594
7.125e+03,-42.45
7.138e+03,-43.4719
7.150e+03,-44.4906
7.162e+03,-47.9844
7.175e+03,-51.4781
7.188e+03,-45.3281
7.200e+03,-39.175
7.212e+03,-40.5562
7.225e+03,-41.9375
7.238e+03,-39.1844
7.250e+03,-36.4281
7.262e+03,-39.1844
7.275e+03,-41.9375
7.288e+03,-46.7094
7.300e+03,-51.4781
7.312e+03,-51.4781
7.325e+03,-51.4781
7.338e+03,-44.1688
7.350e+03,-36.8563
7.362e+03,-44.1688
7.375e+03,-51.4781
7.388e+03,-45.4594
7.400e+03,-39.4375
7.412e+03,-42.45
7.425e+03,-45.4594
7.438e+03,-43.4688
7.450e+03,-41.4781
7.462e+03,-38.8219
7.475e+03,-36.1656
7.488e+03,-43.8219
7.500e+03,-51.4781
7.512e+03,-48.4688
7.525e+03,-45.4594
7.538e+03,-46.9656
7.550e+03,-48.4688
7.562e+03,-46.4813
7.575e+03,-44.4906
7.588e+03,-47.9844
7.600e+03,-51.4781
7.612e+03,-45.4594
7.625e+03,-39.4375
7.638e+03,-39.3062
7.650e+03,-39.175
7.662e+03,-41.8344
7.675e+03,-44.4906
7.688e+03,-42.4156
7.700e+03,-40.3406
7.712e+03,-40.9094
7.725e+03,-41.4781
7.738e+03,-41.4781
7.750e+03,-41.4781
7.762e+03,-41.7094
7.775e+03,-41.9375
7.788e+03,-41.7094
7.800e+03,-41.4781
7.812e+03,-38.9531
7.825e+03,-36.4281
7.838e+03,-35.9438
7.850e+03,-35.4594
7.862e+03,-35.6281
7.875e+03,-35.7969
7.888e+03,-34.475
7.900e+03,-33.1531
7.912e+03,-37.3156
7.925e+03,-41.4781
7.938e+03,-40.3281
7.950e+03,-39.175
7.962e+03,-41.8344
7.975e+03,-44.4906
7.988e+03,-44.975
8.000e+03,-45.4594
8.012e+03,-42.3188
8.025e+03,-39.175
8.038e+03,-37.0625
8.050e+03,-34.9469
8.062e+03,-38.4438
8.075e+03,-41.9375
8.088e+03,-38.7
8.100e+03,-35.4594
8.112e+03,-34.125
8.125e+03,-32.7875
8.138e+03,-35.9813
8.150e+03,-39.175
8.162e+03,-35.0625
8.175e+03,-30.95
8.188e+03,-34.7094
8.200e+03,-38.4688
8.212e+03,-36.9656
8.225e+03,-35.4594
8.238e+03,-36.1594
8.250e+03,-36.8563
8.262e+03,-41.1594
8.275e+03,-45.4594
8.288e+03,-39.975
8.300e+03,-34.4906
8.312e+03,-42.9844
8.325e+03,-51.4781
8.338e+03,-47.9844
8.350e+03,-44.4906
8.362e+03,-42.4156
8.375e+03,-40.3406
8.388e+03,-41.3969
8.400e+03,-42.45
8.412e+03,-40.4594
8.425e+03,-38.4688
8.438e+03,-39.4062
8.450e+03,-40.3406
8.462e+03,-41.1406
8.475e+03,-41.9375
8.488e+03,-43.2156
8.500e+03,-44.4906
8.512e+03,-40.3281
8.525e+03,-36.1656
8.538e+03,-40.3281
8.550e+03,-44.4906
8.562e+03,-40.9969
8.575e+03,-37.5
8.588e+03,-37.5
8.600e+03,-37.5
8.612e+03,-38.2156
8.625e+03,-38.9281
8.638e+03,-36.1406
8.650e+03,-33.35
8.662e+03,-42.4156
8.675e+03,-51.4781
8.688e+03,-44.1688
8.700e+03,-36.8563
8.712e+03,-38.6
8.725e+03,-40.3406
8.738e+03,-42.9
8.750e+03,-45.4594
8.762e+03,-41.9656
8.775e+03,-38.4688
8.788e+03,-40.4594
8.800e+03,-42.45
8.812e+03,-41.9656
8.825e+03,-41.4781
8.838e+03,-42.9844
8.850e+03,-44.4906
8.862e+03,-47.9844
8.875e+03,-51.4781
8.888e+03,-47.9844
8.900e+03,-44.4906
8.912e+03,-44.4906
8.925e+03,-44.4906
8.938e+03,-47.9844
8.950e+03,-51.4781
8.962e+03,-46.7094
8.975e+03,-41.9375
8.988e+03,-41.9375
9.000e+03,-41.9375
9.012e+03,-46.7094
9.025e+03,-51.4781
9.038e+03,-45.3281
9.050e+03,-39.175
9.062e+03,-45.3281
9.075e+03,-51.4781
9.088e+03,-51.4781
9.100e+03,-51.4781
9.112e+03,-45.9094
9.125e+03,-40.3406
9.138e+03,-42.4156
9.150e+03,-44.4906
9.162e+03,-43.4719
9.175e+03,-42.45
9.188e+03,-39.3094
9.200e+03,-36.1656
9.212e+03,-39.0531
9.225e+03,-41.9375
9.238e+03,-39.3969
9.250e+03,-36.8563
9.262e+03,-36.3875
9.275e+03,-35.9156
9.288e+03,-36.7094
9.300e+03,-37.5
9.312e+03,-35.8687
9.325e+03,-34.2375
9.338e+03,-35.8687
9.350e+03,-37.5
9.362e+03,-37.9844
9.375e+03,-38.4688
9.388e+03,-36.9656
9.400e+03,-35.4594
9.412e+03,-41.9656
9.425e+03,-48.4688
9.438e+03,-46.4813
9.450e+03,-44.4906
9.462e+03,-47.9844
9.475e+03,-51.4781
9.488e+03,-46.7094
9.500e+03,-41.9375
9.512e+03,-46.7094
9.525e+03,-51.4781
9.538e+03,-43.0281
9.550e+03,-34.5781
9.562e+03,-35.7188
9.575e+03,-36.8563
9.588e+03,-37.0938
9.600e+03,-37.3312
9.612e+03,-35.4781
9.625e+03,-33.625
9.638e+03,-35.4781
9.650e+03,-37.3312
9.662e+03,-35.7844
9.675e+03,-34.2375
9.688e+03,-35.0187
9.700e+03,-35.7969
9.712e+03,-38.8687
9.725e+03,-41.9375
9.738e+03,-43.2156
9.750e+03,-44.4906
9.762e+03,-44.4906
9.775e+03,-44.4906
9.788e+03,-40.4594
9.800e+03,-36.4281
9.812e+03,-42.45
9.825e+03,-48.4688
9.838e+03,-43.9531
9.850e+03,-39.4375
9.862e+03,-43.9531
9.875e+03,-48.4688
9.888e+03,-45.2031
9.900e+03,-41.9375
9.912e+03,-39.6344
9.925e+03,-37.3312
9.938e+03,-38.8375
9.950e+03,-40.3406
9.962e+03,-39.4062
9.975e+03,-38.4688
9.988e+03,-37.9844
1.000e+04,-37.5
1.001e+04,-36.8344
1.002e+04,-36.1656
1.004e+04,-37.8031
1.005e+04,-39.4375
1.006e+04,-37.3969
1.008e+04,-35.3531
1.009e+04,-35.3531
1.010e+04,-35.3531
1.011e+04,-37.8469
1.012e+04,-40.3406
1.014e+04,-38.8375
1.015e+04,-37.3312
1.016e+04,-44.4062
1.018e+04,-51.4781
1.019e+04,-51.4781
1.020e+04,-51.4781
1.021e+04,-45.9094
1.022e+04,-40.3406
1.024e+04,-40.9094
1.025e+04,-41.4781
1.026e+04,-40.3281
1.028e+04,-39.175
1.029e+04,-42.3188
1.030e+04,-45.4594
1.031e+04,-40.4594
1.032e+04,-35.4594
1.034e+04,-38.4688
1.035e+04,-41.4781
1.036e+04,-41.4781
1.038e+04,-41.4781
1.039e+04,-41.7094
1.040e+04,-41.9375
1.041e+04,-45.2031
1.042e+04,-48.4688
1.044e+04,-45.4594
1.045e+04,-42.45
1.046e+04,-45.4594
1.048e+04,-48.4688
1.049e+04,-46.4813
1.050e+04,-44.4906
1.051e+04,-47.9844
1.052e+04,-51.4781
1.054e+04,-47.9844
1.055e+04,-44.4906
1.056e+04,-44.4906
1.058e+04,-44.4906
1.059e+04,-47.9844
1.060e+04,-51.4781
1.061e+04,-45.3281
1.062e+04,-39.175
1.064e+04,-39.175
1.065e+04,-39.175
1.066e+04,-39.3062
1.068e+04,-39.4375
1.069e+04,-45.4594
1.070e+04,-51.4781
1.071e+04,-45.3281
1.072e+04,-39.175
1.074e+04,-40.3281
1.075e+04,-41.4781
1.076e+04,-40.3281
1.078e+04,-39.175
1.079e+04,-38.3375
1.080e+04,-37.5
1.081e+04,-44.4906
1.082e+04,-51.4781
1.084e+04,-44.4906
1.085e+04,-37.5
1.086e+04,-38.4688
1.088e+04,-39.4375
1.089e+04,-40.9438
1.090e+04,-42.45
1.091e+04,-41.3969
1.092e+04,-40.3406
1.094e+04,-40.9094
1.095e+04,-41.4781
1.096e+04,-40.2031
1.098e+04,-38.9281
1.099e+04,-40.2031
1.100e+04,-41.4781
1.101e+04,-37.1344
1.102e+04,-32.7875
1.104e+04,-34.6094
1.105e+04,-36.4281
1.106e+04,-35.5031
1.108e+04,-34.5781
1.109e+04,-35.5031
1.110e+04,-36.4281
1.111e+04,-39.1844
1.112e+04,-41.9375
1.114e+04,-39.3969
1.115e+04,-36.8563
1.116e+04,-44.1688
1.118e+04,-51.4781
1.119e+04,-45.9094
1.120e+04,-40.3406
1.121e+04,-40.9094
1.122e+04,-41.4781
1.124e+04,-38.8219
1.125e+04,-36.1656
1.126e+04,-35.9813
1.128e+04,-35.7969
1.129e+04,-35.0594
1.130e+04,-34.3188
1.131e+04,-32.9
1.132e+04,-31.4781
1.134e+04,-33.4156
1.135e+04,-35.3531
1.136e+04,-33.3969
1.138e+04,-31.4375
1.139e+04,-32.8781
1.140e+04,-34.3188
1.141e+04,-35.2437
1.142e+04,-36.1656
1.144e+04,-35.9813
1.145e+04,-35.7969
1.146e+04,-38.8687
1.148e+04,-41.9375
1.149e+04,-39.3969
1.150e+04,-36.8563
1.151e+04,-41.1594
1.152e+04,-45.4594
1.154e+04,-42.9
1.155e+04,-40.3406
1.156e+04,-42.4156
1.158e+04,-44.4906
1.159e+04,-41.8344
1.160e+04,-39.175
1.161e+04,-38.3375
1.162e+04,-37.5
1.164e+04,-38.4688
1.165e+04,-39.4375
1.166e+04,-38.4688
1.168e+04,-37.5
1.169e+04,-35.9969
1.170e+04,-34.4906
1.171e+04,-34.4906
1.172e+04,-34.4906
1.174e+04,-35.9125
1.175e+04,-37.3312
1.176e+04,-40.9125
1.178e+04,-44.4906
1.179e+04,-42.9844
1.180e+04,-41.4781
1.181e+04,-42.9844
1.182e+04,-44.4906
1.184e+04,-43.2156
1.185e+04,-41.9375
1.186e+04,-46.7094
1.188e+04,-51.4781
1.189e+04,-47.9844
1.190e+04,-44.4906
1.191e+04,-41.4813
1.192e+04,-38.4688
1.194e+04,-39.4062
1.195e+04,-40.3406
1.196e+04,-38.9219
1.198e+04,-37.5
1.199e+04,-39.975
1.200e+04,-42.45
1.201e+04,-46.9656
1.202e+04,-51.4781
1.204e+04,-44.1688
1.205e+04,-36.8563
1.206e+04,-38.0156
1.208e+04,-39.175
1.209e+04,-43.8219
1.210e+04,-48.4688
1.211e+04,-49.975
1.212e+04,-51.4781
1.214e+04,-45.9094
1.215e+04,-40.3406
1.216e+04,-41.3969
1.218e+04,-42.45
1.219e+04,-41.9656
1.220e+04,-41.4781
1.221e+04,-41.4781
1.222e+04,-41.4781
1.224e+04,-46.4781
1.225e+04,-51.4781
1.226e+04,-44.975
1.228e+04,-38.4688
1.229e+04,-39.975
1.230e+04,-41.4781
1.231e+04,-44.975
1.232e+04,-48.4688
1.234e+04,-48.4688
1.235e+04,-48.4688
1.236e+04,-44.4062
1.238e+04,-40.3406
1.239e+04,-44.4062
1.240e+04,-48.4688
1.241e+04,-45.4594
1.242e+04,-42.45
1.244e+04,-40.6906
1.245e+04,-38.9281
1.246e+04,-41.7094
1.248e+04,-44.4906
1.249e+04,-44.4906
1.250e+04,-44.4906
1.251e+04,-44.975
1.252e+04,-45.4594
1.254e+04,-46.9656
1.255e+04,-48.4688
1.256e+04,-48.4688
1.258e+04,-48.4688
1.259e+04,-46.9656
1.260e+04,-45.4594
1.261e+04,-45.4594
1.262e+04,-45.4594
1.264e+04,-46.9656
1.265e+04,-48.4688
1.266e+04,-46.4813
1.268e+04,-44.4906
1.269e+04,-47.9844
1.270e+04,-51.4781
1.271e+04,-47.9844
1.272e+04,-44.4906
1.274e+04,-44.4906
1.275e+04,-44.4906
1.276e+04,-44.975
1.278e+04,-45.4594
1.279e+04,-46.9656
1.280e+04,-48.4688
1.281e+04,-46.9656
1.282e+04,-45.4594
1.284e+04,-44.975
1.285e+04,-44.4906
1.286e+04,-44.975
1.288e+04,-45.4594
1.289e+04,-46.9656
1.290e+04,-48.4688
1.291e+04,-49.975
1.292e+04,-51.4781
1.294e+04,-47.9844
1.295e+04,-44.4906
1.296e+04,-41.8344
1.298e+04,-39.175
1.299e+04,-45.3281
1.300e+04,-51.4781
1.301e+04,-49.975
1.302e+04,-48.4688
1.304e+04,-49.975
1.305e+04,-51.4781
1.306e+04,-51.4781
1.308e+04,-51.4781
1.309e+04,-48.4688
1.310e+04,-45.4594
1.311e+04,-46.9656
