Final Project/12-5/R2=R12=R13=10k, f=56Hz, V=18V/sine/sine_18V_FFT.CSV

Model,TBS1052C
Firmware Version,v2015-08-04-prequal4ch70_v1.3

Point Format,Y
Horizontal Units,Hz
Horizontal Scale,1562.5
Sample Interval,12.5
Filter Frequency,2e+08
Record Length,1250
Gating,0.0% to 100.0%
Probe Attenuation,1
Vertical Units,dB
Vertical Offset,0
Vertical Scale,20
Label,
FFT-FREQ,FFT-AMPL
0.000e+00,-3.13437
1.250e+01,-0.109375
2.500e+01,2.91875
3.750e+01,6.94063
5.000e+01,10.9656
6.250e+01,9.93438
7.500e+01,8.90625
8.750e+01,-0.684375
1.000e+02,-10.2719
1.125e+02,-15.7406
1.250e+02,-21.2063
1.375e+02,-24.7062
1.500e+02,-28.2062
1.625e+02,-26.4531
1.750e+02,-24.7
1.875e+02,-27.5187
2.000e+02,-30.3344
2.125e+02,-37.4125
2.250e+02,-44.4906
2.375e+02,-46.225
2.500e+02,-47.9594
2.625e+02,-40.1719
2.750e+02,-32.3813
2.875e+02,-31.5906
3.000e+02,-30.8
3.125e+02,-35.7
3.250e+02,-40.6
3.375e+02,-46.0406
3.500e+02,-51.4813
3.625e+02,-47.5031
3.750e+02,-43.5219
3.875e+02,-45.5125
4.000e+02,-47.5
4.125e+02,-44.4375
4.250e+02,-41.375
4.375e+02,-46.4281
4.500e+02,-51.4813
4.625e+02,-50.9969
4.750e+02,-50.5125
4.875e+02,-54.0063
5.000e+02,-57.5
5.125e+02,-50.5125
5.250e+02,-43.5219
5.375e+02,-50.5125
5.500e+02,-57.5
5.625e+02,-54.0063
5.750e+02,-50.5125
5.875e+02,-49.2375
6.000e+02,-47.9594
6.125e+02,-51.225
6.250e+02,-54.4906
6.375e+02,-48.1562
6.500e+02,-41.8188
6.625e+02,-46.65
6.750e+02,-51.4813
6.875e+02,-49.4906
7.000e+02,-47.5
7.125e+02,-45.9969
7.250e+02,-44.4906
7.375e+02,-47.9875
7.500e+02,-51.4813
7.625e+02,-46.4281
7.750e+02,-41.375
7.875e+02,-47.9344
8.000e+02,-54.4906
8.125e+02,-55.9969
8.250e+02,-57.5
8.375e+02,-52.7313
8.500e+02,-47.9594
8.625e+02,-49.7219
8.750e+02,-51.4813
8.875e+02,-49.4906
9.000e+02,-47.5
9.125e+02,-50.9969
9.250e+02,-54.4906
9.375e+02,-50.4281
9.500e+02,-46.3625
9.625e+02,-51.9312
9.750e+02,-57.5
9.875e+02,-49.4375
1.000e+03,-41.375
1.012e+03,-49.4375
1.025e+03,-57.5
1.038e+03,-52.5
1.050e+03,-47.5
1.062e+03,-49.4906
1.075e+03,-51.4813
1.088e+03,-50.9969
1.100e+03,-50.5125
1.112e+03,-47.8563
1.125e+03,-45.1969
1.138e+03,-49.8438
1.150e+03,-54.4906
1.162e+03,-52.9875
1.175e+03,-51.4813
1.188e+03,-54.4906
1.200e+03,-57.5
1.212e+03,-51.4813
1.225e+03,-45.4594
1.238e+03,-51.4813
1.250e+03,-57.5
1.262e+03,-55.9969
1.275e+03,-54.4906
1.288e+03,-55.9969
1.300e+03,-57.5
1.312e+03,-57.5
1.325e+03,-57.5
1.338e+03,-51.9312
1.350e+03,-46.3625
1.362e+03,-51.9312
1.375e+03,-57.5
1.388e+03,-54.0063
1.400e+03,-50.5125
1.412e+03,-54.0063
1.425e+03,-57.5
1.438e+03,-54.0063
1.450e+03,-50.5125
1.462e+03,-52.5031
1.475e+03,-54.4906
1.488e+03,-54.4906
1.500e+03,-54.4906
1.512e+03,-49.7219
1.525e+03,-44.95
1.538e+03,-51.225
1.550e+03,-57.5
1.562e+03,-51.9312
1.575e+03,-46.3625
1.588e+03,-51.9312
1.600e+03,-57.5
1.612e+03,-51.9312
1.625e+03,-46.3625
1.638e+03,-51.9312
1.650e+03,-57.5
1.662e+03,-54.0063
1.675e+03,-50.5125
1.688e+03,-49.2375
1.700e+03,-47.9594
1.712e+03,-49.2375
1.725e+03,-50.5125
1.738e+03,-54.0063
1.750e+03,-57.5
1.762e+03,-52.5
1.775e+03,-47.5
1.788e+03,-47.5
1.800e+03,-47.5
1.812e+03,-52.5
1.825e+03,-57.5
1.838e+03,-54.0063
1.850e+03,-50.5125
1.862e+03,-54.0063
1.875e+03,-57.5
1.888e+03,-57.5
1.900e+03,-57.5
1.912e+03,-52.7313
1.925e+03,-47.9594
1.938e+03,-51.225
1.950e+03,-54.4906
1.962e+03,-52.9875
1.975e+03,-51.4813
1.988e+03,-50.9969
2.000e+03,-50.5125
2.012e+03,-52.5031
2.025e+03,-54.4906
2.038e+03,-55.9969
2.050e+03,-57.5
2.062e+03,-57.5
2.075e+03,-57.5
2.088e+03,-52.7313
2.100e+03,-47.9594
2.112e+03,-49.7219
2.125e+03,-51.4813
2.138e+03,-52.9875
2.150e+03,-54.4906
2.162e+03,-52.5031
2.175e+03,-50.5125
2.188e+03,-54.0063
2.200e+03,-57.5
2.212e+03,-57.5
2.225e+03,-57.5
2.238e+03,-54.0063
2.250e+03,-50.5125
2.262e+03,-54.0063
2.275e+03,-57.5
2.288e+03,-55.9969
2.300e+03,-54.4906
2.312e+03,-55.9969
2.325e+03,-57.5
2.338e+03,-55.9969
2.350e+03,-54.4906
2.362e+03,-54.4906
2.375e+03,-54.4906
2.388e+03,-54.4906
2.400e+03,-54.4906
2.412e+03,-52.5031
2.425e+03,-50.5125
2.438e+03,-54.0063
2.450e+03,-57.5
2.462e+03,-57.5
2.475e+03,-57.5
2.488e+03,-52.7313
2.500e+03,-47.9594
2.512e+03,-49.7219
2.525e+03,-51.4813
2.538e+03,-52.9875
2.550e+03,-54.4906
2.562e+03,-54.4906
2.575e+03,-54.4906
2.588e+03,-54.4906
2.600e+03,-54.4906
2.612e+03,-50.4281
2.625e+03,-46.3625
2.638e+03,-51.9312
2.650e+03,-57.5
2.662e+03,-55.9969
2.675e+03,-54.4906
2.688e+03,-55.9969
2.700e+03,-57.5
2.712e+03,-54.0063
2.725e+03,-50.5125
2.738e+03,-52.5031
2.750e+03,-54.4906
2.762e+03,-55.9969
2.775e+03,-57.5
2.788e+03,-54.4906
2.800e+03,-51.4813
2.812e+03,-49.4906
2.825e+03,-47.5
2.838e+03,-50.9969
2.850e+03,-54.4906
2.862e+03,-52.9875
2.875e+03,-51.4813
2.888e+03,-54.4906
2.900e+03,-57.5
2.912e+03,-55.9969
2.925e+03,-54.4906
2.938e+03,-49.4906
2.950e+03,-44.4906
2.962e+03,-49.4906
2.975e+03,-54.4906
2.988e+03,-55.9969
3.000e+03,-57.5
3.012e+03,-52.5
3.025e+03,-47.5
3.038e+03,-50.9969
3.050e+03,-54.4906
3.062e+03,-52.5031
3.075e+03,-50.5125
3.088e+03,-54.0063
3.100e+03,-57.5
3.112e+03,-55.9969
3.125e+03,-54.4906
3.138e+03,-52.9875
3.150e+03,-51.4813
3.162e+03,-54.4906
3.175e+03,-57.5
3.188e+03,-54.0063
3.200e+03,-50.5125
3.212e+03,-54.0063
3.225e+03,-57.5
3.238e+03,-52.7313
3.250e+03,-47.9594
3.262e+03,-49.2375
3.275e+03,-50.5125
3.288e+03,-50.5125
3.300e+03,-50.5125
3.312e+03,-49.4937
3.325e+03,-48.4719
3.338e+03,-52.9875
3.350e+03,-57.5
3.362e+03,-57.5
3.375e+03,-57.5
3.388e+03,-54.4906
3.400e+03,-51.4813
3.412e+03,-51.4813
3.425e+03,-51.4813
3.438e+03,-48.9219
3.450e+03,-46.3625
3.462e+03,-51.9312
3.475e+03,-57.5
3.488e+03,-54.0063
3.500e+03,-50.5125
3.512e+03,-50.5125
3.525e+03,-50.5125
3.538e+03,-49.4937
3.550e+03,-48.4719
3.562e+03,-52.9875
3.575e+03,-57.5
3.588e+03,-51.9312
3.600e+03,-46.3625
3.612e+03,-51.9312
3.625e+03,-57.5
3.638e+03,-52.9875
3.650e+03,-48.4719
3.662e+03,-52.9875
3.675e+03,-57.5
3.688e+03,-57.5
3.700e+03,-57.5
3.712e+03,-51.9312
3.725e+03,-46.3625
3.738e+03,-51.9312
3.750e+03,-57.5
3.762e+03,-54.0063
3.775e+03,-50.5125
3.788e+03,-52.5031
3.800e+03,-54.4906
3.812e+03,-55.9969
3.825e+03,-57.5
3.838e+03,-54.0063
3.850e+03,-50.5125
3.862e+03,-50.5125
3.875e+03,-50.5125
3.888e+03,-54.0063
3.900e+03,-57.5
3.912e+03,-52.9875
3.925e+03,-48.4719
3.938e+03,-49.4937
3.950e+03,-50.5125
3.962e+03,-54.0063
3.975e+03,-57.5
3.988e+03,-54.0063
4.000e+03,-50.5125
4.012e+03,-52.5031
4.025e+03,-54.4906
4.038e+03,-51.225
4.050e+03,-47.9594
4.062e+03,-51.225
4.075e+03,-54.4906
4.088e+03,-52.5031
4.100e+03,-50.5125
4.112e+03,-50.5125
4.125e+03,-50.5125
4.138e+03,-50.5125
4.150e+03,-50.5125
4.162e+03,-54.0063
4.175e+03,-57.5
4.188e+03,-54.0063
4.200e+03,-50.5125
4.212e+03,-54.0063
4.225e+03,-57.5
4.238e+03,-54.0063
4.250e+03,-50.5125
4.262e+03,-49.2375
4.275e+03,-47.9594
4.288e+03,-47.7313
4.300e+03,-47.5
4.312e+03,-52.5
4.325e+03,-57.5
4.338e+03,-51.225
4.350e+03,-44.95
4.362e+03,-51.225
4.375e+03,-57.5
4.388e+03,-57.5
4.400e+03,-57.5
4.412e+03,-54.0063
4.425e+03,-50.5125
4.438e+03,-50.5125
4.450e+03,-50.5125
4.462e+03,-50.9969
4.475e+03,-51.4813
4.488e+03,-54.4906
4.500e+03,-57.5
4.512e+03,-52.9875
4.525e+03,-48.4719
4.538e+03,-49.4937
4.550e+03,-50.5125
4.562e+03,-54.0063
4.575e+03,-57.5
4.588e+03,-54.0063
4.600e+03,-50.5125
4.612e+03,-48.4375
4.625e+03,-46.3625
4.638e+03,-48.9219
4.650e+03,-51.4813
4.662e+03,-52.9875
4.675e+03,-54.4906
4.688e+03,-49.4906
4.700e+03,-44.4906
4.712e+03,-50.9969
4.725e+03,-57.5
4.738e+03,-51.9312
4.750e+03,-46.3625
4.762e+03,-51.9312
4.775e+03,-57.5
4.788e+03,-55.9969
4.800e+03,-54.4906
4.812e+03,-52.5031
4.825e+03,-50.5125
4.838e+03,-49.0063
4.850e+03,-47.5
4.862e+03,-52.5
4.875e+03,-57.5
4.888e+03,-55.9969
4.900e+03,-54.4906
4.912e+03,-54.4906
4.925e+03,-54.4906
4.938e+03,-50.9969
4.950e+03,-47.5
4.962e+03,-47.9875
4.975e+03,-48.4719
4.988e+03,-46.8344
5.000e+03,-45.1969
5.012e+03,-49.8438
5.025e+03,-54.4906
5.038e+03,-50.9969
5.050e+03,-47.5
5.062e+03,-52.5
5.075e+03,-57.5
5.088e+03,-54.0063
5.100e+03,-50.5125
5.112e+03,-54.0063
5.125e+03,-57.5
5.138e+03,-51.9312
5.150e+03,-46.3625
5.162e+03,-51.9312
5.175e+03,-57.5
5.188e+03,-54.0063
5.200e+03,-50.5125
5.212e+03,-50.5125
5.225e+03,-50.5125
5.238e+03,-54.0063
5.250e+03,-57.5
5.262e+03,-54.0063
5.275e+03,-50.5125
5.288e+03,-54.0063
5.300e+03,-57.5
5.312e+03,-52.9875
5.325e+03,-48.4719
5.338e+03,-52.9875
5.350e+03,-57.5
5.362e+03,-57.5
5.375e+03,-57.5
5.388e+03,-55.9969
5.400e+03,-54.4906
5.412e+03,-51.4813
5.425e+03,-48.4719
5.438e+03,-52.9875
5.450e+03,-57.5
5.462e+03,-57.5
5.475e+03,-57.5
5.488e+03,-55.9969
5.500e+03,-54.4906
5.512e+03,-55.9969
5.525e+03,-57.5
5.538e+03,-55.9969
5.550e+03,-54.4906
5.562e+03,-55.9969
5.575e+03,-57.5
5.588e+03,-54.0063
5.600e+03,-50.5125
5.612e+03,-54.0063
5.625e+03,-57.5
5.638e+03,-57.5
5.650e+03,-57.5
5.662e+03,-54.4906
5.675e+03,-51.4813
5.688e+03,-52.9875
5.700e+03,-54.4906
5.712e+03,-55.9969
5.725e+03,-57.5
5.738e+03,-54.0063
5.750e+03,-50.5125
5.762e+03,-54.0063
5.775e+03,-57.5
5.788e+03,-55.9969
5.800e+03,-54.4906
5.812e+03,-54.4906
5.825e+03,-54.4906
5.838e+03,-54.4906
5.850e+03,-54.4906
5.862e+03,-52.5031
5.875e+03,-50.5125
5.888e+03,-54.0063
5.900e+03,-57.5
5.912e+03,-57.5
5.925e+03,-57.5
5.938e+03,-54.4906
5.950e+03,-51.4813
5.962e+03,-52.9875
5.975e+03,-54.4906
5.988e+03,-50.9969
6.000e+03,-47.5
6.012e+03,-52.5
6.025e+03,-57.5
6.038e+03,-51.9312
6.050e+03,-46.3625
6.062e+03,-51.9312
6.075e+03,-57.5
6.088e+03,-57.5
6.100e+03,-57.5
6.112e+03,-54.4906
6.125e+03,-51.4813
6.138e+03,-54.4906
6.150e+03,-57.5
6.162e+03,-52.5
6.175e+03,-47.5
6.188e+03,-50.9969
6.200e+03,-54.4906
6.212e+03,-55.9969
6.225e+03,-57.5
6.238e+03,-54.0063
6.250e+03,-50.5125
6.262e+03,-49.0063
6.275e+03,-47.5
6.288e+03,-52.5
6.300e+03,-57.5
6.312e+03,-57.5
6.325e+03,-57.5
6.338e+03,-54.0063
6.350e+03,-50.5125
6.362e+03,-50.9969
6.375e+03,-51.4813
6.388e+03,-52.9875
6.400e+03,-54.4906
6.412e+03,-52.5031
6.425e+03,-50.5125
6.438e+03,-54.0063
6.450e+03,-57.5
6.462e+03,-54.4906
6.475e+03,-51.4813
6.488e+03,-52.9875
6.500e+03,-54.4906
6.512e+03,-52.5031
6.525e+03,-50.5125
6.538e+03,-48.4375
6.550e+03,-46.3625
6.562e+03,-51.9312
6.575e+03,-57.5
6.588e+03,-52.7313
6.600e+03,-47.9594
6.612e+03,-51.225
6.625e+03,-54.4906
6.638e+03,-50.4281
6.650e+03,-46.3625
6.662e+03,-48.4375
6.675e+03,-50.5125
6.688e+03,-50.5125
6.700e+03,-50.5125
6.712e+03,-54.0063
6.725e+03,-57.5
6.738e+03,-57.5
6.750e+03,-57.5
6.762e+03,-57.5
6.775e+03,-57.5
6.788e+03,-57.5
6.800e+03,-57.5
6.812e+03,-57.5
6.825e+03,-57.5
6.838e+03,-54.4906
6.850e+03,-51.4813
6.862e+03,-49.9781
6.875e+03,-48.4719
6.888e+03,-51.4813
6.900e+03,-54.4906
6.912e+03,-55.9969
6.925e+03,-57.5
6.938e+03,-55.9969
6.950e+03,-54.4906
6.962e+03,-55.9969
6.975e+03,-57.5
6.988e+03,-52.5
7.000e+03,-47.5
7.012e+03,-49.4906
7.025e+03,-51.4813
7.038e+03,-51.4813
7.050e+03,-51.4813
7.062e+03,-49.9781
7.075e+03,-48.4719
7.088e+03,-52.9875
7.100e+03,-57.5
7.112e+03,-57.5
7.125e+03,-57.5
7.138e+03,-57.5
7.150e+03,-57.5
7.162e+03,-57.5
7.175e+03,-57.5
7.188e+03,-55.9969
7.200e+03,-54.4906
7.212e+03,-54.4906
7.225e+03,-54.4906
7.238e+03,-55.9969
7.250e+03,-57.5
7.262e+03,-54.0063
7.275e+03,-50.5125
7.288e+03,-54.0063
7.300e+03,-57.5
7.312e+03,-57.5
7.325e+03,-57.5
7.338e+03,-54.0063
7.350e+03,-50.5125
7.362e+03,-52.5031
7.375e+03,-54.4906
7.388e+03,-52.9875
7.400e+03,-51.4813
7.412e+03,-54.4906
7.425e+03,-57.5
7.438e+03,-54.4906
7.450e+03,-51.4813
7.462e+03,-54.4906
7.475e+03,-57.5
7.488e+03,-54.0063
7.500e+03,-50.5125
7.512e+03,-54.0063
7.525e+03,-57.5
7.538e+03,-57.5
7.550e+03,-57.5
7.562e+03,-55.9969
7.575e+03,-54.4906
7.588e+03,-51.4813
7.600e+03,-48.4719
7.612e+03,-51.4813
7.625e+03,-54.4906
7.638e+03,-54.4906
7.650e+03,-54.4906
7.662e+03,-55.9969
7.675e+03,-57.5
7.688e+03,-57.5
7.700e+03,-57.5
7.712e+03,-52.9875
7.725e+03,-48.4719
7.738e+03,-51.4813
7.750e+03,-54.4906
7.762e+03,-52.9875
7.775e+03,-51.4813
7.788e+03,-52.9875
7.800e+03,-54.4906
7.812e+03,-51.225
7.825e+03,-47.9594
7.838e+03,-52.7313
7.850e+03,-57.5
7.862e+03,-54.0063
7.875e+03,-50.5125
7.888e+03,-50.9969
7.900e+03,-51.4813
7.912e+03,-52.9875
7.925e+03,-54.4906
7.938e+03,-55.9969
7.950e+03,-57.5
7.962e+03,-54.0063
7.975e+03,-50.5125
7.988e+03,-54.0063
8.000e+03,-57.5
8.012e+03,-52.5
8.025e+03,-47.5
8.038e+03,-49.4906
8.050e+03,-51.4813
8.062e+03,-49.4906
8.075e+03,-47.5
8.088e+03,-49.4906
8.100e+03,-51.4813
8.112e+03,-52.9875
8.125e+03,-54.4906
8.138e+03,-52.5031
8.150e+03,-50.5125
8.162e+03,-54.0063
8.175e+03,-57.5
8.188e+03,-52.5
8.200e+03,-47.5
8.212e+03,-50.9969
8.225e+03,-54.4906
8.238e+03,-55.9969
8.250e+03,-57.5
8.262e+03,-57.5
8.275e+03,-57.5
8.288e+03,-54.0063
8.300e+03,-50.5125
8.312e+03,-48.4375
8.325e+03,-46.3625
8.338e+03,-51.9312
8.350e+03,-57.5
8.362e+03,-54.4906
8.375e+03,-51.4813
8.388e+03,-54.4906
8.400e+03,-57.5
8.412e+03,-55.9969
8.425e+03,-54.4906
8.438e+03,-55.9969
8.450e+03,-57.5
8.462e+03,-57.5
8.475e+03,-57.5
8.488e+03,-55.9969
8.500e+03,-54.4906
8.512e+03,-55.9969
8.525e+03,-57.5
8.538e+03,-57.5
8.550e+03,-57.5
8.562e+03,-54.0063
8.575e+03,-50.5125
8.588e+03,-52.5031
8.600e+03,-54.4906
8.612e+03,-55.9969
8.625e+03,-57.5
8.638e+03,-54.0063
8.650e+03,-50.5125
8.662e+03,-54.0063
8.675e+03,-57.5
8.688e+03,-55.9969
8.700e+03,-54.4906
8.712e+03,-55.9969
8.725e+03,-57.5
8.738e+03,-54.4906
8.750e+03,-51.4813
8.762e+03,-54.4906
8.775e+03,-57.5
8.788e+03,-57.5
8.800e+03,-57.5
8.812e+03,-55.9969
8.825e+03,-54.4906
8.838e+03,-55.9969
8.850e+03,-57.5
8.862e+03,-57.5
8.875e+03,-57.5
8.888e+03,-57.5
8.900e+03,-57.5
8.912e+03,-55.9969
8.925e+03,-54.4906
8.938e+03,-54.4906
8.950e+03,-54.4906
8.962e+03,-55.9969
8.975e+03,-57.5
8.988e+03,-52.7313
9.000e+03,-47.9594
9.012e+03,-51.225
9.025e+03,-54.4906
9.038e+03,-52.9875
9.050e+03,-51.4813
9.062e+03,-54.4906
9.075e+03,-57.5
9.088e+03,-52.7313
9.100e+03,-47.9594
9.112e+03,-49.2375
9.125e+03,-50.5125
9.138e+03,-54.0063
9.150e+03,-57.5
9.162e+03,-57.5
9.175e+03,-57.5
9.188e+03,-54.0063
9.200e+03,-50.5125
9.212e+03,-54.0063
9.225e+03,-57.5
9.238e+03,-55.9969
9.250e+03,-54.4906
9.262e+03,-55.9969
9.275e+03,-57.5
9.288e+03,-57.5
9.300e+03,-57.5
9.312e+03,-54.4906
9.325e+03,-51.4813
9.338e+03,-54.4906
9.350e+03,-57.5
9.362e+03,-55.9969
9.375e+03,-54.4906
9.388e+03,-52.9875
9.400e+03,-51.4813
9.412e+03,-51.4813
9.425e+03,-51.4813
9.438e+03,-54.4906
9.450e+03,-57.5
9.462e+03,-51.9312
9.475e+03,-46.3625
9.488e+03,-51.9312
9.500e+03,-57.5
9.512e+03,-57.5
9.525e+03,-57.5
9.538e+03,-57.5
9.550e+03,-57.5
9.562e+03,-55.9969
9.575e+03,-54.4906
9.588e+03,-50.9969
9.600e+03,-47.5
9.612e+03,-52.5
9.625e+03,-57.5
9.638e+03,-52.5
9.650e+03,-47.5
9.662e+03,-52.5
9.675e+03,-57.5
9.688e+03,-57.5
9.700e+03,-57.5
9.712e+03,-57.5
9.725e+03,-57.5
9.738e+03,-57.5
9.750e+03,-57.5
9.762e+03,-57.5
9.775e+03,-57.5
9.788e+03,-57.5
9.800e+03,-57.5
9.812e+03,-54.0063
9.825e+03,-50.5125
9.838e+03,-52.5031
9.850e+03,-54.4906
9.862e+03,-55.9969
9.875e+03,-57.5
9.888e+03,-54.4906
9.900e+03,-51.4813
9.912e+03,-50.9969
9.925e+03,-50.5125
9.938e+03,-54.0063
9.950e+03,-57.5
9.962e+03,-57.5
9.975e+03,-57.5
9.988e+03,-54.0063
1.000e+04,-50.5125
1.001e+04,-52.5031
1.002e+04,-54.4906
1.004e+04,-52.5031
1.005e+04,-50.5125
1.006e+04,-54.0063
1.008e+04,-57.5
1.009e+04,-57.5
1.010e+04,-57.5
1.011e+04,-57.5
1.012e+04,-57.5
1.014e+04,-57.5
1.015e+04,-57.5
1.016e+04,-52.7313
1.018e+04,-47.9594
1.019e+04,-52.7313
1.020e+04,-57.5
1.021e+04,-54.0063
1.022e+04,-50.5125
1.024e+04,-52.5031
1.025e+04,-54.4906
1.026e+04,-55.9969
1.028e+04,-57.5
1.029e+04,-51.225
1.030e+04,-44.95
1.031e+04,-51.225
1.032e+04,-57.5
1.034e+04,-57.5
1.035e+04,-57.5
1.036e+04,-55.9969
1.038e+04,-54.4906
1.039e+04,-55.9969
1.040e+04,-57.5
1.041e+04,-52.9875
1.042e+04,-48.4719
1.044e+04,-51.4813
1.045e+04,-54.4906
1.046e+04,-55.9969
1.048e+04,-57.5
1.049e+04,-57.5
1.050e+04,-57.5
1.051e+04,-57.5
1.052e+04,-57.5
1.054e+04,-54.0063
1.055e+04,-50.5125
1.056e+04,-52.5031
1.058e+04,-54.4906
1.059e+04,-55.9969
1.060e+04,-57.5
1.061e+04,-54.0063
1.062e+04,-50.5125
1.064e+04,-54.0063
1.065e+04,-57.5
1.066e+04,-54.4906
1.068e+04,-51.4813
1.069e+04,-50.9969
1.070e+04,-50.5125
1.071e+04,-54.0063
1.072e+04,-57.5
1.074e+04,-54.0063
1.075e+04,-50.5125
1.076e+04,-54.0063
1.078e+04,-57.5
1.079e+04,-54.0063
1.080e+04,-50.5125
1.081e+04,-54.0063
1.082e+04,-57.5
1.084e+04,-55.9969
1.085e+04,-54.4906
1.086e+04,-55.9969
1.088e+04,-57.5
1.089e+04,-57.5
1.090e+04,-57.5
1.091e+04,-57.5
1.092e+04,-57.5
1.094e+04,-52.9875
1.095e+04,-48.4719
1.096e+04,-52.9875
1.098e+04,-57.5
1.099e+04,-57.5
1.100e+04,-57.5
1.101e+04,-50.9969
1.102e+04,-44.4906
1.104e+04,-49.4906
1.105e+04,-54.4906
1.106e+04,-54.4906
1.108e+04,-54.4906
1.109e+04,-52.9875
1.110e+04,-51.4813
1.111e+04,-54.4906
1.112e+04,-57.5
1.114e+04,-57.5
1.115e+04,-57.5
1.116e+04,-55.9969
1.118e+04,-54.4906
1.119e+04,-50.9969
1.120e+04,-47.5
1.121e+04,-50.9969
1.122e+04,-54.4906
1.124e+04,-52.9875
1.125e+04,-51.4813
1.126e+04,-51.4813
1.128e+04,-51.4813
1.129e+04,-51.4813
1.130e+04,-51.4813
1.131e+04,-49.9781
1.132e+04,-48.4719
1.134e+04,-51.4813
1.135e+04,-54.4906
1.136e+04,-55.9969
1.138e+04,-57.5
1.139e+04,-54.0063
1.140e+04,-50.5125
1.141e+04,-54.0063
1.142e+04,-57.5
1.144e+04,-57.5
1.145e+04,-57.5
1.146e+04,-51.9312
1.148e+04,-46.3625
1.149e+04,-48.9219
1.150e+04,-51.4813
1.151e+04,-54.4906
1.152e+04,-57.5
1.154e+04,-54.0063
1.155e+04,-50.5125
1.156e+04,-54.0063
1.158e+04,-57.5
1.159e+04,-57.5
1.160e+04,-57.5
1.161e+04,-52.9875
1.162e+04,-48.4719
1.164e+04,-52.9875
1.165e+04,-57.5
1.166e+04,-57.5
1.168e+04,-57.5
1.169e+04,-57.5
1.170e+04,-57.5
1.171e+04,-52.9875
1.172e+04,-48.4719
1.174e+04,-52.9875
1.175e+04,-57.5
1.176e+04,-57.5
1.178e+04,-57.5
1.179e+04,-57.5
1.180e+04,-57.5
1.181e+04,-54.4906
1.182e+04,-51.4813
1.184e+04,-54.4906
1.185e+04,-57.5
1.186e+04,-54.4906
1.188e+04,-51.4813
1.189e+04,-52.9875
1.190e+04,-54.4906
1.191e+04,-54.4906
1.192e+04,-54.4906
1.194e+04,-54.4906
1.195e+04,-54.4906
1.196e+04,-55.9969
1.198e+04,-57.5
1.199e+04,-57.5
1.200e+04,-57.5
1.201e+04,-54.0063
1.202e+04,-50.5125
1.204e+04,-54.0063
1.205e+04,-57.5
1.206e+04,-57.5
1.208e+04,-57.5
1.209e+04,-52.7313
1.210e+04,-47.9594
1.211e+04,-49.2375
1.212e+04,-50.5125
1.214e+04,-50.5125
1.215e+04,-50.5125
1.216e+04,-54.0063
1.218e+04,-57.5
1.219e+04,-54.0063
1.220e+04,-50.5125
1.221e+04,-54.0063
1.222e+04,-57.5
1.224e+04,-57.5
1.225e+04,-57.5
1.226e+04,-55.9969
1.228e+04,-54.4906
1.229e+04,-55.9969
1.230e+04,-57.5
1.231e+04,-57.5
1.232e+04,-57.5
1.234e+04,-57.5
1.235e+04,-57.5
1.236e+04,-54.4906
1.238e+04,-51.4813
1.239e+04,-52.9875
1.240e+04,-54.4906
1.241e+04,-55.9969
1.242e+04,-57.5
1.244e+04,-54.0063
1.245e+04,-50.5125
1.246e+04,-54.0063
1.248e+04,-57.5
1.249e+04,-52.9875
1.250e+04,-48.4719
1.251e+04,-52.9875
1.252e+04,-57.5
1.254e+04,-57.5
1.255e+04,-57.5
1.256e+04,-57.5
1.258e+04,-57.5
1.259e+04,-55.9969
1.260e+04,-54.4906
1.261e+04,-54.4906
1.262e+04,-54.4906
1.264e+04,-54.4906
1.265e+04,-54.4906
1.266e+04,-54.4906
1.268e+04,-54.4906
1.269e+04,-55.9969
1.270e+04,-57.5
1.271e+04,-55.9969
1.272e+04,-54.4906
1.274e+04,-54.4906
1.275e+04,-54.4906
1.276e+04,-52.5031
1.278e+04,-50.5125
1.279e+04,-49.0063
1.280e+04,-47.5
1.281e+04,-50.9969
1.282e+04,-54.4906
1.284e+04,-52.5031
1.285e+04,-50.5125
1.286e+04,-50.9969
1.288e+04,-51.4813
1.289e+04,-52.9875
1.290e+04,-54.4906
1.291e+04,-54.4906
1.292e+04,-54.4906
1.294e+04,-55.9969
1.295e+04,-57.5
1.296e+04,-55.9969
1.298e+04,-54.4906
1.299e+04,-55.9969
1.300e+04,-57.5
1.301e+04,-57.5
1.302e+04,-57.5
1.304e+04,-57.5
1.305e+04,-57.5
1.306e+04,-54.0063
1.308e+04,-50.5125
1.309e+04,-50.5125
1.310e+04,-50.5125
1.311e+04,-50.9969
1.312e+04,-51.4813
1.314e+04,-54.4906
1.315e+04,-57.5
1.316e+04,-57.5
1.318e+04,-57.5
1.319e+04,-57.5
1.320e+04,-57.5
1.321e+04,-51.9312
1.322e+04,-46.3625
1.324e+04,-51.9312
1.325e+04,-57.5
1.326e+04,-57.5
1.328e+04,-57.5
1.329e+04,-57.5
1.330e+04,-57.5
1.331e+04,-54.4906
1.332e+04,-51.4813
1.334e+04,-54.4906
1.335e+04,-57.5
1.336e+04,-57.5
1.338e+04,-57.5
1.339e+04,-52.7313
1.340e+04,-47.9594
1.341e+04,-52.7313
1.342e+04,-57.5
1.344e+04,-57.5
1.345e+04,-57.5
1.346e+04,-57.5
1.348e+04,-57.5
1.349e+04,-55.9969
1.350e+04,-54.4906
1.351e+04,-55.9969
1.352e+04,-57.5
1.354e+04,-57.5
1.355e+04,-57.5
1.356e+04,-57.5
1.358e+04,-57.5
1.359e+04,-57.5
1.360e+04,-57.5
1.361e+04,-54.0063
