Final Project/12-5/R2=R12=R13=10k, f=59Hz, V=15V/triangle/triangle FFT.CSV

Model,TBS1052C
Firmware Version,v2015-08-04-prequal4ch70_v1.3

Point Format,Y
Horizontal Units,Hz
Horizontal Scale,1562.5
Sample Interval,12.5
Filter Frequency,2e+08
Record Length,1250
Gating,0.0% to 100.0%
Probe Attenuation,1
Vertical Units,dB
Vertical Offset,0
Vertical Scale,20
Label,
FFT-FREQ,FFT-AMPL
0.000e+00,-9.26875
1.250e+01,-2.64062
2.500e+01,3.9875
3.750e+01,9.88125
5.000e+01,15.775
6.250e+01,14.9688
7.500e+01,14.1656
8.750e+01,5.68125
1.000e+02,-2.80313
1.125e+02,-12.4937
1.250e+02,-22.1844
1.375e+02,-15.9969
1.500e+02,-9.80937
1.625e+02,-6.00937
1.750e+02,-2.20625
1.875e+02,-4.64375
2.000e+02,-7.07812
2.125e+02,-17.3438
2.250e+02,-27.6062
2.375e+02,-31.05
2.500e+02,-34.4906
2.625e+02,-24.925
2.750e+02,-15.3594
2.875e+02,-13.2937
3.000e+02,-11.225
3.125e+02,-15.7906
3.250e+02,-20.3531
3.375e+02,-26.6313
3.500e+02,-32.9062
3.625e+02,-34.3531
3.750e+02,-35.7969
3.875e+02,-27.6156
4.000e+02,-19.4344
4.125e+02,-18.7781
4.250e+02,-18.1219
4.375e+02,-24.7812
4.500e+02,-31.4375
4.625e+02,-33.6781
4.750e+02,-35.9156
4.875e+02,-35.2031
5.000e+02,-34.4906
5.125e+02,-27.9656
5.250e+02,-21.4406
5.375e+02,-23.4844
5.500e+02,-25.525
5.625e+02,-30.0531
5.750e+02,-34.5781
5.875e+02,-41.525
6.000e+02,-48.4688
6.125e+02,-40.6875
6.250e+02,-32.9062
6.375e+02,-28.1094
6.500e+02,-23.3094
6.625e+02,-28.4688
6.750e+02,-33.625
6.875e+02,-34.0594
7.000e+02,-34.4906
7.125e+02,-42.9844
7.250e+02,-51.4781
7.375e+02,-41.2156
7.500e+02,-30.95
7.625e+02,-29.0437
7.750e+02,-27.1344
7.875e+02,-31.2437
8.000e+02,-35.3531
8.125e+02,-37.2656
8.250e+02,-39.175
8.375e+02,-45.3281
8.500e+02,-51.4781
8.625e+02,-40.6281
8.750e+02,-29.7781
8.875e+02,-32.8469
9.000e+02,-35.9156
9.125e+02,-34.7719
9.250e+02,-33.625
9.375e+02,-37.5531
9.500e+02,-41.4781
9.625e+02,-46.4781
9.750e+02,-51.4781
9.875e+02,-41.3531
1.000e+03,-31.2281
1.012e+03,-36.5844
1.025e+03,-41.9375
1.038e+03,-38.7
1.050e+03,-35.4594
1.062e+03,-40.4594
1.075e+03,-45.4594
1.088e+03,-41.3969
1.100e+03,-37.3312
1.112e+03,-37.4156
1.125e+03,-37.5
1.138e+03,-37.4156
1.150e+03,-37.3312
1.162e+03,-44.4062
1.175e+03,-51.4781
1.188e+03,-51.4781
1.200e+03,-51.4781
1.212e+03,-42.9844
1.225e+03,-34.4906
1.238e+03,-37.4156
1.250e+03,-40.3406
1.262e+03,-37.8469
1.275e+03,-35.3531
1.288e+03,-43.4156
1.300e+03,-51.4781
1.312e+03,-48.4688
1.325e+03,-45.4594
1.338e+03,-40.0187
1.350e+03,-34.5781
1.362e+03,-36.525
1.375e+03,-38.4688
1.388e+03,-41.9656
1.400e+03,-45.4594
1.412e+03,-43.7
1.425e+03,-41.9375
1.438e+03,-41.1406
1.450e+03,-40.3406
1.462e+03,-42.9
1.475e+03,-45.4594
1.488e+03,-44.975
1.500e+03,-44.4906
1.512e+03,-47.9844
1.525e+03,-51.4781
1.538e+03,-47.9844
1.550e+03,-44.4906
1.562e+03,-40.675
1.575e+03,-36.8563
1.588e+03,-39.1688
1.600e+03,-41.4781
1.612e+03,-39.4906
1.625e+03,-37.5
1.638e+03,-44.4906
1.650e+03,-51.4781
1.662e+03,-44.975
1.675e+03,-38.4688
1.688e+03,-39.975
1.700e+03,-41.4781
1.712e+03,-39.1688
1.725e+03,-36.8563
1.738e+03,-44.1688
1.750e+03,-51.4781
1.762e+03,-45.9094
1.775e+03,-40.3406
1.788e+03,-44.4062
1.800e+03,-48.4688
1.812e+03,-49.975
1.825e+03,-51.4781
1.838e+03,-44.4906
1.850e+03,-37.5
1.862e+03,-40.9969
1.875e+03,-44.4906
1.888e+03,-40.675
1.900e+03,-36.8563
1.912e+03,-44.1688
1.925e+03,-51.4781
1.938e+03,-47.9844
1.950e+03,-44.4906
1.962e+03,-47.9844
1.975e+03,-51.4781
1.988e+03,-47.9844
2.000e+03,-44.4906
2.012e+03,-47.9844
2.025e+03,-51.4781
2.038e+03,-51.4781
2.050e+03,-51.4781
2.062e+03,-48.4688
2.075e+03,-45.4594
2.088e+03,-45.4594
2.100e+03,-45.4594
2.112e+03,-45.4594
2.125e+03,-45.4594
2.138e+03,-43.9562
2.150e+03,-42.45
2.162e+03,-46.9656
2.175e+03,-51.4781
2.188e+03,-48.4688
2.200e+03,-45.4594
2.212e+03,-46.9656
2.225e+03,-48.4688
2.238e+03,-46.4813
2.250e+03,-44.4906
2.262e+03,-47.9844
2.275e+03,-51.4781
2.288e+03,-46.7094
2.300e+03,-41.9375
2.312e+03,-46.7094
2.325e+03,-51.4781
2.338e+03,-47.9844
2.350e+03,-44.4906
2.362e+03,-44.975
2.375e+03,-45.4594
2.388e+03,-43.9562
2.400e+03,-42.45
2.412e+03,-46.9656
2.425e+03,-51.4781
2.438e+03,-49.975
2.450e+03,-48.4688
2.462e+03,-46.9656
2.475e+03,-45.4594
2.488e+03,-46.9656
2.500e+03,-48.4688
2.512e+03,-48.4688
2.525e+03,-48.4688
2.538e+03,-48.4688
2.550e+03,-48.4688
2.562e+03,-46.9656
2.575e+03,-45.4594
2.588e+03,-46.9656
2.600e+03,-48.4688
2.612e+03,-49.975
2.625e+03,-51.4781
2.638e+03,-44.1688
2.650e+03,-36.8563
2.662e+03,-44.1688
2.675e+03,-51.4781
2.688e+03,-46.9656
2.700e+03,-42.45
2.712e+03,-46.9656
2.725e+03,-51.4781
2.738e+03,-51.4781
2.750e+03,-51.4781
2.762e+03,-46.9656
2.775e+03,-42.45
2.788e+03,-45.4594
2.800e+03,-48.4688
2.812e+03,-46.4813
2.825e+03,-44.4906
2.838e+03,-43.2156
2.850e+03,-41.9375
2.862e+03,-45.2031
2.875e+03,-48.4688
2.888e+03,-48.4688
2.900e+03,-48.4688
2.912e+03,-46.9656
2.925e+03,-45.4594
2.938e+03,-44.975
2.950e+03,-44.4906
2.962e+03,-46.4813
2.975e+03,-48.4688
2.988e+03,-44.4062
3.000e+03,-40.3406
3.012e+03,-45.9094
3.025e+03,-51.4781
3.038e+03,-47.9844
3.050e+03,-44.4906
3.062e+03,-42.4156
3.075e+03,-40.3406
3.088e+03,-44.4062
3.100e+03,-48.4688
3.112e+03,-48.4688
3.125e+03,-48.4688
3.138e+03,-48.4688
3.150e+03,-48.4688
3.162e+03,-49.975
3.175e+03,-51.4781
3.188e+03,-46.9656
3.200e+03,-42.45
3.212e+03,-41.9656
3.225e+03,-41.4781
3.238e+03,-44.975
3.250e+03,-48.4688
3.262e+03,-46.4813
3.275e+03,-44.4906
3.288e+03,-47.9844
3.300e+03,-51.4781
3.312e+03,-51.4781
3.325e+03,-51.4781
3.338e+03,-51.4781
3.350e+03,-51.4781
3.362e+03,-45.9094
3.375e+03,-40.3406
3.388e+03,-45.9094
3.400e+03,-51.4781
3.412e+03,-48.4688
3.425e+03,-45.4594
3.438e+03,-44.975
3.450e+03,-44.4906
3.462e+03,-46.4813
3.475e+03,-48.4688
3.488e+03,-48.4688
3.500e+03,-48.4688
3.512e+03,-49.975
3.525e+03,-51.4781
3.538e+03,-46.4781
3.550e+03,-41.4781
3.562e+03,-46.4781
3.575e+03,-51.4781
3.588e+03,-46.9656
3.600e+03,-42.45
3.612e+03,-42.45
3.625e+03,-42.45
3.638e+03,-43.4719
3.650e+03,-44.4906
3.662e+03,-43.2156
3.675e+03,-41.9375
3.688e+03,-41.9375
3.700e+03,-41.9375
3.712e+03,-46.7094
3.725e+03,-51.4781
3.738e+03,-51.4781
3.750e+03,-51.4781
3.762e+03,-51.4781
3.775e+03,-51.4781
3.788e+03,-46.9656
3.800e+03,-42.45
3.812e+03,-45.4594
3.825e+03,-48.4688
3.838e+03,-44.4062
3.850e+03,-40.3406
3.862e+03,-45.9094
3.875e+03,-51.4781
3.888e+03,-46.9656
3.900e+03,-42.45
3.912e+03,-46.9656
3.925e+03,-51.4781
3.938e+03,-46.9656
3.950e+03,-42.45
3.962e+03,-46.9656
3.975e+03,-51.4781
3.988e+03,-47.9844
4.000e+03,-44.4906
4.012e+03,-46.4813
4.025e+03,-48.4688
4.038e+03,-46.4813
4.050e+03,-44.4906
4.062e+03,-43.4719
4.075e+03,-42.45
4.088e+03,-43.9562
4.100e+03,-45.4594
4.112e+03,-44.975
4.125e+03,-44.4906
4.138e+03,-47.9844
4.150e+03,-51.4781
4.162e+03,-47.9844
4.175e+03,-44.4906
4.188e+03,-43.4719
4.200e+03,-42.45
4.212e+03,-46.9656
4.225e+03,-51.4781
4.238e+03,-49.975
4.250e+03,-48.4688
4.262e+03,-49.975
4.275e+03,-51.4781
4.288e+03,-51.4781
4.300e+03,-51.4781
4.312e+03,-45.9094
4.325e+03,-40.3406
4.338e+03,-45.9094
4.350e+03,-51.4781
4.362e+03,-45.9094
4.375e+03,-40.3406
4.388e+03,-45.9094
4.400e+03,-51.4781
4.412e+03,-51.4781
4.425e+03,-51.4781
4.438e+03,-51.4781
4.450e+03,-51.4781
4.462e+03,-49.975
4.475e+03,-48.4688
4.488e+03,-49.975
4.500e+03,-51.4781
4.512e+03,-49.975
4.525e+03,-48.4688
4.538e+03,-46.4813
4.550e+03,-44.4906
4.562e+03,-43.4719
4.575e+03,-42.45
4.588e+03,-43.9562
4.600e+03,-45.4594
4.612e+03,-48.4688
4.625e+03,-51.4781
4.638e+03,-46.9656
4.650e+03,-42.45
4.662e+03,-43.9562
4.675e+03,-45.4594
4.688e+03,-43.9562
4.700e+03,-42.45
4.712e+03,-46.9656
4.725e+03,-51.4781
4.738e+03,-45.9094
4.750e+03,-40.3406
4.762e+03,-42.9
4.775e+03,-45.4594
4.788e+03,-43.9562
4.800e+03,-42.45
4.812e+03,-45.4594
4.825e+03,-48.4688
4.838e+03,-46.9656
4.850e+03,-45.4594
4.862e+03,-44.975
4.875e+03,-44.4906
4.888e+03,-47.9844
4.900e+03,-51.4781
4.912e+03,-49.975
4.925e+03,-48.4688
4.938e+03,-46.9656
4.950e+03,-45.4594
4.962e+03,-44.975
4.975e+03,-44.4906
4.988e+03,-47.9844
5.000e+03,-51.4781
5.012e+03,-49.975
5.025e+03,-48.4688
5.038e+03,-48.4688
5.050e+03,-48.4688
5.062e+03,-49.975
5.075e+03,-51.4781
5.088e+03,-51.4781
5.100e+03,-51.4781
5.112e+03,-47.9844
5.125e+03,-44.4906
5.138e+03,-44.975
5.150e+03,-45.4594
5.162e+03,-48.4688
5.175e+03,-51.4781
5.188e+03,-51.4781
5.200e+03,-51.4781
5.212e+03,-49.975
5.225e+03,-48.4688
5.238e+03,-49.975
5.250e+03,-51.4781
5.262e+03,-46.4781
5.275e+03,-41.4781
5.288e+03,-46.4781
5.300e+03,-51.4781
5.312e+03,-47.9844
5.325e+03,-44.4906
5.338e+03,-44.975
5.350e+03,-45.4594
5.362e+03,-42.9
5.375e+03,-40.3406
5.388e+03,-45.9094
5.400e+03,-51.4781
5.412e+03,-51.4781
5.425e+03,-51.4781
5.438e+03,-46.9656
5.450e+03,-42.45
5.462e+03,-46.9656
5.475e+03,-51.4781
5.488e+03,-49.975
5.500e+03,-48.4688
5.512e+03,-46.4813
5.525e+03,-44.4906
5.538e+03,-44.4906
5.550e+03,-44.4906
5.562e+03,-44.975
5.575e+03,-45.4594
5.588e+03,-46.9656
5.600e+03,-48.4688
5.612e+03,-46.4813
5.625e+03,-44.4906
5.638e+03,-47.9844
5.650e+03,-51.4781
5.662e+03,-47.9844
5.675e+03,-44.4906
5.688e+03,-47.9844
5.700e+03,-51.4781
5.712e+03,-47.9844
5.725e+03,-44.4906
5.738e+03,-47.9844
5.750e+03,-51.4781
5.762e+03,-51.4781
5.775e+03,-51.4781
5.788e+03,-49.975
5.800e+03,-48.4688
5.812e+03,-49.975
5.825e+03,-51.4781
5.838e+03,-48.4688
5.850e+03,-45.4594
5.862e+03,-46.9656
5.875e+03,-48.4688
5.888e+03,-49.975
5.900e+03,-51.4781
5.912e+03,-49.975
5.925e+03,-48.4688
5.938e+03,-46.4813
5.950e+03,-44.4906
5.962e+03,-47.9844
5.975e+03,-51.4781
5.988e+03,-51.4781
6.000e+03,-51.4781
6.012e+03,-46.9656
6.025e+03,-42.45
6.038e+03,-46.9656
6.050e+03,-51.4781
6.062e+03,-46.9656
6.075e+03,-42.45
6.088e+03,-46.9656
6.100e+03,-51.4781
6.112e+03,-51.4781
6.125e+03,-51.4781
6.138e+03,-49.975
6.150e+03,-48.4688
6.162e+03,-49.975
6.175e+03,-51.4781
6.188e+03,-46.9656
6.200e+03,-42.45
6.212e+03,-46.9656
6.225e+03,-51.4781
6.238e+03,-49.975
6.250e+03,-48.4688
6.262e+03,-49.975
6.275e+03,-51.4781
6.288e+03,-51.4781
6.300e+03,-51.4781
6.312e+03,-45.9094
6.325e+03,-40.3406
6.338e+03,-45.9094
6.350e+03,-51.4781
6.362e+03,-49.975
6.375e+03,-48.4688
6.388e+03,-49.975
6.400e+03,-51.4781
6.412e+03,-51.4781
6.425e+03,-51.4781
6.438e+03,-46.4781
6.450e+03,-41.4781
6.462e+03,-46.4781
6.475e+03,-51.4781
6.488e+03,-48.4688
6.500e+03,-45.4594
6.512e+03,-48.4688
6.525e+03,-51.4781
6.538e+03,-51.4781
6.550e+03,-51.4781
6.562e+03,-46.4781
6.575e+03,-41.4781
6.588e+03,-41.7094
6.600e+03,-41.9375
6.612e+03,-43.2156
6.625e+03,-44.4906
6.638e+03,-43.4719
6.650e+03,-42.45
6.662e+03,-46.9656
6.675e+03,-51.4781
6.688e+03,-49.975
6.700e+03,-48.4688
6.712e+03,-46.4813
6.725e+03,-44.4906
6.738e+03,-44.975
6.750e+03,-45.4594
6.762e+03,-44.975
6.775e+03,-44.4906
6.788e+03,-47.9844
6.800e+03,-51.4781
6.812e+03,-49.975
6.825e+03,-48.4688
6.838e+03,-49.975
6.850e+03,-51.4781
6.862e+03,-48.4688
6.875e+03,-45.4594
6.888e+03,-43.7
6.900e+03,-41.9375
6.912e+03,-46.7094
6.925e+03,-51.4781
6.938e+03,-47.9844
6.950e+03,-44.4906
6.962e+03,-44.4906
6.975e+03,-44.4906
6.988e+03,-47.9844
7.000e+03,-51.4781
7.012e+03,-46.4781
7.025e+03,-41.4781
7.038e+03,-42.9844
7.050e+03,-44.4906
7.062e+03,-47.9844
7.075e+03,-51.4781
7.088e+03,-51.4781
7.100e+03,-51.4781
7.112e+03,-49.975
7.125e+03,-48.4688
7.138e+03,-49.975
7.150e+03,-51.4781
7.162e+03,-45.9094
7.175e+03,-40.3406
7.188e+03,-45.9094
7.200e+03,-51.4781
7.212e+03,-47.9844
7.225e+03,-44.4906
7.238e+03,-44.975
7.250e+03,-45.4594
7.262e+03,-46.9656
7.275e+03,-48.4688
7.288e+03,-48.4688
7.300e+03,-48.4688
7.312e+03,-45.4594
7.325e+03,-42.45
7.338e+03,-46.9656
7.350e+03,-51.4781
7.362e+03,-47.9844
7.375e+03,-44.4906
7.388e+03,-44.4906
7.400e+03,-44.4906
7.412e+03,-47.9844
7.425e+03,-51.4781
7.438e+03,-51.4781
7.450e+03,-51.4781
7.462e+03,-47.9844
7.475e+03,-44.4906
7.488e+03,-47.9844
7.500e+03,-51.4781
7.512e+03,-46.4781
7.525e+03,-41.4781
7.538e+03,-46.4781
7.550e+03,-51.4781
7.562e+03,-51.4781
7.575e+03,-51.4781
7.588e+03,-51.4781
7.600e+03,-51.4781
7.612e+03,-47.9844
7.625e+03,-44.4906
7.638e+03,-46.4813
7.650e+03,-48.4688
7.662e+03,-49.975
7.675e+03,-51.4781
7.688e+03,-49.975
7.700e+03,-48.4688
7.712e+03,-49.975
7.725e+03,-51.4781
7.738e+03,-47.9844
7.750e+03,-44.4906
7.762e+03,-44.4906
7.775e+03,-44.4906
7.788e+03,-46.4813
7.800e+03,-48.4688
7.812e+03,-49.975
7.825e+03,-51.4781
7.838e+03,-51.4781
7.850e+03,-51.4781
7.862e+03,-48.4688
7.875e+03,-45.4594
7.888e+03,-45.4594
7.900e+03,-45.4594
7.912e+03,-45.4594
7.925e+03,-45.4594
7.938e+03,-48.4688
7.950e+03,-51.4781
7.962e+03,-51.4781
7.975e+03,-51.4781
7.988e+03,-51.4781
8.000e+03,-51.4781
8.012e+03,-48.4688
8.025e+03,-45.4594
8.038e+03,-48.4688
8.050e+03,-51.4781
8.062e+03,-48.4688
8.075e+03,-45.4594
8.088e+03,-48.4688
8.100e+03,-51.4781
8.112e+03,-47.9844
8.125e+03,-44.4906
8.138e+03,-47.9844
8.150e+03,-51.4781
8.162e+03,-48.4688
8.175e+03,-45.4594
8.188e+03,-48.4688
8.200e+03,-51.4781
8.212e+03,-51.4781
8.225e+03,-51.4781
8.238e+03,-51.4781
8.250e+03,-51.4781
8.262e+03,-47.9844
8.275e+03,-44.4906
8.288e+03,-47.9844
8.300e+03,-51.4781
8.312e+03,-49.975
8.325e+03,-48.4688
8.338e+03,-46.9656
8.350e+03,-45.4594
8.362e+03,-45.4594
8.375e+03,-45.4594
8.388e+03,-46.9656
8.400e+03,-48.4688
8.412e+03,-49.975
8.425e+03,-51.4781
8.438e+03,-51.4781
8.450e+03,-51.4781
8.462e+03,-51.4781
8.475e+03,-51.4781
8.488e+03,-47.9844
8.500e+03,-44.4906
8.512e+03,-47.9844
8.525e+03,-51.4781
8.538e+03,-51.4781
8.550e+03,-51.4781
8.562e+03,-51.4781
8.575e+03,-51.4781
8.588e+03,-46.9656
8.600e+03,-42.45
8.612e+03,-46.9656
8.625e+03,-51.4781
8.638e+03,-47.9844
8.650e+03,-44.4906
8.662e+03,-47.9844
8.675e+03,-51.4781
8.688e+03,-49.975
8.700e+03,-48.4688
8.712e+03,-46.4813
8.725e+03,-44.4906
8.738e+03,-47.9844
8.750e+03,-51.4781
8.762e+03,-51.4781
8.775e+03,-51.4781
8.788e+03,-51.4781
8.800e+03,-51.4781
8.812e+03,-49.975
8.825e+03,-48.4688
8.838e+03,-46.4813
8.850e+03,-44.4906
8.862e+03,-42.9844
8.875e+03,-41.4781
8.888e+03,-46.4781
8.900e+03,-51.4781
8.912e+03,-48.4688
8.925e+03,-45.4594
8.938e+03,-45.4594
8.950e+03,-45.4594
8.962e+03,-44.975
8.975e+03,-44.4906
8.988e+03,-44.975
9.000e+03,-45.4594
9.012e+03,-45.4594
9.025e+03,-45.4594
9.038e+03,-48.4688
9.050e+03,-51.4781
9.062e+03,-46.4781
9.075e+03,-41.4781
9.088e+03,-46.4781
9.100e+03,-51.4781
9.112e+03,-51.4781
9.125e+03,-51.4781
9.138e+03,-47.9844
9.150e+03,-44.4906
9.162e+03,-47.9844
9.175e+03,-51.4781
9.188e+03,-49.975
9.200e+03,-48.4688
9.212e+03,-49.975
9.225e+03,-51.4781
9.238e+03,-51.4781
9.250e+03,-51.4781
9.262e+03,-51.4781
9.275e+03,-51.4781
9.288e+03,-47.9844
9.300e+03,-44.4906
9.312e+03,-43.2156
9.325e+03,-41.9375
9.338e+03,-43.2156
9.350e+03,-44.4906
9.362e+03,-44.4906
9.375e+03,-44.4906
9.388e+03,-46.4813
9.400e+03,-48.4688
9.412e+03,-49.975
9.425e+03,-51.4781
9.438e+03,-49.975
9.450e+03,-48.4688
9.462e+03,-49.975
9.475e+03,-51.4781
9.488e+03,-49.975
9.500e+03,-48.4688
9.512e+03,-49.975
9.525e+03,-51.4781
9.538e+03,-51.4781
9.550e+03,-51.4781
9.562e+03,-49.975
9.575e+03,-48.4688
9.588e+03,-49.975
9.600e+03,-51.4781
9.612e+03,-47.9844
9.625e+03,-44.4906
9.638e+03,-47.9844
9.650e+03,-51.4781
9.662e+03,-47.9844
9.675e+03,-44.4906
9.688e+03,-47.9844
9.700e+03,-51.4781
9.712e+03,-46.4781
9.725e+03,-41.4781
9.738e+03,-43.4688
9.750e+03,-45.4594
9.762e+03,-44.975
9.775e+03,-44.4906
9.788e+03,-44.4906
9.800e+03,-44.4906
9.812e+03,-47.9844
9.825e+03,-51.4781
9.838e+03,-51.4781
9.850e+03,-51.4781
9.862e+03,-49.975
9.875e+03,-48.4688
9.888e+03,-46.9656
9.900e+03,-45.4594
9.912e+03,-46.9656
9.925e+03,-48.4688
9.938e+03,-49.975
9.950e+03,-51.4781
9.962e+03,-48.4688
9.975e+03,-45.4594
9.988e+03,-46.9656
1.000e+04,-48.4688
1.001e+04,-44.975
1.002e+04,-41.4781
1.004e+04,-46.4781
1.005e+04,-51.4781
1.006e+04,-51.4781
1.008e+04,-51.4781
1.009e+04,-49.975
1.010e+04,-48.4688
1.011e+04,-49.975
1.012e+04,-51.4781
1.014e+04,-51.4781
1.015e+04,-51.4781
1.016e+04,-51.4781
1.018e+04,-51.4781
1.019e+04,-51.4781
1.020e+04,-51.4781
1.021e+04,-47.9844
1.022e+04,-44.4906
1.024e+04,-46.4813
1.025e+04,-48.4688
1.026e+04,-46.9656
1.028e+04,-45.4594
1.029e+04,-43.7
1.030e+04,-41.9375
1.031e+04,-43.2156
1.032e+04,-44.4906
1.034e+04,-47.9844
1.035e+04,-51.4781
1.036e+04,-49.975
1.038e+04,-48.4688
1.039e+04,-49.975
1.040e+04,-51.4781
1.041e+04,-46.9656
1.042e+04,-42.45
1.044e+04,-45.4594
1.045e+04,-48.4688
1.046e+04,-49.975
1.048e+04,-51.4781
1.049e+04,-47.9844
1.050e+04,-44.4906
1.051e+04,-47.9844
1.052e+04,-51.4781
1.054e+04,-49.975
1.055e+04,-48.4688
1.056e+04,-49.975
1.058e+04,-51.4781
1.059e+04,-51.4781
1.060e+04,-51.4781
1.061e+04,-51.4781
1.062e+04,-51.4781
1.064e+04,-49.975
1.065e+04,-48.4688
1.066e+04,-49.975
1.068e+04,-51.4781
1.069e+04,-51.4781
1.070e+04,-51.4781
1.071e+04,-51.4781
1.072e+04,-51.4781
1.074e+04,-51.4781
1.075e+04,-51.4781
1.076e+04,-51.4781
1.078e+04,-51.4781
1.079e+04,-47.9844
1.080e+04,-44.4906
1.081e+04,-47.9844
1.082e+04,-51.4781
1.084e+04,-48.4688
1.085e+04,-45.4594
1.086e+04,-48.4688
1.088e+04,-51.4781
1.089e+04,-47.9844
1.090e+04,-44.4906
1.091e+04,-47.9844
1.092e+04,-51.4781
1.094e+04,-49.975
1.095e+04,-48.4688
1.096e+04,-49.975
1.098e+04,-51.4781
1.099e+04,-47.9844
1.100e+04,-44.4906
1.101e+04,-47.9844
1.102e+04,-51.4781
1.104e+04,-47.9844
1.105e+04,-44.4906
1.106e+04,-47.9844
1.108e+04,-51.4781
1.109e+04,-51.4781
1.110e+04,-51.4781
1.111e+04,-51.4781
1.112e+04,-51.4781
1.114e+04,-51.4781
1.115e+04,-51.4781
1.116e+04,-51.4781
1.118e+04,-51.4781
1.119e+04,-47.9844
1.120e+04,-44.4906
1.121e+04,-47.9844
1.122e+04,-51.4781
1.124e+04,-49.975
1.125e+04,-48.4688
1.126e+04,-46.4813
1.128e+04,-44.4906
1.129e+04,-47.9844
1.130e+04,-51.4781
1.131e+04,-49.975
1.132e+04,-48.4688
1.134e+04,-49.975
1.135e+04,-51.4781
1.136e+04,-51.4781
1.138e+04,-51.4781
1.139e+04,-49.975
1.140e+04,-48.4688
1.141e+04,-49.975
1.142e+04,-51.4781
1.144e+04,-47.9844
1.145e+04,-44.4906
1.146e+04,-47.9844
1.148e+04,-51.4781
1.149e+04,-47.9844
1.150e+04,-44.4906
1.151e+04,-46.4813
1.152e+04,-48.4688
1.154e+04,-45.4594
1.155e+04,-42.45
1.156e+04,-46.9656
1.158e+04,-51.4781
1.159e+04,-51.4781
1.160e+04,-51.4781
1.161e+04,-47.9844
1.162e+04,-44.4906
1.164e+04,-44.975
1.165e+04,-45.4594
1.166e+04,-48.4688
1.168e+04,-51.4781
1.169e+04,-51.4781
1.170e+04,-51.4781
1.171e+04,-51.4781
1.172e+04,-51.4781
1.174e+04,-49.975
1.175e+04,-48.4688
1.176e+04,-48.4688
1.178e+04,-48.4688
1.179e+04,-48.4688
1.180e+04,-48.4688
1.181e+04,-48.4688
1.182e+04,-48.4688
1.184e+04,-49.975
1.185e+04,-51.4781
1.186e+04,-47.9844
1.188e+04,-44.4906
1.189e+04,-46.4813
1.190e+04,-48.4688
1.191e+04,-49.975
1.192e+04,-51.4781
1.194e+04,-51.4781
1.195e+04,-51.4781
1.196e+04,-51.4781
1.198e+04,-51.4781
1.199e+04,-51.4781
1.200e+04,-51.4781
1.201e+04,-51.4781
1.202e+04,-51.4781
1.204e+04,-47.9844
1.205e+04,-44.4906
1.206e+04,-47.9844
1.208e+04,-51.4781
1.209e+04,-47.9844
1.210e+04,-44.4906
1.211e+04,-47.9844
1.212e+04,-51.4781
1.214e+04,-51.4781
1.215e+04,-51.4781
1.216e+04,-47.9844
1.218e+04,-44.4906
1.219e+04,-47.9844
1.220e+04,-51.4781
1.221e+04,-47.9844
1.222e+04,-44.4906
1.224e+04,-47.9844
1.225e+04,-51.4781
1.226e+04,-49.975
1.228e+04,-48.4688
1.229e+04,-49.975
1.230e+04,-51.4781
1.231e+04,-51.4781
1.232e+04,-51.4781
1.234e+04,-47.9844
1.235e+04,-44.4906
1.236e+04,-47.9844
1.238e+04,-51.4781
1.239e+04,-48.4688
1.240e+04,-45.4594
1.241e+04,-46.9656
1.242e+04,-48.4688
1.244e+04,-48.4688
1.245e+04,-48.4688
1.246e+04,-48.4688
1.248e+04,-48.4688
1.249e+04,-46.9656
1.250e+04,-45.4594
1.251e+04,-48.4688
1.252e+04,-51.4781
1.254e+04,-51.4781
1.255e+04,-51.4781
1.256e+04,-46.4781
1.258e+04,-41.4781
1.259e+04,-46.4781
1.260e+04,-51.4781
1.261e+04,-49.975
1.262e+04,-48.4688
1.264e+04,-49.975
1.265e+04,-51.4781
1.266e+04,-49.975
1.268e+04,-48.4688
1.269e+04,-49.975
1.270e+04,-51.4781
1.271e+04,-51.4781
1.272e+04,-51.4781
1.274e+04,-46.9656
1.275e+04,-42.45
1.276e+04,-45.4594
1.278e+04,-48.4688
1.279e+04,-46.9656
1.280e+04,-45.4594
1.281e+04,-48.4688
1.282e+04,-51.4781
1.284e+04,-49.975
1.285e+04,-48.4688
1.286e+04,-48.4688
1.288e+04,-48.4688
1.289e+04,-49.975
1.290e+04,-51.4781
1.291e+04,-49.975
1.292e+04,-48.4688
1.294e+04,-49.975
1.295e+04,-51.4781
1.296e+04,-51.4781
1.298e+04,-51.4781
1.299e+04,-51.4781
1.300e+04,-51.4781
1.301e+04,-51.4781
1.302e+04,-51.4781
1.304e+04,-51.4781
1.305e+04,-51.4781
1.306e+04,-46.4781
1.308e+04,-41.4781
