Final Project/12-4/square-triangle/fft_square.CSV

Model,TBS1052C
Firmware Version,v2015-08-04-prequal4ch70_v1.3

Point Format,Y
Horizontal Units,Hz
Horizontal Scale,62500
Sample Interval,125
Filter Frequency,2e+08
Record Length,5000
Gating,0.0% to 100.0%
Probe Attenuation,1
Vertical Units,dB
Vertical Offset,0
Vertical Scale,20
Label,
FFT-FREQ,FFT-AMPL
0.000e+00,0.1375
1.250e+02,4.15
2.500e+02,8.16563
3.750e+02,6.39375
5.000e+02,4.625
6.250e+02,0.484375
7.500e+02,-3.65625
8.750e+02,-2.7875
1.000e+03,-1.91875
1.125e+03,-6.31875
1.250e+03,-10.7188
1.375e+03,-8.13437
1.500e+03,-5.54688
1.625e+03,-8.36562
1.750e+03,-11.1844
1.875e+03,-10.5594
2.000e+03,-9.93125
2.125e+03,-10.05
2.250e+03,-10.1656
2.375e+03,-12.8969
2.500e+03,-15.6281
2.625e+03,-13.1719
2.750e+03,-10.7125
2.875e+03,-14.2562
3.000e+03,-17.7969
3.125e+03,-15.4719
3.250e+03,-13.1437
3.375e+03,-14.15
3.500e+03,-15.1562
3.625e+03,-16.3125
3.750e+03,-17.4688
3.875e+03,-15.85
4.000e+03,-14.2281
4.125e+03,-17.8094
4.250e+03,-21.3906
4.375e+03,-18.4312
4.500e+03,-15.4688
4.625e+03,-17.3469
4.750e+03,-19.2219
4.875e+03,-18.8562
5.000e+03,-18.4875
5.125e+03,-17.8438
5.250e+03,-17.2
5.375e+03,-19.9812
5.500e+03,-22.7594
5.625e+03,-20.1031
5.750e+03,-17.4469
5.875e+03,-20.0531
6.000e+03,-22.6594
6.125e+03,-20.9688
6.250e+03,-19.275
6.375e+03,-19.5812
6.500e+03,-19.8844
6.625e+03,-21.425
6.750e+03,-22.9625
6.875e+03,-21.0844
7.000e+03,-19.2031
7.125e+03,-22.2844
7.250e+03,-25.3656
7.375e+03,-22.775
7.500e+03,-20.1844
7.625e+03,-21.4531
7.750e+03,-22.7219
7.875e+03,-22.8594
8.000e+03,-22.9969
8.125e+03,-22.0813
8.250e+03,-21.1625
8.375e+03,-24.0688
8.500e+03,-26.9719
8.625e+03,-24.0469
8.750e+03,-21.1219
8.875e+03,-23.3156
9.000e+03,-25.5063
9.125e+03,-24.2375
9.250e+03,-22.9656
9.375e+03,-23.0188
9.500e+03,-23.0719
9.625e+03,-25.1656
9.750e+03,-27.2563
9.875e+03,-24.6812
1.000e+04,-22.1031
1.012e+04,-25.2781
1.025e+04,-28.45
1.038e+04,-25.8469
1.050e+04,-23.2437
1.062e+04,-24.2875
1.075e+04,-25.3281
1.088e+04,-26.1406
1.100e+04,-26.95
1.112e+04,-25.1562
1.125e+04,-23.3625
1.138e+04,-27.1375
1.150e+04,-30.9125
1.162e+04,-27.2406
1.175e+04,-23.5687
1.188e+04,-25.6031
1.200e+04,-27.6344
1.212e+04,-27.1313
1.225e+04,-26.625
1.238e+04,-25.575
1.250e+04,-24.5219
1.262e+04,-28
1.275e+04,-31.475
1.288e+04,-27.7906
1.300e+04,-24.1062
1.312e+04,-27.0938
1.325e+04,-30.0812
1.338e+04,-28.3
1.350e+04,-26.5187
1.362e+04,-26.325
1.375e+04,-26.1281
1.388e+04,-28.5281
1.400e+04,-30.925
1.412e+04,-27.8656
1.425e+04,-24.8062
1.438e+04,-28.3656
1.450e+04,-31.925
1.462e+04,-29.1906
1.475e+04,-26.4562
1.488e+04,-27.0625
1.500e+04,-27.6687
1.512e+04,-28.9094
1.525e+04,-30.1469
1.538e+04,-27.975
1.550e+04,-25.8
1.562e+04,-29.3969
1.575e+04,-32.9906
1.588e+04,-29.8312
1.600e+04,-26.6687
1.612e+04,-28.1625
1.625e+04,-29.6562
1.638e+04,-29.6
1.650e+04,-29.5437
1.662e+04,-28.2281
1.675e+04,-26.9094
1.688e+04,-29.925
1.700e+04,-32.9375
1.712e+04,-30.0531
1.725e+04,-27.1687
1.738e+04,-29.3656
1.750e+04,-31.5625
1.762e+04,-30.2
1.775e+04,-28.8375
1.788e+04,-28.5906
1.800e+04,-28.3438
1.812e+04,-29.9344
1.825e+04,-31.525
1.838e+04,-29.7344
1.850e+04,-27.9406
1.862e+04,-30.5812
1.875e+04,-33.2188
1.888e+04,-30.8719
1.900e+04,-28.525
1.912e+04,-29.3875
1.925e+04,-30.25
1.938e+04,-30.35
1.950e+04,-30.45
1.962e+04,-29.8062
1.975e+04,-29.1625
1.988e+04,-31.6187
2.000e+04,-34.0719
2.012e+04,-31.3531
2.025e+04,-28.6313
2.038e+04,-30.5812
2.050e+04,-32.5312
2.062e+04,-31.1687
2.075e+04,-29.8062
2.088e+04,-29.9844
2.100e+04,-30.1625
2.112e+04,-32.0312
2.125e+04,-33.9
2.138e+04,-31.475
2.150e+04,-29.05
2.162e+04,-31.8125
2.175e+04,-34.5719
2.188e+04,-32.0438
2.200e+04,-29.5156
2.212e+04,-30.6187
2.225e+04,-31.7188
2.238e+04,-32.4937
2.250e+04,-33.2687
2.262e+04,-31.4594
2.275e+04,-29.6469
2.288e+04,-33.1688
2.300e+04,-36.6906
2.312e+04,-32.9781
2.325e+04,-29.2656
2.338e+04,-31.4469
2.350e+04,-33.625
2.362e+04,-33.0938
2.375e+04,-32.5594
2.388e+04,-31.475
2.400e+04,-30.3906
2.412e+04,-33.9406
2.425e+04,-37.4875
2.438e+04,-33.4312
2.450e+04,-29.3719
2.462e+04,-32.5187
2.475e+04,-35.6656
2.488e+04,-33.6781
2.500e+04,-31.6906
2.512e+04,-31.4531
2.525e+04,-31.2156
2.538e+04,-34.1281
2.550e+04,-37.0375
2.562e+04,-33.5125
2.575e+04,-29.9875
2.588e+04,-33.9438
2.600e+04,-37.8969
2.612e+04,-34.8062
2.625e+04,-31.7156
2.638e+04,-32.0281
2.650e+04,-32.3406
2.662e+04,-34.1156
2.675e+04,-35.8875
2.688e+04,-33.075
2.700e+04,-30.2594
2.712e+04,-33.9469
2.725e+04,-37.6313
2.738e+04,-34.525
2.750e+04,-31.4156
2.762e+04,-32.7219
2.775e+04,-34.025
2.788e+04,-34.2656
2.800e+04,-34.5063
2.812e+04,-32.8719
2.825e+04,-31.2375
2.838e+04,-34.4031
2.850e+04,-37.5656
2.862e+04,-34.7812
2.875e+04,-31.9969
2.888e+04,-33.5969
2.900e+04,-35.1938
2.912e+04,-34.5
2.925e+04,-33.8062
2.938e+04,-33.0562
2.950e+04,-32.3031
2.962e+04,-34.0469
2.975e+04,-35.7906
2.988e+04,-34.1063
3.000e+04,-32.4219
3.012e+04,-34.4781
3.025e+04,-36.5312
3.038e+04,-34.7125
3.050e+04,-32.8906
3.062e+04,-33.2719
3.075e+04,-33.6531
3.088e+04,-34.2625
3.100e+04,-34.8687
3.112e+04,-33.8656
3.125e+04,-32.8625
3.138e+04,-35.0719
3.150e+04,-37.2781
3.162e+04,-35.0406
3.175e+04,-32.8031
3.188e+04,-34.1688
3.200e+04,-35.5344
3.212e+04,-34.4438
3.225e+04,-33.35
3.238e+04,-33.7875
3.250e+04,-34.225
3.262e+04,-35.5406
3.275e+04,-36.8563
3.288e+04,-34.8969
3.300e+04,-32.9375
3.312e+04,-35.3719
3.325e+04,-37.8031
3.338e+04,-35.3719
3.350e+04,-32.9375
3.362e+04,-34.25
3.375e+04,-35.5625
3.388e+04,-36.1187
3.400e+04,-36.6719
3.412e+04,-34.8969
3.425e+04,-33.1219
3.438e+04,-36.6
3.450e+04,-40.075
3.462e+04,-36.2625
3.475e+04,-32.45
3.488e+04,-35.1031
3.500e+04,-37.7563
3.512e+04,-36.6594
3.525e+04,-35.5625
3.538e+04,-34.6562
3.550e+04,-33.7469
3.562e+04,-37.7094
3.575e+04,-41.6719
3.588e+04,-37.0281
3.600e+04,-32.3813
3.612e+04,-36.0156
3.625e+04,-39.6469
3.638e+04,-37.4438
3.650e+04,-35.2406
3.662e+04,-34.8656
3.675e+04,-34.4906
3.688e+04,-37.9844
3.700e+04,-41.4781
3.712e+04,-37.0969
3.725e+04,-32.7156
3.738e+04,-36.8656
3.750e+04,-41.0156
3.762e+04,-37.9531
3.775e+04,-34.8875
3.788e+04,-35.0406
3.800e+04,-35.1938
3.812e+04,-37.4219
3.825e+04,-39.6469
3.838e+04,-36.3469
3.850e+04,-33.0438
3.862e+04,-37.6
3.875e+04,-42.1531
3.888e+04,-38.3156
3.900e+04,-34.4781
3.912e+04,-35.55
3.925e+04,-36.6187
3.938e+04,-37.3125
3.950e+04,-38.0063
3.962e+04,-36.0406
3.975e+04,-34.0719
3.988e+04,-37.2906
4.000e+04,-40.5094
4.012e+04,-37.7125
4.025e+04,-34.9156
4.038e+04,-36.425
4.050e+04,-37.9344
4.062e+04,-37.4656
4.075e+04,-36.9969
4.088e+04,-35.8969
4.100e+04,-34.7938
4.112e+04,-36.8312
4.125e+04,-38.8656
4.138e+04,-37.2
4.150e+04,-35.5344
4.162e+04,-37.2844
4.175e+04,-39.0344
4.188e+04,-37.8375
4.200e+04,-36.6375
4.212e+04,-36.3188
4.225e+04,-36
4.238e+04,-36.9188
4.250e+04,-37.8375
4.262e+04,-37.1
4.275e+04,-36.3594
4.288e+04,-38.0031
4.300e+04,-39.6469
4.312e+04,-37.7781
4.325e+04,-35.9094
4.338e+04,-36.7062
4.350e+04,-37.5
4.362e+04,-36.8781
4.375e+04,-36.2531
4.388e+04,-36.6469
4.400e+04,-37.0375
4.412e+04,-38.2062
4.425e+04,-39.3719
4.438e+04,-37.5531
4.450e+04,-35.7313
4.462e+04,-37.5094
4.475e+04,-39.2875
4.488e+04,-37.6875
4.500e+04,-36.0844
4.512e+04,-37.1906
4.525e+04,-38.2969
4.538e+04,-38.5375
4.550e+04,-38.7781
4.562e+04,-37.2219
4.575e+04,-35.6656
4.588e+04,-38.6156
4.600e+04,-41.5625
4.612e+04,-38.0938
4.625e+04,-34.6219
4.638e+04,-37.4406
4.650e+04,-40.2563
4.662e+04,-39.0781
4.675e+04,-37.8969
4.688e+04,-37.2156
4.700e+04,-36.5312
4.712e+04,-39.9
4.725e+04,-43.2687
4.738e+04,-39.1094
4.750e+04,-34.9469
4.762e+04,-38.3687
4.775e+04,-41.7875
4.788e+04,-39.3937
4.800e+04,-36.9969
4.812e+04,-36.9844
4.825e+04,-36.9688
4.838e+04,-40.7031
4.850e+04,-44.4344
4.862e+04,-39.7625
4.875e+04,-35.0875
4.888e+04,-40.2406
4.900e+04,-45.3906
4.912e+04,-41.3188
4.925e+04,-37.2469
4.938e+04,-37.55
4.950e+04,-37.85
4.962e+04,-40.2
4.975e+04,-42.55
4.988e+04,-38.9781
5.000e+04,-35.4031
5.012e+04,-39.8937
5.025e+04,-44.3813
5.038e+04,-40.3719
5.050e+04,-36.3594
5.062e+04,-37.7531
5.075e+04,-39.1437
5.088e+04,-40.2844
5.100e+04,-41.425
5.112e+04,-38.4937
5.125e+04,-35.5625
5.138e+04,-39.8937
5.150e+04,-44.225
5.162e+04,-40.4438
5.175e+04,-36.6625
5.188e+04,-38.6187
5.200e+04,-40.575
5.212e+04,-40.3563
5.225e+04,-40.1344
5.238e+04,-38.5094
5.250e+04,-36.8844
5.262e+04,-39.3813
5.275e+04,-41.8781
5.288e+04,-39.6375
5.300e+04,-37.3937
5.312e+04,-39.2062
5.325e+04,-41.0156
5.338e+04,-40.025
5.350e+04,-39.0344
5.362e+04,-38.4188
5.375e+04,-37.8031
5.388e+04,-38.7531
5.400e+04,-39.7
5.412e+04,-38.5469
5.425e+04,-37.3937
5.438e+04,-39.5906
5.450e+04,-41.7875
5.462e+04,-40.0938
5.475e+04,-38.4
5.488e+04,-38.8438
5.500e+04,-39.2875
5.512e+04,-39.0719
5.525e+04,-38.8531
5.538e+04,-38.7031
5.550e+04,-38.55
5.562e+04,-39.7
5.575e+04,-40.85
5.588e+04,-39.625
5.600e+04,-38.4
5.612e+04,-39.4875
5.625e+04,-40.575
5.638e+04,-38.9906
5.650e+04,-37.4031
5.662e+04,-38.4125
5.675e+04,-39.4219
5.688e+04,-40.0344
5.700e+04,-40.6437
5.712e+04,-39.425
5.725e+04,-38.2062
5.738e+04,-40.6781
5.750e+04,-43.1469
5.762e+04,-39.9937
5.775e+04,-36.8375
5.788e+04,-38.9906
5.800e+04,-41.1406
5.812e+04,-40.5594
5.825e+04,-39.9781
5.838e+04,-39.4219
5.850e+04,-38.8656
5.862e+04,-41.8469
5.875e+04,-44.8281
5.888e+04,-40.5875
5.900e+04,-36.3438
5.912e+04,-40.1625
5.925e+04,-43.9781
5.938e+04,-41.1375
5.950e+04,-38.2969
5.962e+04,-38.5531
5.975e+04,-38.8062
5.988e+04,-42.1
6.000e+04,-45.3906
6.012e+04,-41.0406
6.025e+04,-36.6906
6.038e+04,-41.525
6.050e+04,-46.3594
6.062e+04,-42.6125
6.075e+04,-38.8656
6.088e+04,-39.4719
6.100e+04,-40.075
6.112e+04,-42.15
6.125e+04,-44.225
6.138e+04,-40.6906
6.150e+04,-37.1562
6.162e+04,-42.5562
6.175e+04,-47.9562
6.188e+04,-43.1
6.200e+04,-38.2437
6.212e+04,-39.4562
6.225e+04,-40.6656
6.238e+04,-41.8281
6.250e+04,-42.9906
6.262e+04,-40.2906
6.275e+04,-37.5875
6.288e+04,-42.2875
6.300e+04,-46.9875
6.312e+04,-42.5969
6.325e+04,-38.2062
6.338e+04,-40.2938
6.350e+04,-42.3813
6.362e+04,-42.0844
6.375e+04,-41.7875
6.388e+04,-39.9594
6.400e+04,-38.1281
6.412e+04,-41.4781
6.425e+04,-44.8281
6.438e+04,-41.6969
6.450e+04,-38.5656
6.462e+04,-40.6125
6.475e+04,-42.6562
6.488e+04,-41.8125
6.500e+04,-40.9688
6.512e+04,-39.7188
6.525e+04,-38.4688
6.538e+04,-40.3125
6.550e+04,-42.1531
6.562e+04,-40.625
6.575e+04,-39.0969
6.588e+04,-40.4875
6.600e+04,-41.8781
6.612e+04,-41.1406
6.625e+04,-40.4031
6.638e+04,-40.3312
6.650e+04,-40.2563
6.662e+04,-40.3844
6.675e+04,-40.5094
6.688e+04,-40.1875
6.700e+04,-39.8656
6.712e+04,-41.4281
6.725e+04,-42.9906
6.738e+04,-41.7938
6.750e+04,-40.5969
6.762e+04,-41.6281
6.775e+04,-42.6562
6.788e+04,-41.0406
6.800e+04,-39.4219
6.812e+04,-40.5469
6.825e+04,-41.6719
6.838e+04,-41.9281
6.850e+04,-42.1844
6.862e+04,-41.0531
6.875e+04,-39.9219
6.888e+04,-42.075
6.900e+04,-44.225
6.912e+04,-41.2156
6.925e+04,-38.2062
6.938e+04,-40.45
6.950e+04,-42.6938
6.962e+04,-41.9188
6.975e+04,-41.1406
6.988e+04,-40.6094
7.000e+04,-40.075
7.012e+04,-42.9813
7.025e+04,-45.8875
7.038e+04,-42.2188
7.050e+04,-38.55
7.062e+04,-41.8719
7.075e+04,-45.1938
7.088e+04,-42.8969
7.100e+04,-40.5969
7.112e+04,-40.7844
7.125e+04,-40.9688
7.138e+04,-44.5875
7.150e+04,-48.2062
7.162e+04,-43.4438
7.175e+04,-38.6781
7.188e+04,-42.8344
7.200e+04,-46.9875
7.212e+04,-43.4094
7.225e+04,-39.8281
7.238e+04,-40.8094
7.250e+04,-41.7875
7.262e+04,-44.1594
7.275e+04,-46.5312
7.288e+04,-42.4656
7.300e+04,-38.4
7.312e+04,-44.4562
7.325e+04,-50.5094
7.338e+04,-45.025
7.350e+04,-39.5406
7.362e+04,-40.725
7.375e+04,-41.9062
7.388e+04,-43.3969
7.400e+04,-44.8875
7.412e+04,-41.7
7.425e+04,-38.5094
7.438e+04,-43.7031
7.450e+04,-48.8969
7.462e+04,-44.3719
7.475e+04,-39.8469
7.488e+04,-42.1688
7.500e+04,-44.4906
7.512e+04,-44.6594
7.525e+04,-44.8281
7.538e+04,-41.8781
7.550e+04,-38.925
7.562e+04,-42.7281
7.575e+04,-46.5312
7.588e+04,-43.2656
7.600e+04,-40
7.612e+04,-42.2188
7.625e+04,-44.4344
7.638e+04,-43.4094
7.650e+04,-42.3813
7.662e+04,-41.1156
7.675e+04,-39.8469
7.688e+04,-41.9375
7.700e+04,-44.025
7.712e+04,-42.05
7.725e+04,-40.075
7.738e+04,-41.8656
7.750e+04,-43.6531
7.762e+04,-42.7656
7.775e+04,-41.8781
7.788e+04,-41.5594
7.800e+04,-41.2406
7.812e+04,-41.5312
7.825e+04,-41.8188
7.838e+04,-41.3344
7.850e+04,-40.85
7.862e+04,-42.1844
7.875e+04,-43.5187
7.888e+04,-42.95
7.900e+04,-42.3813
7.912e+04,-42.8656
7.925e+04,-43.35
7.938e+04,-42.2844
7.950e+04,-41.2156
7.962e+04,-41.5469
7.975e+04,-41.8781
7.988e+04,-42.9531
8.000e+04,-44.025
8.012e+04,-42.6344
8.025e+04,-41.2406
8.038e+04,-42.8125
8.050e+04,-44.3813
8.062e+04,-42.1531
8.075e+04,-39.9219
8.088e+04,-42.1531
8.100e+04,-44.3813
8.112e+04,-43.3813
8.125e+04,-42.3813
8.138e+04,-42.1
8.150e+04,-41.8188
8.162e+04,-44.05
8.175e+04,-46.2781
8.188e+04,-42.9906
8.200e+04,-39.7
8.212e+04,-43.8281
8.225e+04,-47.9562
8.238e+04,-44.9312
8.250e+04,-41.9062
8.262e+04,-42.3906
8.275e+04,-42.875
8.288e+04,-45.1344
8.300e+04,-47.3937
8.312e+04,-43.7344
8.325e+04,-40.075
8.338e+04,-43.7875
8.350e+04,-47.5
8.362e+04,-44.6594
8.375e+04,-41.8188
8.388e+04,-42.3281
8.400e+04,-42.8375
8.412e+04,-45.3375
8.425e+04,-47.8375
8.438e+04,-43.6063
8.450e+04,-39.3719
8.462e+04,-45.8781
8.475e+04,-52.3813
8.488e+04,-46.5125
8.500e+04,-40.6437
8.512e+04,-42.1281
8.525e+04,-43.6094
8.538e+04,-45.725
8.550e+04,-47.8375
8.562e+04,-44.0906
8.575e+04,-40.3406
8.588e+04,-47.1594
8.600e+04,-53.9781
8.612e+04,-47.3125
8.625e+04,-40.6437
8.638e+04,-43.0187
8.650e+04,-45.3906
8.662e+04,-45.3906
8.675e+04,-45.3906
8.688e+04,-42.9281
8.700e+04,-40.4656
8.712e+04,-45.0031
8.725e+04,-49.5406
8.738e+04,-45.3781
8.750e+04,-41.2156
8.762e+04,-43.3031
8.775e+04,-45.3906
8.788e+04,-44.8094
8.800e+04,-44.225
8.812e+04,-42.8
8.825e+04,-41.3719
8.838e+04,-43.8656
8.850e+04,-46.3594
8.862e+04,-43.8656
8.875e+04,-41.3719
8.888e+04,-43.825
8.900e+04,-46.2781
8.912e+04,-44.9
8.925e+04,-43.5187
8.938e+04,-42.8531
8.950e+04,-42.1844
8.962e+04,-43.0812
8.975e+04,-43.9781
8.988e+04,-42.9438
9.000e+04,-41.9062
9.012e+04,-43.3687
9.025e+04,-44.8281
9.038e+04,-44.2406
9.050e+04,-43.6531
9.062e+04,-43.4
9.075e+04,-43.1469
9.088e+04,-42.7656
9.100e+04,-42.3813
9.112e+04,-42.6094
9.125e+04,-42.8375
9.138e+04,-43.5312
9.150e+04,-44.225
9.162e+04,-43.7875
9.175e+04,-43.35
9.188e+04,-44.3719
9.200e+04,-45.3906
9.212e+04,-43.65
9.225e+04,-41.9062
9.238e+04,-42.7812
9.250e+04,-43.6531
9.262e+04,-43.6531
9.275e+04,-43.6531
9.288e+04,-43.1562
9.300e+04,-42.6562
9.312e+04,-44.4688
9.325e+04,-46.2781
9.338e+04,-43.4281
9.350e+04,-40.575
9.362e+04,-43.5969
9.375e+04,-46.6187
9.388e+04,-44.5844
9.400e+04,-42.55
9.412e+04,-42.95
9.425e+04,-43.35
9.438e+04,-45.7781
9.450e+04,-48.2062
9.462e+04,-44.6125
9.475e+04,-41.0156
9.488e+04,-44.4281
9.500e+04,-47.8375
9.512e+04,-45.2656
9.525e+04,-42.6938
9.538e+04,-43.7906
9.550e+04,-44.8875
9.562e+04,-46.1938
9.575e+04,-47.5
9.588e+04,-44.0719
9.600e+04,-40.6437
9.612e+04,-45.0938
9.625e+04,-49.5406
9.638e+04,-45.725
9.650e+04,-41.9062
9.662e+04,-43.7875
9.675e+04,-45.6656
9.688e+04,-46.8125
9.700e+04,-47.9562
9.712e+04,-44.0469
9.725e+04,-40.1344
9.738e+04,-45.8062
9.750e+04,-51.4781
9.762e+04,-46.8156
9.775e+04,-42.1531
9.788e+04,-44.2563
9.800e+04,-46.3594
9.812e+04,-46.675
9.825e+04,-46.9875
9.838e+04,-43.9656
9.850e+04,-40.9438
9.862e+04,-45.7281
9.875e+04,-50.5094
9.888e+04,-45.8625
9.900e+04,-41.2156
9.912e+04,-43.7469
9.925e+04,-46.2781
9.938e+04,-45.9719
9.950e+04,-45.6656
9.962e+04,-44.0562
9.975e+04,-42.4469
9.988e+04,-44.9219
1.000e+05,-47.3937
1.001e+05,-44.7906
1.002e+05,-42.1844
1.004e+05,-45.0125
1.005e+05,-47.8375
1.006e+05,-47.1844
1.008e+05,-46.5312
1.009e+05,-44.7625
1.010e+05,-42.9906
1.011e+05,-44.1906
1.012e+05,-45.3906
1.014e+05,-44.1906
1.015e+05,-42.9906
1.016e+05,-44.1906
1.018e+05,-45.3906
1.019e+05,-44.9406
1.020e+05,-44.4906
1.021e+05,-44.2594
1.022e+05,-44.025
1.024e+05,-44.4562
1.025e+05,-44.8875
1.026e+05,-44.5562
1.028e+05,-44.225
1.029e+05,-44.5875
1.030e+05,-44.9469
1.031e+05,-44.7188
1.032e+05,-44.4906
1.034e+05,-45.9969
1.035e+05,-47.5
1.036e+05,-45.425
1.038e+05,-43.35
1.039e+05,-44.5094
1.040e+05,-45.6656
1.041e+05,-45.5281
1.042e+05,-45.3906
1.044e+05,-44.8875
1.045e+05,-44.3813
1.046e+05,-45.4562
1.048e+05,-46.5312
1.049e+05,-44.5938
1.050e+05,-42.6562
1.051e+05,-45.0781
1.052e+05,-47.5
1.054e+05,-45.7406
1.055e+05,-43.9781
1.056e+05,-44.1812
1.058e+05,-44.3813
1.059e+05,-46.2938
1.060e+05,-48.2062
1.061e+05,-45.0125
1.062e+05,-41.8188
1.064e+05,-45.6812
1.065e+05,-49.5406
1.066e+05,-46.5094
1.068e+05,-43.4781
1.069e+05,-44.1844
1.070e+05,-44.8875
1.071e+05,-47.2156
1.072e+05,-49.5406
1.074e+05,-45.6063
1.075e+05,-41.6719
1.076e+05,-46.4438
1.078e+05,-51.2156
1.079e+05,-46.9375
1.080e+05,-42.6562
1.081e+05,-44.5094
1.082e+05,-46.3594
1.084e+05,-47.1
1.085e+05,-47.8375
1.086e+05,-44.9969
1.088e+05,-42.1531
1.089e+05,-48.3219
1.090e+05,-54.4906
1.091e+05,-48.5219
1.092e+05,-42.55
1.094e+05,-45.5094
1.095e+05,-48.4688
1.096e+05,-48.1531
1.098e+05,-47.8375
1.099e+05,-45.0125
1.100e+05,-42.1844
1.101e+05,-46.7
1.102e+05,-51.2156
1.104e+05,-46.8
1.105e+05,-42.3813
1.106e+05,-45.2938
1.108e+05,-48.2062
1.109e+05,-47.0469
1.110e+05,-45.8875
1.111e+05,-44.3625
1.112e+05,-42.8375
1.114e+05,-45.5219
1.115e+05,-48.2062
1.116e+05,-45.1969
1.118e+05,-42.1844
1.119e+05,-44.4031
1.120e+05,-46.6187
1.121e+05,-46.575
1.122e+05,-46.5312
1.124e+05,-45.3781
1.125e+05,-44.225
1.126e+05,-45.8094
1.128e+05,-47.3937
1.129e+05,-45.1156
1.130e+05,-42.8375
1.131e+05,-45.1688
1.132e+05,-47.5
1.134e+05,-46.5844
1.135e+05,-45.6656
1.136e+05,-45.5281
1.138e+05,-45.3906
1.139e+05,-45.2938
1.140e+05,-45.1938
1.141e+05,-45.0719
1.142e+05,-44.9469
1.144e+05,-45.7406
1.145e+05,-46.5312
1.146e+05,-45.9625
1.148e+05,-45.3906
1.149e+05,-45.8344
1.150e+05,-46.2781
1.151e+05,-45.2531
1.152e+05,-44.225
1.154e+05,-44.9469
1.155e+05,-45.6656
1.156e+05,-45.6656
1.158e+05,-45.6656
1.159e+05,-45.7781
1.160e+05,-45.8875
1.161e+05,-46.8625
1.162e+05,-47.8375
1.164e+05,-45.6594
1.165e+05,-43.4781
1.166e+05,-45.4906
1.168e+05,-47.5
1.169e+05,-46.6938
1.170e+05,-45.8875
1.171e+05,-46.2094
1.172e+05,-46.5312
1.174e+05,-47.9531
1.175e+05,-49.3719
1.176e+05,-46.0344
1.178e+05,-42.6938
1.179e+05,-46.0344
1.180e+05,-49.3719
1.181e+05,-46.8
1.182e+05,-44.225
1.184e+05,-45.3781
1.185e+05,-46.5312
1.186e+05,-48.75
1.188e+05,-50.9688
1.189e+05,-46.3937
1.190e+05,-41.8188
1.191e+05,-47.6688
1.192e+05,-53.5187
1.194e+05,-48.5
1.195e+05,-43.4781
1.196e+05,-45.4906
1.198e+05,-47.5
1.199e+05,-49.0063
1.200e+05,-50.5094
1.201e+05,-46.8281
1.202e+05,-43.1469
1.204e+05,-48.8188
1.205e+05,-54.4906
1.206e+05,-48.575
1.208e+05,-42.6562
1.209e+05,-45.025
1.210e+05,-47.3937
1.211e+05,-47.675
1.212e+05,-47.9562
1.214e+05,-45.8062
1.215e+05,-43.6531
1.216e+05,-48.5875
1.218e+05,-53.5187
1.219e+05,-48.4344
1.220e+05,-43.35
1.221e+05,-47.8656
1.222e+05,-52.3813
1.224e+05,-50.8781
1.225e+05,-49.3719
1.226e+05,-46.7
1.228e+05,-44.025
1.229e+05,-48.2031
1.230e+05,-52.3813
1.231e+05,-47.7656
1.232e+05,-43.1469
1.234e+05,-46.2594
1.235e+05,-49.3719
1.236e+05,-48.7906
1.238e+05,-48.2062
1.239e+05,-46.2156
1.240e+05,-44.225
1.241e+05,-46.8844
1.242e+05,-49.5406
1.244e+05,-46.5969
1.245e+05,-43.6531
1.246e+05,-46.5969
1.248e+05,-49.5406
1.249e+05,-48.0375
1.250e+05,-46.5312
1.251e+05,-46.4469
1.252e+05,-46.3594
1.254e+05,-47.2844
1.255e+05,-48.2062
1.256e+05,-46.8
1.258e+05,-45.3906
1.259e+05,-47.4656
1.260e+05,-49.5406
1.261e+05,-47.2437
1.262e+05,-44.9469
1.264e+05,-45.4188
1.265e+05,-45.8875
1.266e+05,-45.1906
1.268e+05,-44.4906
1.269e+05,-45.5125
1.270e+05,-46.5312
1.271e+05,-46.5312
1.272e+05,-46.5312
1.274e+05,-46.2094
1.275e+05,-45.8875
1.276e+05,-46.8625
1.278e+05,-47.8375
1.279e+05,-46.0312
1.280e+05,-44.225
1.281e+05,-46.2156
1.282e+05,-48.2062
1.284e+05,-47.5969
1.285e+05,-46.9875
1.286e+05,-46.6344
1.288e+05,-46.2781
1.289e+05,-47.825
1.290e+05,-49.3719
1.291e+05,-46.425
1.292e+05,-43.4781
1.294e+05,-47.9312
1.295e+05,-52.3813
1.296e+05,-48.6344
1.298e+05,-44.8875
1.299e+05,-45.7531
1.300e+05,-46.6187
1.301e+05,-48.0812
1.302e+05,-49.5406
1.304e+05,-46.5312
1.305e+05,-43.5187
1.306e+05,-47.5
1.308e+05,-51.4781
1.309e+05,-47.9312
1.310e+05,-44.3813
1.311e+05,-46.8781
1.312e+05,-49.3719
