Final Project/12-4/sine output only/sin_FFT.CSV

Model,TBS1052C
Firmware Version,v2015-08-04-prequal4ch70_v1.3

Point Format,Y
Horizontal Units,Hz
Horizontal Scale,62500
Sample Interval,125
Filter Frequency,2e+08
Record Length,5000
Gating,0.0% to 100.0%
Probe Attenuation,1
Vertical Units,dB
Vertical Offset,0
Vertical Scale,20
Label,
FFT-FREQ,FFT-AMPL
0.000e+00,-28.875
1.250e+02,-19.9312
2.500e+02,-10.9875
3.750e+02,-11.9906
5.000e+02,-12.9937
6.250e+02,-24.1938
7.500e+02,-35.3906
8.750e+02,-37.5469
1.000e+03,-39.7
1.125e+03,-46.6094
1.250e+03,-53.5187
1.375e+03,-51.5312
1.500e+03,-49.5406
1.625e+03,-51.5312
1.750e+03,-53.5187
1.875e+03,-55.5094
2.000e+03,-57.5
2.125e+03,-52.6688
2.250e+03,-47.8375
2.375e+03,-50.9094
2.500e+03,-53.9781
2.625e+03,-55.2563
2.750e+03,-56.5312
2.875e+03,-55.5125
3.000e+03,-54.4906
3.125e+03,-55.5125
3.250e+03,-56.5312
3.375e+03,-54.4562
3.500e+03,-52.3813
3.625e+03,-53.4375
3.750e+03,-54.4906
3.875e+03,-55.5125
4.000e+03,-56.5312
4.125e+03,-57.0156
4.250e+03,-57.5
4.375e+03,-54.0063
4.500e+03,-50.5094
4.625e+03,-55.5094
4.750e+03,-60.5094
4.875e+03,-58.5219
5.000e+03,-56.5312
5.125e+03,-55.025
5.250e+03,-53.5187
5.375e+03,-55.025
5.500e+03,-56.5312
5.625e+03,-54.4562
5.750e+03,-52.3813
5.875e+03,-52.95
6.000e+03,-53.5187
6.125e+03,-55.025
6.250e+03,-56.5312
6.375e+03,-56.5312
6.500e+03,-56.5312
6.625e+03,-56.5312
6.750e+03,-56.5312
6.875e+03,-53.875
7.000e+03,-51.2156
7.125e+03,-54.3594
7.250e+03,-57.5
7.375e+03,-55.9969
7.500e+03,-54.4906
7.625e+03,-54.4906
7.750e+03,-54.4906
7.875e+03,-54.4906
8.000e+03,-54.4906
8.125e+03,-52.8531
8.250e+03,-51.2156
8.375e+03,-55.8625
8.500e+03,-60.5094
8.625e+03,-58.5219
8.750e+03,-56.5312
8.875e+03,-55.025
9.000e+03,-53.5187
9.125e+03,-52.95
9.250e+03,-52.3813
9.375e+03,-57.95
9.500e+03,-63.5187
9.625e+03,-56.2094
9.750e+03,-48.8969
9.875e+03,-53.2
1.000e+04,-57.5
1.012e+04,-57.0156
1.025e+04,-56.5312
1.038e+04,-55.5125
1.050e+04,-54.4906
1.062e+04,-57.5
1.075e+04,-60.5094
1.088e+04,-57.0156
1.100e+04,-53.5187
1.112e+04,-53.75
1.125e+04,-53.9781
1.138e+04,-53.75
1.150e+04,-53.5187
1.162e+04,-55.5094
1.175e+04,-57.5
1.188e+04,-54.2344
1.200e+04,-50.9688
1.212e+04,-53.75
1.225e+04,-56.5312
1.238e+04,-56.5312
1.250e+04,-56.5312
1.262e+04,-56.5312
1.275e+04,-56.5312
1.288e+04,-55.5125
1.300e+04,-54.4906
1.312e+04,-57.5
1.325e+04,-60.5094
1.338e+04,-55.8625
1.350e+04,-51.2156
1.362e+04,-54.3594
1.375e+04,-57.5
1.388e+04,-55.9969
1.400e+04,-54.4906
1.412e+04,-55.9969
1.425e+04,-57.5
1.438e+04,-57.0156
1.450e+04,-56.5312
1.462e+04,-56.5312
1.475e+04,-56.5312
1.488e+04,-55.025
1.500e+04,-53.5187
1.512e+04,-57.0156
1.525e+04,-60.5094
1.538e+04,-60.5094
1.550e+04,-60.5094
1.562e+04,-58.5219
1.575e+04,-56.5312
1.588e+04,-57.0156
1.600e+04,-57.5
1.612e+04,-55.5094
1.625e+04,-53.5187
1.638e+04,-55.5094
1.650e+04,-57.5
1.662e+04,-59.0063
1.675e+04,-60.5094
1.688e+04,-58.5219
1.700e+04,-56.5312
1.712e+04,-56.5312
1.725e+04,-56.5312
1.738e+04,-56.5312
1.750e+04,-56.5312
1.762e+04,-56.5312
1.775e+04,-56.5312
1.788e+04,-58.5219
1.800e+04,-60.5094
1.812e+04,-57.0156
1.825e+04,-53.5187
1.838e+04,-53.75
1.850e+04,-53.9781
1.862e+04,-58.75
1.875e+04,-63.5187
1.888e+04,-55.2531
1.900e+04,-46.9875
1.912e+04,-55.2531
1.925e+04,-63.5187
1.938e+04,-57.95
1.950e+04,-52.3813
1.962e+04,-53.1812
1.975e+04,-53.9781
1.988e+04,-57.2438
2.000e+04,-60.5094
2.012e+04,-60.5094
2.025e+04,-60.5094
2.038e+04,-57.2438
2.050e+04,-53.9781
2.062e+04,-55.2563
2.075e+04,-56.5312
2.088e+04,-58.5219
2.100e+04,-60.5094
2.112e+04,-58.5219
2.125e+04,-56.5312
2.138e+04,-58.5219
2.150e+04,-60.5094
2.162e+04,-58.5219
2.175e+04,-56.5312
2.188e+04,-57.0156
2.200e+04,-57.5
2.212e+04,-57.0156
2.225e+04,-56.5312
2.238e+04,-58.5219
2.250e+04,-60.5094
2.262e+04,-58.5219
2.275e+04,-56.5312
2.288e+04,-58.5219
2.300e+04,-60.5094
2.312e+04,-60.5094
2.325e+04,-60.5094
2.338e+04,-58.5219
2.350e+04,-56.5312
2.362e+04,-56.5312
2.375e+04,-56.5312
2.388e+04,-58.5219
2.400e+04,-60.5094
2.412e+04,-60.5094
2.425e+04,-60.5094
2.438e+04,-60.5094
2.450e+04,-60.5094
2.462e+04,-60.5094
2.475e+04,-60.5094
2.488e+04,-60.5094
2.500e+04,-60.5094
2.512e+04,-58.5219
2.525e+04,-56.5312
2.538e+04,-58.5219
2.550e+04,-60.5094
2.562e+04,-60.5094
2.575e+04,-60.5094
2.588e+04,-60.5094
2.600e+04,-60.5094
2.612e+04,-60.5094
2.625e+04,-60.5094
2.638e+04,-57.5
2.650e+04,-54.4906
2.662e+04,-55.5125
2.675e+04,-56.5312
2.688e+04,-58.5219
2.700e+04,-60.5094
2.712e+04,-57.5
2.725e+04,-54.4906
2.738e+04,-55.5125
2.750e+04,-56.5312
2.762e+04,-58.5219
2.775e+04,-60.5094
2.788e+04,-57.5
2.800e+04,-54.4906
2.812e+04,-55.5125
2.825e+04,-56.5312
2.838e+04,-58.5219
2.850e+04,-60.5094
2.862e+04,-62.0156
2.875e+04,-63.5187
2.888e+04,-60.025
2.900e+04,-56.5312
2.912e+04,-56.5312
2.925e+04,-56.5312
2.938e+04,-58.5219
2.950e+04,-60.5094
2.962e+04,-58.5219
2.975e+04,-56.5312
2.988e+04,-56.5312
3.000e+04,-56.5312
3.012e+04,-56.5312
3.025e+04,-56.5312
3.038e+04,-58.5219
3.050e+04,-60.5094
3.062e+04,-58.5219
3.075e+04,-56.5312
3.088e+04,-58.5219
3.100e+04,-60.5094
3.112e+04,-60.5094
3.125e+04,-60.5094
3.138e+04,-58.5219
3.150e+04,-56.5312
3.162e+04,-56.5312
3.175e+04,-56.5312
3.188e+04,-55.025
3.200e+04,-53.5187
3.212e+04,-55.025
3.225e+04,-56.5312
3.238e+04,-55.5125
3.250e+04,-54.4906
3.262e+04,-55.5125
3.275e+04,-56.5312
3.288e+04,-55.5125
3.300e+04,-54.4906
3.312e+04,-57.5
3.325e+04,-60.5094
3.338e+04,-58.5219
3.350e+04,-56.5312
3.362e+04,-55.5125
3.375e+04,-54.4906
3.388e+04,-55.9969
3.400e+04,-57.5
3.412e+04,-57.0156
3.425e+04,-56.5312
3.438e+04,-56.5312
3.450e+04,-56.5312
3.462e+04,-58.5219
3.475e+04,-60.5094
3.488e+04,-58.5219
3.500e+04,-56.5312
3.512e+04,-55.025
3.525e+04,-53.5187
3.538e+04,-53.5187
3.550e+04,-53.5187
3.562e+04,-55.025
3.575e+04,-56.5312
3.588e+04,-58.5219
3.600e+04,-60.5094
3.612e+04,-60.5094
3.625e+04,-60.5094
3.638e+04,-60.5094
3.650e+04,-60.5094
3.662e+04,-58.5219
3.675e+04,-56.5312
3.688e+04,-58.5219
3.700e+04,-60.5094
3.712e+04,-58.5219
3.725e+04,-56.5312
3.738e+04,-56.5312
3.750e+04,-56.5312
3.762e+04,-56.5312
3.775e+04,-56.5312
3.788e+04,-56.5312
3.800e+04,-56.5312
3.812e+04,-56.5312
3.825e+04,-56.5312
3.838e+04,-56.5312
3.850e+04,-56.5312
3.862e+04,-56.5312
3.875e+04,-56.5312
3.888e+04,-58.5219
3.900e+04,-60.5094
3.912e+04,-58.5219
3.925e+04,-56.5312
3.938e+04,-55.5125
3.950e+04,-54.4906
3.962e+04,-59.0063
3.975e+04,-63.5187
3.988e+04,-57.95
4.000e+04,-52.3813
4.012e+04,-56.4469
4.025e+04,-60.5094
4.038e+04,-60.5094
4.050e+04,-60.5094
4.062e+04,-60.5094
4.075e+04,-60.5094
4.088e+04,-57.5
4.100e+04,-54.4906
4.112e+04,-57.5
4.125e+04,-60.5094
4.138e+04,-60.5094
4.150e+04,-60.5094
4.162e+04,-57.5
4.175e+04,-54.4906
4.188e+04,-57.5
4.200e+04,-60.5094
4.212e+04,-57.0156
4.225e+04,-53.5187
4.238e+04,-58.5187
4.250e+04,-63.5187
4.262e+04,-59.0063
4.275e+04,-54.4906
4.288e+04,-54.4906
4.300e+04,-54.4906
4.312e+04,-55.5125
4.325e+04,-56.5312
4.338e+04,-58.5219
4.350e+04,-60.5094
4.362e+04,-57.5
4.375e+04,-54.4906
4.388e+04,-55.5125
4.400e+04,-56.5312
4.412e+04,-55.5125
4.425e+04,-54.4906
4.438e+04,-55.5125
4.450e+04,-56.5312
4.462e+04,-55.5125
4.475e+04,-54.4906
4.488e+04,-55.5125
4.500e+04,-56.5312
4.512e+04,-58.5219
4.525e+04,-60.5094
4.538e+04,-58.5219
4.550e+04,-56.5312
4.562e+04,-55.5125
4.575e+04,-54.4906
4.588e+04,-57.5
4.600e+04,-60.5094
4.612e+04,-60.5094
4.625e+04,-60.5094
4.638e+04,-58.5219
4.650e+04,-56.5312
4.662e+04,-56.5312
4.675e+04,-56.5312
4.688e+04,-58.5219
4.700e+04,-60.5094
4.712e+04,-58.5219
4.725e+04,-56.5312
4.738e+04,-58.5219
4.750e+04,-60.5094
4.762e+04,-57.5
4.775e+04,-54.4906
4.788e+04,-57.5
4.800e+04,-60.5094
4.812e+04,-57.5
4.825e+04,-54.4906
4.838e+04,-57.5
4.850e+04,-60.5094
4.862e+04,-57.5
4.875e+04,-54.4906
4.888e+04,-57.5
4.900e+04,-60.5094
4.912e+04,-57.5
4.925e+04,-54.4906
4.938e+04,-57.5
4.950e+04,-60.5094
4.962e+04,-58.5219
4.975e+04,-56.5312
4.988e+04,-58.5219
5.000e+04,-60.5094
5.012e+04,-57.5
5.025e+04,-54.4906
5.038e+04,-57.5
5.050e+04,-60.5094
5.062e+04,-62.0156
5.075e+04,-63.5187
5.088e+04,-62.0156
5.100e+04,-60.5094
5.112e+04,-60.5094
5.125e+04,-60.5094
5.138e+04,-57.5
5.150e+04,-54.4906
5.162e+04,-54.4906
5.175e+04,-54.4906
5.188e+04,-57.5
5.200e+04,-60.5094
5.212e+04,-58.5219
5.225e+04,-56.5312
5.238e+04,-58.5219
5.250e+04,-60.5094
5.262e+04,-60.5094
5.275e+04,-60.5094
5.288e+04,-60.5094
5.300e+04,-60.5094
5.312e+04,-60.5094
5.325e+04,-60.5094
5.338e+04,-60.5094
5.350e+04,-60.5094
5.362e+04,-60.5094
5.375e+04,-60.5094
5.388e+04,-60.5094
5.400e+04,-60.5094
5.412e+04,-58.5219
5.425e+04,-56.5312
5.438e+04,-56.5312
5.450e+04,-56.5312
5.462e+04,-60.025
5.475e+04,-63.5187
5.488e+04,-62.0156
5.500e+04,-60.5094
5.512e+04,-58.5219
5.525e+04,-56.5312
5.538e+04,-56.5312
5.550e+04,-56.5312
5.562e+04,-56.5312
5.575e+04,-56.5312
5.588e+04,-58.5219
5.600e+04,-60.5094
5.612e+04,-58.5219
5.625e+04,-56.5312
5.638e+04,-58.5219
5.650e+04,-60.5094
5.662e+04,-58.5219
5.675e+04,-56.5312
5.688e+04,-60.025
5.700e+04,-63.5187
5.712e+04,-60.025
5.725e+04,-56.5312
5.738e+04,-58.5219
5.750e+04,-60.5094
5.762e+04,-58.5219
5.775e+04,-56.5312
5.788e+04,-58.5219
5.800e+04,-60.5094
5.812e+04,-60.5094
5.825e+04,-60.5094
5.838e+04,-60.5094
5.850e+04,-60.5094
5.862e+04,-58.5219
5.875e+04,-56.5312
5.888e+04,-58.5219
5.900e+04,-60.5094
5.912e+04,-58.5219
5.925e+04,-56.5312
5.938e+04,-58.5219
5.950e+04,-60.5094
5.962e+04,-58.5219
5.975e+04,-56.5312
5.988e+04,-58.5219
6.000e+04,-60.5094
6.012e+04,-58.5219
6.025e+04,-56.5312
6.038e+04,-56.5312
6.050e+04,-56.5312
6.062e+04,-56.5312
6.075e+04,-56.5312
6.088e+04,-58.5219
6.100e+04,-60.5094
6.112e+04,-60.5094
6.125e+04,-60.5094
6.138e+04,-60.5094
6.150e+04,-60.5094
6.162e+04,-58.5219
6.175e+04,-56.5312
6.188e+04,-58.5219
6.200e+04,-60.5094
6.212e+04,-58.5219
6.225e+04,-56.5312
6.238e+04,-58.5219
6.250e+04,-60.5094
6.262e+04,-57.5
6.275e+04,-54.4906
6.288e+04,-59.0063
6.300e+04,-63.5187
6.312e+04,-62.0156
6.325e+04,-60.5094
6.338e+04,-60.5094
6.350e+04,-60.5094
6.362e+04,-58.5219
6.375e+04,-56.5312
6.388e+04,-58.5219
6.400e+04,-60.5094
6.412e+04,-60.5094
6.425e+04,-60.5094
6.438e+04,-60.5094
6.450e+04,-60.5094
6.462e+04,-60.5094
6.475e+04,-60.5094
6.488e+04,-60.5094
6.500e+04,-60.5094
6.512e+04,-58.5219
6.525e+04,-56.5312
6.538e+04,-58.5219
6.550e+04,-60.5094
6.562e+04,-57.5
6.575e+04,-54.4906
6.588e+04,-57.5
6.600e+04,-60.5094
6.612e+04,-57.5
6.625e+04,-54.4906
6.638e+04,-57.5
6.650e+04,-60.5094
6.662e+04,-57.5
6.675e+04,-54.4906
6.688e+04,-55.5125
6.700e+04,-56.5312
6.712e+04,-55.5125
6.725e+04,-54.4906
6.738e+04,-59.0063
6.750e+04,-63.5187
6.762e+04,-59.0063
6.775e+04,-54.4906
6.788e+04,-57.5
6.800e+04,-60.5094
6.812e+04,-60.5094
6.825e+04,-60.5094
6.838e+04,-60.5094
6.850e+04,-60.5094
6.862e+04,-57.5
6.875e+04,-54.4906
6.888e+04,-57.5
6.900e+04,-60.5094
6.912e+04,-60.5094
6.925e+04,-60.5094
6.938e+04,-58.5219
6.950e+04,-56.5312
6.962e+04,-58.5219
6.975e+04,-60.5094
6.988e+04,-60.5094
7.000e+04,-60.5094
7.012e+04,-60.5094
7.025e+04,-60.5094
7.038e+04,-58.5219
7.050e+04,-56.5312
7.062e+04,-58.5219
7.075e+04,-60.5094
7.088e+04,-60.5094
7.100e+04,-60.5094
7.112e+04,-58.5219
7.125e+04,-56.5312
7.138e+04,-58.5219
7.150e+04,-60.5094
7.162e+04,-56.4469
7.175e+04,-52.3813
7.188e+04,-56.4469
7.200e+04,-60.5094
7.212e+04,-58.5219
7.225e+04,-56.5312
7.238e+04,-58.5219
7.250e+04,-60.5094
7.262e+04,-57.5
7.275e+04,-54.4906
7.288e+04,-55.5125
7.300e+04,-56.5312
7.312e+04,-56.5312
7.325e+04,-56.5312
7.338e+04,-56.5312
7.350e+04,-56.5312
7.362e+04,-58.5219
7.375e+04,-60.5094
7.388e+04,-57.5
7.400e+04,-54.4906
7.412e+04,-55.5125
7.425e+04,-56.5312
7.438e+04,-56.5312
7.450e+04,-56.5312
7.462e+04,-58.5219
7.475e+04,-60.5094
7.488e+04,-57.5
7.500e+04,-54.4906
7.512e+04,-59.0063
7.525e+04,-63.5187
7.538e+04,-59.0063
7.550e+04,-54.4906
7.562e+04,-55.5125
7.575e+04,-56.5312
7.588e+04,-58.5219
7.600e+04,-60.5094
7.612e+04,-58.5219
7.625e+04,-56.5312
7.638e+04,-58.5219
7.650e+04,-60.5094
7.662e+04,-58.5219
7.675e+04,-56.5312
7.688e+04,-55.5125
7.700e+04,-54.4906
7.712e+04,-57.5
7.725e+04,-60.5094
7.738e+04,-57.5
7.750e+04,-54.4906
7.762e+04,-55.5125
7.775e+04,-56.5312
7.788e+04,-58.5219
7.800e+04,-60.5094
7.812e+04,-60.5094
7.825e+04,-60.5094
7.838e+04,-60.5094
7.850e+04,-60.5094
7.862e+04,-58.5219
7.875e+04,-56.5312
7.888e+04,-58.5219
7.900e+04,-60.5094
7.912e+04,-60.5094
7.925e+04,-60.5094
7.938e+04,-60.5094
7.950e+04,-60.5094
7.962e+04,-60.5094
7.975e+04,-60.5094
7.988e+04,-58.5219
8.000e+04,-56.5312
8.012e+04,-58.5219
8.025e+04,-60.5094
8.038e+04,-62.0156
8.050e+04,-63.5187
8.062e+04,-60.025
8.075e+04,-56.5312
8.088e+04,-58.5219
8.100e+04,-60.5094
8.112e+04,-58.5219
8.125e+04,-56.5312
8.138e+04,-56.5312
8.150e+04,-56.5312
8.162e+04,-56.5312
8.175e+04,-56.5312
8.188e+04,-58.5219
8.200e+04,-60.5094
8.212e+04,-60.5094
8.225e+04,-60.5094
8.238e+04,-60.5094
8.250e+04,-60.5094
8.262e+04,-60.5094
8.275e+04,-60.5094
8.288e+04,-62.0156
8.300e+04,-63.5187
8.312e+04,-60.025
8.325e+04,-56.5312
8.338e+04,-56.5312
8.350e+04,-56.5312
8.362e+04,-58.5219
8.375e+04,-60.5094
8.388e+04,-60.5094
8.400e+04,-60.5094
8.412e+04,-57.5
8.425e+04,-54.4906
8.438e+04,-59.0063
8.450e+04,-63.5187
8.462e+04,-60.025
8.475e+04,-56.5312
8.488e+04,-58.5219
8.500e+04,-60.5094
8.512e+04,-60.5094
8.525e+04,-60.5094
8.538e+04,-60.5094
8.550e+04,-60.5094
8.562e+04,-60.5094
8.575e+04,-60.5094
8.588e+04,-60.5094
8.600e+04,-60.5094
8.612e+04,-60.5094
8.625e+04,-60.5094
8.638e+04,-60.5094
8.650e+04,-60.5094
8.662e+04,-60.5094
8.675e+04,-60.5094
8.688e+04,-58.5219
8.700e+04,-56.5312
8.712e+04,-56.5312
8.725e+04,-56.5312
8.738e+04,-60.025
8.750e+04,-63.5187
8.762e+04,-62.0156
8.775e+04,-60.5094
8.788e+04,-60.5094
8.800e+04,-60.5094
8.812e+04,-60.5094
8.825e+04,-60.5094
8.838e+04,-60.5094
8.850e+04,-60.5094
8.862e+04,-58.5219
8.875e+04,-56.5312
8.888e+04,-58.5219
8.900e+04,-60.5094
8.912e+04,-58.5219
8.925e+04,-56.5312
8.938e+04,-58.5219
8.950e+04,-60.5094
8.962e+04,-60.5094
8.975e+04,-60.5094
8.988e+04,-62.0156
9.000e+04,-63.5187
9.012e+04,-60.025
9.025e+04,-56.5312
9.038e+04,-58.5219
9.050e+04,-60.5094
9.062e+04,-57.5
9.075e+04,-54.4906
9.088e+04,-57.5
9.100e+04,-60.5094
9.112e+04,-58.5219
9.125e+04,-56.5312
9.138e+04,-58.5219
9.150e+04,-60.5094
9.162e+04,-60.5094
9.175e+04,-60.5094
9.188e+04,-60.5094
9.200e+04,-60.5094
9.212e+04,-58.5219
9.225e+04,-56.5312
9.238e+04,-58.5219
9.250e+04,-60.5094
9.262e+04,-60.5094
9.275e+04,-60.5094
9.288e+04,-58.5219
9.300e+04,-56.5312
9.312e+04,-56.5312
9.325e+04,-56.5312
9.338e+04,-56.5312
9.350e+04,-56.5312
9.362e+04,-56.5312
9.375e+04,-56.5312
9.388e+04,-55.5125
9.400e+04,-54.4906
9.412e+04,-57.5
9.425e+04,-60.5094
9.438e+04,-60.5094
9.450e+04,-60.5094
9.462e+04,-60.5094
9.475e+04,-60.5094
9.488e+04,-60.5094
9.500e+04,-60.5094
9.512e+04,-58.5219
9.525e+04,-56.5312
9.538e+04,-58.5219
9.550e+04,-60.5094
9.562e+04,-59.0063
9.575e+04,-57.5
9.588e+04,-57.0156
9.600e+04,-56.5312
9.612e+04,-58.5219
9.625e+04,-60.5094
9.638e+04,-58.5219
9.650e+04,-56.5312
9.662e+04,-58.5219
9.675e+04,-60.5094
9.688e+04,-60.5094
9.700e+04,-60.5094
9.712e+04,-58.5219
9.725e+04,-56.5312
9.738e+04,-58.5219
9.750e+04,-60.5094
9.762e+04,-60.5094
9.775e+04,-60.5094
9.788e+04,-58.5219
9.800e+04,-56.5312
9.812e+04,-56.5312
9.825e+04,-56.5312
9.838e+04,-60.025
9.850e+04,-63.5187
9.862e+04,-62.0156
9.875e+04,-60.5094
9.888e+04,-60.5094
9.900e+04,-60.5094
9.912e+04,-60.5094
9.925e+04,-60.5094
9.938e+04,-58.5219
9.950e+04,-56.5312
9.962e+04,-58.5219
9.975e+04,-60.5094
9.988e+04,-60.5094
1.000e+05,-60.5094
1.001e+05,-60.5094
1.002e+05,-60.5094
1.004e+05,-60.5094
1.005e+05,-60.5094
1.006e+05,-60.5094
1.008e+05,-60.5094
1.009e+05,-58.5219
1.010e+05,-56.5312
1.011e+05,-55.5125
1.012e+05,-54.4906
1.014e+05,-57.5
1.015e+05,-60.5094
1.016e+05,-58.5219
1.018e+05,-56.5312
1.019e+05,-60.025
1.020e+05,-63.5187
1.021e+05,-62.0156
1.022e+05,-60.5094
1.024e+05,-60.5094
1.025e+05,-60.5094
1.026e+05,-58.5219
1.028e+05,-56.5312
1.029e+05,-58.5219
1.030e+05,-60.5094
1.031e+05,-60.5094
1.032e+05,-60.5094
1.034e+05,-58.5219
1.035e+05,-56.5312
1.036e+05,-58.5219
1.038e+05,-60.5094
1.039e+05,-60.5094
1.040e+05,-60.5094
1.041e+05,-62.0156
1.042e+05,-63.5187
1.044e+05,-62.0156
1.045e+05,-60.5094
1.046e+05,-60.5094
1.048e+05,-60.5094
1.049e+05,-62.0156
1.050e+05,-63.5187
1.051e+05,-63.5187
1.052e+05,-63.5187
1.054e+05,-62.0156
1.055e+05,-60.5094
1.056e+05,-57.5
1.058e+05,-54.4906
1.059e+05,-59.0063
1.060e+05,-63.5187
1.061e+05,-60.025
1.062e+05,-56.5312
1.064e+05,-60.025
1.065e+05,-63.5187
1.066e+05,-60.025
1.068e+05,-56.5312
1.069e+05,-58.5219
1.070e+05,-60.5094
1.071e+05,-60.5094
1.072e+05,-60.5094
1.074e+05,-60.5094
1.075e+05,-60.5094
1.076e+05,-57.5
1.078e+05,-54.4906
1.079e+05,-55.5125
1.080e+05,-56.5312
1.081e+05,-58.5219
1.082e+05,-60.5094
1.084e+05,-60.5094
1.085e+05,-60.5094
1.086e+05,-60.5094
1.088e+05,-60.5094
1.089e+05,-60.5094
1.090e+05,-60.5094
1.091e+05,-62.0156
1.092e+05,-63.5187
1.094e+05,-63.5187
1.095e+05,-63.5187
1.096e+05,-62.0156
1.098e+05,-60.5094
1.099e+05,-60.5094
1.100e+05,-60.5094
1.101e+05,-60.5094
1.102e+05,-60.5094
1.104e+05,-60.5094
1.105e+05,-60.5094
1.106e+05,-59.0063
1.108e+05,-57.5
1.109e+05,-59.0063
1.110e+05,-60.5094
1.111e+05,-60.5094
1.112e+05,-60.5094
1.114e+05,-57.5
1.115e+05,-54.4906
1.116e+05,-57.5
1.118e+05,-60.5094
1.119e+05,-59.0063
1.120e+05,-57.5
1.121e+05,-59.0063
1.122e+05,-60.5094
1.124e+05,-60.5094
1.125e+05,-60.5094
1.126e+05,-60.5094
1.128e+05,-60.5094
1.129e+05,-60.5094
1.130e+05,-60.5094
1.131e+05,-58.5219
1.132e+05,-56.5312
1.134e+05,-58.5219
1.135e+05,-60.5094
1.136e+05,-58.5219
1.138e+05,-56.5312
1.139e+05,-60.025
1.140e+05,-63.5187
1.141e+05,-59.0063
1.142e+05,-54.4906
1.144e+05,-57.5
1.145e+05,-60.5094
1.146e+05,-60.5094
1.148e+05,-60.5094
1.149e+05,-58.5219
1.150e+05,-56.5312
1.151e+05,-58.5219
1.152e+05,-60.5094
1.154e+05,-60.5094
1.155e+05,-60.5094
1.156e+05,-60.5094
1.158e+05,-60.5094
1.159e+05,-57.5
1.160e+05,-54.4906
1.161e+05,-57.5
1.162e+05,-60.5094
1.164e+05,-60.5094
1.165e+05,-60.5094
1.166e+05,-60.5094
1.168e+05,-60.5094
1.169e+05,-60.5094
1.170e+05,-60.5094
1.171e+05,-59.0063
1.172e+05,-57.5
1.174e+05,-60.5094
1.175e+05,-63.5187
1.176e+05,-62.0156
1.178e+05,-60.5094
1.179e+05,-60.5094
1.180e+05,-60.5094
1.181e+05,-60.5094
1.182e+05,-60.5094
1.184e+05,-60.5094
1.185e+05,-60.5094
1.186e+05,-60.5094
1.188e+05,-60.5094
1.189e+05,-60.5094
1.190e+05,-60.5094
1.191e+05,-58.5219
1.192e+05,-56.5312
1.194e+05,-60.025
1.195e+05,-63.5187
1.196e+05,-62.0156
1.198e+05,-60.5094
1.199e+05,-60.5094
1.200e+05,-60.5094
1.201e+05,-60.5094
1.202e+05,-60.5094
1.204e+05,-60.5094
1.205e+05,-60.5094
1.206e+05,-60.5094
1.208e+05,-60.5094
1.209e+05,-60.5094
1.210e+05,-60.5094
1.211e+05,-60.5094
1.212e+05,-60.5094
1.214e+05,-60.5094
1.215e+05,-60.5094
1.216e+05,-60.5094
1.218e+05,-60.5094
1.219e+05,-62.0156
1.220e+05,-63.5187
1.221e+05,-62.0156
1.222e+05,-60.5094
1.224e+05,-62.0156
1.225e+05,-63.5187
1.226e+05,-62.0156
1.228e+05,-60.5094
1.229e+05,-60.5094
1.230e+05,-60.5094
1.231e+05,-60.5094
1.232e+05,-60.5094
1.234e+05,-60.5094
1.235e+05,-60.5094
1.236e+05,-60.5094
1.238e+05,-60.5094
1.239e+05,-59.0063
1.240e+05,-57.5
1.241e+05,-59.0063
1.242e+05,-60.5094
1.244e+05,-60.5094
1.245e+05,-60.5094
1.246e+05,-58.5219
1.248e+05,-56.5312
1.249e+05,-58.5219
1.250e+05,-60.5094
1.251e+05,-62.0156
1.252e+05,-63.5187
1.254e+05,-62.0156
1.255e+05,-60.5094
1.256e+05,-58.5219
1.258e+05,-56.5312
1.259e+05,-58.5219
1.260e+05,-60.5094
1.261e+05,-60.5094
1.262e+05,-60.5094
1.264e+05,-60.5094
1.265e+05,-60.5094
1.266e+05,-60.5094
1.268e+05,-60.5094
1.269e+05,-60.5094
1.270e+05,-60.5094
1.271e+05,-60.5094
1.272e+05,-60.5094
1.274e+05,-60.5094
1.275e+05,-60.5094
1.276e+05,-60.5094
1.278e+05,-60.5094
1.279e+05,-60.5094
1.280e+05,-60.5094
1.281e+05,-60.5094
1.282e+05,-60.5094
1.284e+05,-60.5094
1.285e+05,-60.5094
1.286e+05,-62.0156
1.288e+05,-63.5187
1.289e+05,-60.025
1.290e+05,-56.5312
1.291e+05,-58.5219
1.292e+05,-60.5094
1.294e+05,-60.5094
1.295e+05,-60.5094
1.296e+05,-60.5094
1.298e+05,-60.5094
1.299e+05,-60.5094
1.300e+05,-60.5094
1.301e+05,-62.0156
1.302e+05,-63.5187
1.304e+05,-63.5187
1.305e+05,-63.5187
1.306e+05,-60.5094
1.308e+05,-57.5
1.309e+05,-59.0063
1.310e+05,-60.5094
1.311e+05,-60.5094
