Final Project/12-4/sine output only/sine_18V_FFT.CSV

Model,TBS1052C
Firmware Version,v2015-08-04-prequal4ch70_v1.3

Point Format,Y
Horizontal Units,Hz
Horizontal Scale,1562.5
Sample Interval,12.5
Filter Frequency,2e+08
Record Length,1250
Gating,0.0% to 100.0%
Probe Attenuation,1
Vertical Units,dB
Vertical Offset,0
Vertical Scale,20
Label,
FFT-FREQ,FFT-AMPL
0.000e+00,-7.81562
1.250e+01,5.49688
2.500e+01,18.8094
3.750e+01,24.1844
5.000e+01,29.5625
6.250e+01,28.5344
7.500e+01,27.5094
8.750e+01,18.6469
1.000e+02,9.7875
1.125e+02,1.32812
1.250e+02,-7.12812
1.375e+02,3.94688
1.500e+02,15.025
1.625e+02,17.7906
1.750e+02,20.5594
1.875e+02,17.4656
2.000e+02,14.375
2.125e+02,4.66875
2.250e+02,-5.0375
2.375e+02,-4.4375
2.500e+02,-3.8375
2.625e+02,5.04063
2.750e+02,13.9188
2.875e+02,14.6063
3.000e+02,15.2969
3.125e+02,9.9375
3.250e+02,4.57812
3.375e+02,-0.29375
3.500e+02,-5.1625
3.625e+02,-1.3
3.750e+02,2.56563
3.875e+02,7.66875
4.000e+02,12.7719
4.125e+02,11.4406
4.250e+02,10.1125
4.375e+02,3.15938
4.500e+02,-3.79375
4.625e+02,-5.28437
4.750e+02,-6.775
4.875e+02,-0.434375
5.000e+02,5.90938
5.125e+02,8.37813
5.250e+02,10.8469
5.375e+02,7.63125
5.500e+02,4.41875
5.625e+02,-0.415625
5.750e+02,-5.25
5.875e+02,-6.18437
6.000e+02,-7.11875
6.125e+02,0.075
6.250e+02,7.26875
6.375e+02,7.65625
6.500e+02,8.04375
6.625e+02,3.0125
6.750e+02,-2.01562
6.875e+02,-3.31562
7.000e+02,-4.61563
7.125e+02,-3.23438
7.250e+02,-1.85
7.375e+02,2.74688
7.500e+02,7.34688
7.625e+02,5.84375
7.750e+02,4.34063
7.875e+02,-0.634375
8.000e+02,-5.60938
8.125e+02,-6.43125
8.250e+02,-7.25
8.375e+02,-2.74375
8.500e+02,1.76562
8.625e+02,4.00938
8.750e+02,6.25625
8.875e+02,2.74063
9.000e+02,-0.775
9.125e+02,-2.82812
9.250e+02,-4.87812
9.375e+02,-7.09375
9.500e+02,-9.30625
9.625e+02,-2.80937
9.750e+02,3.6875
9.875e+02,3.72813
1.000e+03,3.77188
1.012e+03,-0.503125
1.025e+03,-4.775
1.038e+03,-5.275
1.050e+03,-5.77188
1.062e+03,-5.24375
1.075e+03,-4.71562
1.088e+03,-0.321875
1.100e+03,4.07188
1.112e+03,2.125
1.125e+03,0.18125
1.138e+03,-2.8875
1.150e+03,-5.95625
1.162e+03,-6.65312
1.175e+03,-7.35
1.188e+03,-4
1.200e+03,-0.646875
1.212e+03,1.02188
1.225e+03,2.69375
1.238e+03,-0.421875
1.250e+03,-3.53437
1.262e+03,-4.38125
1.275e+03,-5.225
1.288e+03,-7.33438
1.300e+03,-9.44062
1.312e+03,-4.22812
1.325e+03,0.984375
1.338e+03,0.79375
1.350e+03,0.603125
1.362e+03,-2.96875
1.375e+03,-6.54062
1.388e+03,-5.95938
1.400e+03,-5.375
1.412e+03,-5.85312
1.425e+03,-6.33125
1.438e+03,-2.57187
1.450e+03,1.19063
1.462e+03,-0.75
1.475e+03,-2.6875
1.488e+03,-4.29062
1.500e+03,-5.89375
1.512e+03,-6.94062
1.525e+03,-7.9875
1.538e+03,-5.59687
1.550e+03,-3.20625
1.562e+03,-1.49062
1.575e+03,0.228125
1.588e+03,-2.98438
1.600e+03,-6.19375
1.612e+03,-5.6375
1.625e+03,-5.07812
1.638e+03,-8.10625
1.650e+03,-11.1344
1.662e+03,-6.04688
1.675e+03,-0.95625
1.688e+03,-1.59062
1.700e+03,-2.22187
1.712e+03,-4.50937
1.725e+03,-6.79688
1.738e+03,-6.6375
1.750e+03,-6.47812
1.762e+03,-7.29062
1.775e+03,-8.1
1.788e+03,-4.50625
1.800e+03,-0.9125
1.812e+03,-3.04375
1.825e+03,-5.17188
1.838e+03,-5.59687
1.850e+03,-6.02188
1.862e+03,-7.24687
1.875e+03,-8.47187
1.888e+03,-6.50312
1.900e+03,-4.53125
1.912e+03,-3.54375
1.925e+03,-2.55313
1.938e+03,-5.01875
1.950e+03,-7.48438
1.962e+03,-6.46562
1.975e+03,-5.44375
1.988e+03,-8.4
2.000e+03,-11.3531
2.012e+03,-7.37812
2.025e+03,-3.40312
2.038e+03,-3.93125
2.050e+03,-4.45625
2.062e+03,-5.91875
2.075e+03,-7.38125
2.088e+03,-6.73438
2.100e+03,-6.08438
2.112e+03,-7.9125
2.125e+03,-9.74062
2.138e+03,-6.40937
2.150e+03,-3.07812
2.162e+03,-5.21875
2.175e+03,-7.35625
2.188e+03,-6.4875
2.200e+03,-5.61563
2.212e+03,-7.49375
2.225e+03,-9.37187
2.238e+03,-7.975
2.250e+03,-6.575
2.262e+03,-5.575
2.275e+03,-4.575
2.288e+03,-6.575
2.300e+03,-8.575
2.312e+03,-7.1
2.325e+03,-5.62187
2.338e+03,-9.13437
2.350e+03,-12.6437
2.362e+03,-8.7375
2.375e+03,-4.83125
2.388e+03,-5.90937
2.400e+03,-6.9875
2.412e+03,-6.96875
2.425e+03,-6.95
2.438e+03,-7.0125
2.450e+03,-7.07187
2.462e+03,-8.68125
2.475e+03,-10.2906
2.488e+03,-7.69062
2.500e+03,-5.0875
2.512e+03,-7.06562
2.525e+03,-9.04375
2.538e+03,-7.65937
2.550e+03,-6.27188
2.562e+03,-7.93125
2.575e+03,-9.59062
2.588e+03,-8.7625
2.600e+03,-7.93125
2.612e+03,-7.45625
2.625e+03,-6.97812
2.638e+03,-7.925
2.650e+03,-8.86875
2.662e+03,-7.45938
2.675e+03,-6.04688
2.688e+03,-9.8625
2.700e+03,-13.675
2.712e+03,-10.3625
2.725e+03,-7.05
2.738e+03,-7.97812
2.750e+03,-8.90312
2.762e+03,-8.29062
2.775e+03,-7.675
2.788e+03,-7.40625
2.800e+03,-7.1375
2.812e+03,-9.95
2.825e+03,-12.7594
2.838e+03,-10.2062
2.850e+03,-7.65312
2.862e+03,-9.14375
2.875e+03,-10.6344
2.888e+03,-8.425
2.900e+03,-6.2125
2.912e+03,-8.69375
2.925e+03,-11.175
2.938e+03,-10.5531
2.950e+03,-9.92812
2.962e+03,-9.42188
2.975e+03,-8.91562
2.988e+03,-8.8125
3.000e+03,-8.70625
3.012e+03,-7.51562
3.025e+03,-6.32187
3.038e+03,-11.0125
3.050e+03,-15.7031
3.062e+03,-12.3219
3.075e+03,-8.94062
3.088e+03,-10.3094
3.100e+03,-11.675
3.112e+03,-9.325
3.125e+03,-6.97187
3.138e+03,-7.46562
3.150e+03,-7.95938
3.162e+03,-10.7906
3.175e+03,-13.6219
3.188e+03,-11.4437
3.200e+03,-9.26562
3.212e+03,-9.97187
3.225e+03,-10.6781
3.238e+03,-8.69062
3.250e+03,-6.70312
3.262e+03,-8.89375
3.275e+03,-11.0812
3.288e+03,-11.1625
3.300e+03,-11.2437
3.312e+03,-11.4812
3.325e+03,-11.7188
3.338e+03,-10.475
3.350e+03,-9.22812
3.362e+03,-7.88125
3.375e+03,-6.53437
3.388e+03,-11.2781
3.400e+03,-16.0219
3.412e+03,-13.7937
3.425e+03,-11.5625
3.438e+03,-11.875
3.450e+03,-12.1844
3.462e+03,-9.85
3.475e+03,-7.51562
3.488e+03,-7.99063
3.500e+03,-8.46562
3.512e+03,-12.3125
3.525e+03,-16.1562
3.538e+03,-13.9156
3.550e+03,-11.675
3.562e+03,-11.9156
3.575e+03,-12.1531
3.588e+03,-9.35938
3.600e+03,-6.5625
3.612e+03,-9.91562
3.625e+03,-13.2687
3.638e+03,-13.3969
3.650e+03,-13.5219
3.662e+03,-13.6
3.675e+03,-13.675
3.688e+03,-11.4406
3.700e+03,-9.20312
3.712e+03,-8.43437
3.725e+03,-7.66562
3.738e+03,-13.2812
3.750e+03,-18.8969
3.762e+03,-15.7094
3.775e+03,-12.5187
3.788e+03,-13.5062
3.800e+03,-14.4906
3.812e+03,-10.925
3.825e+03,-7.35625
3.838e+03,-8.40937
3.850e+03,-9.45937
3.862e+03,-13.3531
3.875e+03,-17.2469
3.888e+03,-15.9125
3.900e+03,-14.5781
3.912e+03,-12.7969
3.925e+03,-11.0156
3.938e+03,-9.175
3.950e+03,-7.33125
3.962e+03,-9.925
3.975e+03,-12.5187
3.988e+03,-14.2906
4.000e+03,-16.0625
4.012e+03,-16.2969
4.025e+03,-16.5312
4.038e+03,-13.0844
4.050e+03,-9.63437
4.062e+03,-8.68125
4.075e+03,-7.72812
4.088e+03,-13.7062
4.100e+03,-19.6812
4.112e+03,-18.4656
4.125e+03,-17.2469
4.138e+03,-15.8781
4.150e+03,-14.5062
4.162e+03,-10.9187
4.175e+03,-7.33125
4.188e+03,-8.6
4.200e+03,-9.86875
4.212e+03,-16.0281
4.225e+03,-22.1844
4.238e+03,-19.7906
4.250e+03,-17.3937
4.262e+03,-14.9625
4.275e+03,-12.5312
4.288e+03,-9.90312
4.300e+03,-7.275
4.312e+03,-11.3687
4.325e+03,-15.4594
4.338e+03,-17.9625
4.350e+03,-20.4656
4.362e+03,-19.6656
4.375e+03,-18.8656
4.388e+03,-13.8531
4.400e+03,-8.8375
4.412e+03,-8.86875
4.425e+03,-8.89687
4.438e+03,-14.7031
4.450e+03,-20.5094
4.462e+03,-19.5312
4.475e+03,-18.55
4.488e+03,-16.9719
4.500e+03,-15.3906
4.512e+03,-11.7031
4.525e+03,-8.0125
4.538e+03,-9.56875
4.550e+03,-11.125
4.562e+03,-18.3969
4.575e+03,-25.6656
4.588e+03,-25.5281
4.600e+03,-25.3906
4.612e+03,-18.5406
4.625e+03,-11.6906
4.638e+03,-9.9625
4.650e+03,-8.23438
4.662e+03,-11.6781
4.675e+03,-15.1187
4.688e+03,-19.3187
4.700e+03,-23.5188
4.712e+03,-21.7969
4.725e+03,-20.075
4.738e+03,-14.9875
4.750e+03,-9.89687
4.762e+03,-9.29062
4.775e+03,-8.68125
4.788e+03,-16.5312
4.800e+03,-24.3813
4.812e+03,-26.8781
4.825e+03,-29.3719
4.838e+03,-22.7812
4.850e+03,-16.1875
4.862e+03,-12.1312
4.875e+03,-8.075
4.888e+03,-10.2562
4.900e+03,-12.4344
4.912e+03,-23.4625
4.925e+03,-34.4906
4.938e+03,-29.6594
4.950e+03,-24.8281
4.962e+03,-18.4812
4.975e+03,-12.1344
4.988e+03,-10.0875
5.000e+03,-8.04062
5.012e+03,-12.4812
5.025e+03,-16.9219
5.038e+03,-24.6531
5.050e+03,-32.3813
5.062e+03,-27.95
5.075e+03,-23.5188
5.088e+03,-16.4531
5.100e+03,-9.38437
5.112e+03,-9.8875
5.125e+03,-10.3906
5.138e+03,-16.15
5.150e+03,-21.9062
5.162e+03,-27.1437
5.175e+03,-32.3813
5.188e+03,-23.7875
5.200e+03,-15.1937
5.212e+03,-12.025
5.225e+03,-8.85625
5.238e+03,-10.8094
5.250e+03,-12.7594
5.262e+03,-28.1406
5.275e+03,-43.5187
5.288e+03,-37.95
5.300e+03,-32.3813
5.312e+03,-22.1906
5.325e+03,-11.9969
5.338e+03,-10.65
5.350e+03,-9.3
5.362e+03,-13.5531
5.375e+03,-17.8031
5.388e+03,-22.0813
5.400e+03,-26.3594
5.412e+03,-24.2563
5.425e+03,-22.1531
5.438e+03,-16.1812
5.450e+03,-10.2094
5.462e+03,-10.2875
5.475e+03,-10.3656
5.488e+03,-17.9125
5.500e+03,-25.4594
5.512e+03,-26.8344
5.525e+03,-28.2062
5.538e+03,-22.2437
5.550e+03,-16.2781
5.562e+03,-12.4937
5.575e+03,-8.70625
5.588e+03,-11.3406
5.600e+03,-13.9719
5.612e+03,-18.8125
5.625e+03,-23.6531
5.638e+03,-27.0812
5.650e+03,-30.5094
5.662e+03,-21.3469
5.675e+03,-12.1844
5.688e+03,-10.9688
5.700e+03,-9.75
5.712e+03,-14.1312
5.725e+03,-18.5094
5.738e+03,-23.175
5.750e+03,-27.8375
5.762e+03,-25.2469
5.775e+03,-22.6562
5.788e+03,-16.2375
5.800e+03,-9.81562
5.812e+03,-10.9125
5.825e+03,-12.0094
5.838e+03,-17.2812
5.850e+03,-22.55
5.862e+03,-23.9719
5.875e+03,-25.3906
5.888e+03,-20.3687
5.900e+03,-15.3438
5.912e+03,-12.7406
5.925e+03,-10.1375
5.938e+03,-12.6375
5.950e+03,-15.1375
5.962e+03,-19.2437
5.975e+03,-23.35
5.988e+03,-23.4812
6.000e+03,-23.6094
6.012e+03,-17.9125
6.025e+03,-12.2125
6.038e+03,-11.4281
6.050e+03,-10.6437
6.062e+03,-14.8937
6.075e+03,-19.1437
6.088e+03,-19.6406
6.100e+03,-20.1344
6.112e+03,-20.2687
6.125e+03,-20.4031
6.138e+03,-15.5875
6.150e+03,-10.7719
6.162e+03,-11.7875
6.175e+03,-12.8031
6.188e+03,-17.1156
6.200e+03,-21.425
6.212e+03,-21.425
6.225e+03,-21.425
6.238e+03,-19.0594
6.250e+03,-16.6906
6.262e+03,-13.4594
6.275e+03,-10.225
6.288e+03,-13.4594
6.300e+03,-16.6906
6.312e+03,-17.7937
6.325e+03,-18.8969
6.338e+03,-21.4625
6.350e+03,-24.025
6.362e+03,-18.5187
6.375e+03,-13.0125
6.388e+03,-12.6
6.400e+03,-12.1844
6.412e+03,-15.5406
6.425e+03,-18.8969
6.438e+03,-18.8531
6.450e+03,-18.8062
6.462e+03,-19.875
6.475e+03,-20.9437
6.488e+03,-16
6.500e+03,-11.0562
6.512e+03,-12.4594
6.525e+03,-13.8594
6.538e+03,-16.7531
6.550e+03,-19.6469
6.562e+03,-20.025
6.575e+03,-20.4031
6.588e+03,-17.5562
6.600e+03,-14.7062
6.612e+03,-13.0938
6.625e+03,-11.4812
6.638e+03,-14.15
6.650e+03,-16.8187
6.662e+03,-17.3875
6.675e+03,-17.9562
6.688e+03,-19.4625
6.700e+03,-20.9688
6.712e+03,-17.225
6.725e+03,-13.4781
6.738e+03,-13.0062
6.750e+03,-12.5312
6.762e+03,-16.1156
6.775e+03,-19.7
6.788e+03,-18.2
6.800e+03,-16.7
6.812e+03,-18.35
6.825e+03,-20
6.838e+03,-15.9531
6.850e+03,-11.9062
6.862e+03,-13.2188
6.875e+03,-14.5281
6.888e+03,-15.8844
6.900e+03,-17.2375
6.912e+03,-18.0531
6.925e+03,-18.8656
6.938e+03,-18.4969
6.950e+03,-18.1281
6.962e+03,-15.1687
6.975e+03,-12.2062
6.988e+03,-15.15
7.000e+03,-18.0906
7.012e+03,-17.1125
7.025e+03,-16.1312
7.038e+03,-19.7406
7.050e+03,-23.35
7.062e+03,-18.5125
7.075e+03,-13.675
7.088e+03,-13.9344
7.100e+03,-14.1906
7.112e+03,-15.4281
7.125e+03,-16.6625
7.138e+03,-17.0281
7.150e+03,-17.3937
7.162e+03,-18.7656
7.175e+03,-20.1344
7.188e+03,-16.175
7.200e+03,-12.2125
7.212e+03,-14.3125
7.225e+03,-16.4094
7.238e+03,-17.125
7.250e+03,-17.8375
7.262e+03,-17.6625
7.275e+03,-17.4875
7.288e+03,-17.2781
7.300e+03,-17.0656
7.312e+03,-15.5187
7.325e+03,-13.9719
7.338e+03,-15.7312
7.350e+03,-17.4875
7.362e+03,-16.5531
7.375e+03,-15.6187
7.388e+03,-18.3812
7.400e+03,-21.1406
7.412e+03,-17.8562
7.425e+03,-14.5719
7.438e+03,-14.6594
7.450e+03,-14.7469
7.462e+03,-16.3781
7.475e+03,-18.0062
7.488e+03,-16.4
7.500e+03,-14.7937
7.512e+03,-18.8344
7.525e+03,-22.875
7.538e+03,-18.5437
7.550e+03,-14.2094
7.562e+03,-16.0312
7.575e+03,-17.85
7.588e+03,-16.5844
7.600e+03,-15.3187
7.612e+03,-16.6312
7.625e+03,-17.9437
7.638e+03,-17.675
7.650e+03,-17.4031
7.662e+03,-15.3687
7.675e+03,-13.3344
7.688e+03,-15.4937
7.700e+03,-17.6531
7.712e+03,-16.2719
7.725e+03,-14.8875
7.738e+03,-18.1844
7.750e+03,-21.4781
7.762e+03,-18.3562
7.775e+03,-15.2344
7.788e+03,-16.5187
7.800e+03,-17.8031
7.812e+03,-16.9031
7.825e+03,-16
7.838e+03,-15.8656
7.850e+03,-15.7312
7.862e+03,-18.4875
7.875e+03,-21.2406
7.888e+03,-18.3156
7.900e+03,-15.3906
7.912e+03,-16.675
7.925e+03,-17.9562
7.938e+03,-16.5469
7.950e+03,-15.1375
7.962e+03,-15.8781
7.975e+03,-16.6187
7.988e+03,-17.0375
8.000e+03,-17.4562
8.012e+03,-17.025
8.025e+03,-16.5906
8.038e+03,-16.9156
8.050e+03,-17.2375
8.062e+03,-15.4125
8.075e+03,-13.5875
8.088e+03,-16.6437
8.100e+03,-19.7
8.112e+03,-18.1156
8.125e+03,-16.5312
8.138e+03,-16.8438
8.150e+03,-17.1562
8.162e+03,-17.2437
8.175e+03,-17.3281
8.188e+03,-16.225
8.200e+03,-15.1187
8.212e+03,-18.5125
8.225e+03,-21.9062
8.238e+03,-19.2188
8.250e+03,-16.5312
8.262e+03,-18.5656
8.275e+03,-20.5969
8.288e+03,-17.1375
8.300e+03,-13.675
8.312e+03,-15.9531
8.325e+03,-18.2312
8.338e+03,-18.7594
8.350e+03,-19.2875
8.362e+03,-18.1781
8.375e+03,-17.0656
8.388e+03,-16.9437
8.400e+03,-16.8187
8.412e+03,-15.4688
8.425e+03,-14.1156
8.438e+03,-18.0125
8.450e+03,-21.9062
8.462e+03,-19.5312
8.475e+03,-17.1562
8.488e+03,-19.2656
8.500e+03,-21.3719
8.512e+03,-18.2844
8.525e+03,-15.1937
8.538e+03,-15.2937
8.550e+03,-15.3906
8.562e+03,-18.7719
8.575e+03,-22.1531
8.588e+03,-19.9969
8.600e+03,-17.8375
8.612e+03,-18.1937
8.625e+03,-18.55
8.638e+03,-16.3031
8.650e+03,-14.0562
8.662e+03,-15.7781
8.675e+03,-17.5
8.688e+03,-19.0062
8.700e+03,-20.5094
8.712e+03,-20.2937
8.725e+03,-20.075
8.738e+03,-18.4656
8.750e+03,-16.8562
8.762e+03,-15.0625
8.775e+03,-13.2687
8.788e+03,-17.7281
8.800e+03,-22.1844
8.812e+03,-21.3469
8.825e+03,-20.5094
8.838e+03,-20.1875
8.850e+03,-19.8656
8.862e+03,-17.2437
8.875e+03,-14.6219
8.888e+03,-14.725
8.900e+03,-14.8281
8.912e+03,-20.0125
8.925e+03,-25.1938
8.938e+03,-22.2406
8.950e+03,-19.2875
8.962e+03,-19.6812
8.975e+03,-20.075
8.988e+03,-16.5062
9.000e+03,-12.9375
9.012e+03,-16.1125
9.025e+03,-19.2875
9.038e+03,-20.8344
9.050e+03,-22.3812
9.062e+03,-22.1312
9.075e+03,-21.8781
9.088e+03,-18.8844
9.100e+03,-15.8875
9.112e+03,-14.9312
9.125e+03,-13.9719
9.138e+03,-18.8125
9.150e+03,-23.6531
9.162e+03,-22.2531
9.175e+03,-20.85
9.188e+03,-21.7531
9.200e+03,-22.6562
9.212e+03,-18.4562
9.225e+03,-14.2531
9.238e+03,-14.725
9.250e+03,-15.1937
9.262e+03,-20.0125
9.275e+03,-24.8281
9.288e+03,-23.7437
9.300e+03,-22.6562
9.312e+03,-20.2062
9.325e+03,-17.7562
9.338e+03,-15.5938
9.350e+03,-13.4312
9.362e+03,-15.6344
9.375e+03,-17.8375
9.388e+03,-21.1656
9.400e+03,-24.4906
9.412e+03,-24.2594
9.425e+03,-24.025
9.438e+03,-20.1406
9.450e+03,-16.2531
9.462e+03,-14.5437
9.475e+03,-12.8312
9.488e+03,-18.4062
9.500e+03,-23.9781
9.512e+03,-26.0938
9.525e+03,-28.2062
9.538e+03,-25.3781
9.550e+03,-22.55
9.562e+03,-18.3031
9.575e+03,-14.0562
9.588e+03,-14.7031
9.600e+03,-15.35
9.612e+03,-24.4344
9.625e+03,-33.5187
9.638e+03,-29.0063
9.650e+03,-24.4906
9.662e+03,-21.225
9.675e+03,-17.9562
9.688e+03,-15.2781
9.700e+03,-12.6
9.712e+03,-16.725
9.725e+03,-20.85
9.738e+03,-23.2594
9.750e+03,-25.6656
9.762e+03,-25.7781
9.775e+03,-25.8875
9.788e+03,-20.3594
9.800e+03,-14.8281
9.812e+03,-14.4437
9.825e+03,-14.0562
9.838e+03,-19.625
9.850e+03,-25.1938
9.862e+03,-26.8312
9.875e+03,-28.4688
9.888e+03,-25.4594
9.900e+03,-22.4469
9.912e+03,-17.8469
9.925e+03,-13.2437
9.938e+03,-14.4031
9.950e+03,-15.5625
9.962e+03,-22.4688
9.975e+03,-29.3719
9.988e+03,-30.425
1.000e+04,-31.4781
1.001e+04,-24.7844
1.002e+04,-18.0906
1.004e+04,-15.7562
1.005e+04,-13.4187
1.006e+04,-16.3969
1.008e+04,-19.3719
1.009e+04,-25.2937
1.010e+04,-31.2156
1.011e+04,-28.875
1.012e+04,-26.5312
1.014e+04,-21.1187
1.015e+04,-15.7031
1.016e+04,-14.6906
1.018e+04,-13.675
1.019e+04,-20.5875
1.020e+04,-27.5
1.021e+04,-35.5094
1.022e+04,-43.5187
1.024e+04,-33.2563
1.025e+04,-22.9906
1.026e+04,-18.2344
1.028e+04,-13.4781
1.029e+04,-14.9844
1.030e+04,-16.4875
1.031e+04,-25.0031
1.032e+04,-33.5187
1.034e+04,-32.0156
1.035e+04,-30.5094
1.036e+04,-24.4375
1.038e+04,-18.3625
1.039e+04,-16.0187
1.040e+04,-13.675
1.041e+04,-18.1125
1.042e+04,-22.55
1.044e+04,-33.0344
1.045e+04,-43.5187
1.046e+04,-37.0156
1.048e+04,-30.5094
1.049e+04,-22.6094
1.050e+04,-14.7062
1.051e+04,-14.9344
1.052e+04,-15.1625
1.054e+04,-20.8469
1.055e+04,-26.5312
1.056e+04,-30.2563
1.058e+04,-33.9781
1.059e+04,-27.5969
1.060e+04,-21.2156
1.061e+04,-17.6219
1.062e+04,-14.025
1.064e+04,-15.3094
1.065e+04,-16.5906
1.066e+04,-30.0562
1.068e+04,-43.5187
1.069e+04,-40.025
1.070e+04,-36.5312
1.071e+04,-26.6938
1.072e+04,-16.8562
1.074e+04,-15.4219
1.075e+04,-13.9875
1.076e+04,-17.6156
1.078e+04,-21.2406
1.079e+04,-24.725
1.080e+04,-28.2062
1.081e+04,-27.2437
1.082e+04,-26.2781
1.084e+04,-20.7812
1.085e+04,-15.2844
1.086e+04,-14.9625
1.088e+04,-14.6375
1.089e+04,-22.0062
1.090e+04,-29.3719
1.091e+04,-28.7906
1.092e+04,-28.2062
1.094e+04,-26.3219
1.095e+04,-24.4344
1.096e+04,-19.2031
1.098e+04,-13.9719
1.099e+04,-16.1937
1.100e+04,-18.4156
1.101e+04,-22.0406
1.102e+04,-25.6656
1.104e+04,-29.025
1.105e+04,-32.3813
1.106e+04,-24.7687
1.108e+04,-17.1562
1.109e+04,-15.4406
1.110e+04,-13.725
1.111e+04,-17.7562
1.112e+04,-21.7875
1.114e+04,-24.8719
1.115e+04,-27.9562
1.116e+04,-28.0812
1.118e+04,-28.2062
1.119e+04,-21.5781
1.120e+04,-14.9469
1.121e+04,-15.475
1.122e+04,-16
1.124e+04,-20.2188
1.125e+04,-24.4344
1.126e+04,-24.6906
1.128e+04,-24.9469
1.129e+04,-22.4062
1.130e+04,-19.8656
1.131e+04,-17.0062
1.132e+04,-14.1437
1.134e+04,-16.2719
1.135e+04,-18.4
1.136e+04,-22.5094
1.138e+04,-26.6187
1.139e+04,-26.1437
1.140e+04,-25.6656
1.141e+04,-21.1844
1.142e+04,-16.7
1.144e+04,-15.5906
1.145e+04,-14.4781
1.146e+04,-17.6656
1.148e+04,-20.85
1.149e+04,-22
1.150e+04,-23.1469
1.151e+04,-23.6875
1.152e+04,-24.225
1.154e+04,-19.6437
1.155e+04,-15.0625
1.156e+04,-15.2594
1.158e+04,-15.4531
1.159e+04,-18.95
1.160e+04,-22.4469
1.161e+04,-23.0281
1.162e+04,-23.6094
1.164e+04,-22.8969
1.165e+04,-22.1844
1.166e+04,-18.1687
1.168e+04,-14.15
1.169e+04,-17
1.170e+04,-19.8469
1.171e+04,-20.8781
1.172e+04,-21.9062
1.174e+04,-24.4469
1.175e+04,-26.9875
1.176e+04,-21.9031
1.178e+04,-16.8187
1.179e+04,-16.1062
1.180e+04,-15.3906
1.181e+04,-18.65
1.182e+04,-21.9062
1.184e+04,-21.5625
1.185e+04,-21.2156
1.186e+04,-23.0531
1.188e+04,-24.8875
1.189e+04,-20.2125
1.190e+04,-15.5344
1.191e+04,-16.7156
1.192e+04,-17.8969
1.194e+04,-20.1406
1.195e+04,-22.3812
1.196e+04,-22.2844
1.198e+04,-22.1844
1.199e+04,-21.1312
1.200e+04,-20.075
1.201e+04,-17.8906
1.202e+04,-15.7031
1.204e+04,-17.4969
1.205e+04,-19.2875
1.206e+04,-20.5531
1.208e+04,-21.8187
1.209e+04,-22.7375
1.210e+04,-23.6531
1.211e+04,-20.45
1.212e+04,-17.2469
1.214e+04,-16.8687
1.215e+04,-16.4875
1.216e+04,-19.4344
1.218e+04,-22.3812
1.219e+04,-20.6406
1.220e+04,-18.8969
1.221e+04,-22.6281
1.222e+04,-26.3594
1.224e+04,-21.2594
1.225e+04,-16.1562
1.226e+04,-16.9062
1.228e+04,-17.6531
1.229e+04,-19.15
1.230e+04,-20.6437
1.231e+04,-20.6437
1.232e+04,-20.6437
1.234e+04,-21.5969
1.235e+04,-22.55
1.236e+04,-19.1
1.238e+04,-15.6469
1.239e+04,-18.3094
1.240e+04,-20.9688
1.241e+04,-20.1281
1.242e+04,-19.2875
1.244e+04,-21.8344
1.245e+04,-24.3813
1.246e+04,-20.6531
1.248e+04,-16.9219
1.249e+04,-17.0812
1.250e+04,-17.2375
1.251e+04,-19.1031
1.252e+04,-20.9688
1.254e+04,-20.3094
1.255e+04,-19.6469
1.256e+04,-23.0906
1.258e+04,-26.5312
1.259e+04,-21.6344
1.260e+04,-16.7344
1.261e+04,-17.9781
1.262e+04,-19.2219
1.264e+04,-19.0594
1.265e+04,-18.8969
1.266e+04,-18.65
1.268e+04,-18.4
1.269e+04,-19.3281
1.270e+04,-20.2562
1.271e+04,-18.7469
1.272e+04,-17.2375
1.274e+04,-18.5812
1.275e+04,-19.9219
1.276e+04,-18.7719
1.278e+04,-17.6219
1.279e+04,-19.7812
1.280e+04,-21.9375
1.281e+04,-20.15
1.282e+04,-18.3625
1.284e+04,-18.6312
1.285e+04,-18.8969
1.286e+04,-19.875
1.288e+04,-20.85
1.289e+04,-19.2406
1.290e+04,-17.6312
1.291e+04,-21.4125
1.292e+04,-25.1938
1.294e+04,-21.3469
1.295e+04,-17.5
1.296e+04,-18.575
1.298e+04,-19.6469
1.299e+04,-18.7437
1.300e+04,-17.8375
1.301e+04,-18.9094
1.302e+04,-19.9781
1.304e+04,-21.6656
1.305e+04,-23.35
1.306e+04,-20.6969
1.308e+04,-18.0437
1.309e+04,-19.4469
1.310e+04,-20.85
1.311e+04,-18.7219
1.312e+04,-16.5906
1.314e+04,-19.4875
1.315e+04,-22.3812
1.316e+04,-20.0187
1.318e+04,-17.6531
1.319e+04,-18.4719
