Final Project/12-5/R2=R12=R13=10k, f=56Hz, V=18V/triangle_18V.CSV

Model,TBS1052C
Firmware Version,v2015-08-04-prequal4ch70_v1.3

Point Format,Y
Horizontal Units,S
Horizontal Scale,0.004
Sample Interval,3.2e-05
Filter Frequency,2e+08
Record Length,2000
Gating,0.0% to 100.0%
Probe Attenuation,10
Vertical Units,V
Vertical Offset,0
Vertical Scale,20
Label,
TIME,CH1
-3.200e-02,34.8
-3.197e-02,35.6
-3.194e-02,36.4
-3.190e-02,36.4
-3.187e-02,37.2
-3.184e-02,38
-3.181e-02,38
-3.178e-02,38.8
-3.174e-02,38.8
-3.171e-02,39.6
-3.168e-02,40.4
-3.165e-02,40.4
-3.162e-02,41.2
-3.158e-02,41.2
-3.155e-02,42
-3.152e-02,42
-3.149e-02,42.8
-3.146e-02,42.8
-3.142e-02,43.6
-3.139e-02,44.4
-3.136e-02,44.4
-3.133e-02,45.2
-3.130e-02,46
-3.126e-02,46
-3.123e-02,46.8
-3.120e-02,46.8
-3.117e-02,47.6
-3.114e-02,48.4
-3.110e-02,48.4
-3.107e-02,49.2
-3.104e-02,49.2
-3.101e-02,50
-3.098e-02,50.8
-3.094e-02,50.8
-3.091e-02,51.6
-3.088e-02,51.6
-3.085e-02,52.4
-3.082e-02,53.2
-3.078e-02,53.2
-3.075e-02,54
-3.072e-02,54.8
-3.069e-02,54.8
-3.066e-02,54.8
-3.062e-02,55.6
-3.059e-02,56.4
-3.056e-02,56.4
-3.053e-02,57.2
-3.050e-02,57.2
-3.046e-02,58
-3.043e-02,58.8
-3.040e-02,58.8
-3.037e-02,59.6
-3.034e-02,60.4
-3.030e-02,60.4
-3.027e-02,61.2
-3.024e-02,61.2
-3.021e-02,62
-3.018e-02,62
-3.014e-02,62.8
-3.011e-02,62.8
-3.008e-02,64.4
-3.005e-02,64.4
-3.002e-02,64.4
-2.998e-02,65.2
-2.995e-02,65.2
-2.992e-02,66
-2.989e-02,66.8
-2.986e-02,66
-2.982e-02,65.2
-2.979e-02,65.2
-2.976e-02,64.4
-2.973e-02,63.6
-2.970e-02,63.6
-2.966e-02,62
-2.963e-02,62
-2.960e-02,61.2
-2.957e-02,61.2
-2.954e-02,60.4
-2.950e-02,59.6
-2.947e-02,59.6
-2.944e-02,58.8
-2.941e-02,58
-2.938e-02,57.2
-2.934e-02,57.2
-2.931e-02,56.4
-2.928e-02,56.4
-2.925e-02,55.6
-2.922e-02,54.8
-2.918e-02,54
-2.915e-02,54
-2.912e-02,53.2
-2.909e-02,52.4
-2.906e-02,51.6
-2.902e-02,51.6
-2.899e-02,50.8
-2.896e-02,50
-2.893e-02,49.2
-2.890e-02,49.2
-2.886e-02,48.4
-2.883e-02,47.6
-2.880e-02,46.8
-2.877e-02,46.8
-2.874e-02,46
-2.870e-02,46
-2.867e-02,45.2
-2.864e-02,44.4
-2.861e-02,44.4
-2.858e-02,43.6
-2.854e-02,42.8
-2.851e-02,42.8
-2.848e-02,42
-2.845e-02,41.2
-2.842e-02,40.4
-2.838e-02,40.4
-2.835e-02,40.4
-2.832e-02,38.8
-2.829e-02,38.8
-2.826e-02,38
-2.822e-02,38
-2.819e-02,37.2
-2.816e-02,36.4
-2.813e-02,36.4
-2.810e-02,35.6
-2.806e-02,34.8
-2.803e-02,34.8
-2.800e-02,34
-2.797e-02,33.2
-2.794e-02,32.4
-2.790e-02,32.4
-2.787e-02,32.4
-2.784e-02,31.6
-2.781e-02,30.8
-2.778e-02,30
-2.774e-02,29.2
-2.771e-02,29.2
-2.768e-02,28.4
-2.765e-02,27.6
-2.762e-02,27.6
-2.758e-02,26.8
-2.755e-02,26
-2.752e-02,26
-2.749e-02,25.2
-2.746e-02,25.2
-2.742e-02,24.4
-2.739e-02,23.6
-2.736e-02,23.6
-2.733e-02,22.8
-2.730e-02,22
-2.726e-02,22
-2.723e-02,21.2
-2.720e-02,20.4
-2.717e-02,20.4
-2.714e-02,19.6
-2.710e-02,19.6
-2.707e-02,18.8
-2.704e-02,18.8
-2.701e-02,18
-2.698e-02,17.2
-2.694e-02,17.2
-2.691e-02,16.4
-2.688e-02,15.6
-2.685e-02,15.6
-2.682e-02,14.8
-2.678e-02,14.8
-2.675e-02,13.2
-2.672e-02,13.2
-2.669e-02,12.4
-2.666e-02,12.4
-2.662e-02,11.6
-2.659e-02,11.6
-2.656e-02,10.8
-2.653e-02,10
-2.650e-02,10
-2.646e-02,9.2
-2.643e-02,9.2
-2.640e-02,8.4
-2.637e-02,7.6
-2.634e-02,6.8
-2.630e-02,6.8
-2.627e-02,6.8
-2.624e-02,5.2
-2.621e-02,5.2
-2.618e-02,4.4
-2.614e-02,4.4
-2.611e-02,3.6
-2.608e-02,3.6
-2.605e-02,2.8
-2.602e-02,2.8
-2.598e-02,2
-2.595e-02,1.2
-2.592e-02,0.4
-2.589e-02,0.4
-2.586e-02,-0.4
-2.582e-02,-0.4
-2.579e-02,-1.2
-2.576e-02,-2
-2.573e-02,-2
-2.570e-02,-2.8
-2.566e-02,-2.8
-2.563e-02,-3.6
-2.560e-02,-3.6
-2.557e-02,-4.4
-2.554e-02,-5.2
-2.550e-02,-5.2
-2.547e-02,-6
-2.544e-02,-6.8
-2.541e-02,-6.8
-2.538e-02,-7.6
-2.534e-02,-8.4
-2.531e-02,-8.4
-2.528e-02,-9.2
-2.525e-02,-9.2
-2.522e-02,-10
-2.518e-02,-10.8
-2.515e-02,-11.6
-2.512e-02,-11.6
-2.509e-02,-12.4
-2.506e-02,-12.4
-2.502e-02,-13.2
-2.499e-02,-14
-2.496e-02,-14
-2.493e-02,-14.8
-2.490e-02,-14.8
-2.486e-02,-15.6
-2.483e-02,-16.4
-2.480e-02,-16.4
-2.477e-02,-17.2
-2.474e-02,-17.2
-2.470e-02,-18
-2.467e-02,-18.8
-2.464e-02,-18.8
-2.461e-02,-19.6
-2.458e-02,-19.6
-2.454e-02,-20.4
-2.451e-02,-21.2
-2.448e-02,-21.2
-2.445e-02,-22
-2.442e-02,-22
-2.438e-02,-22.8
-2.435e-02,-23.6
-2.432e-02,-23.6
-2.429e-02,-24.4
-2.426e-02,-24.4
-2.422e-02,-25.2
-2.419e-02,-25.2
-2.416e-02,-26
-2.413e-02,-26.8
-2.410e-02,-26.8
-2.406e-02,-27.6
-2.403e-02,-28.4
-2.400e-02,-28.4
-2.397e-02,-29.2
-2.394e-02,-30
-2.390e-02,-30
-2.387e-02,-30.8
-2.384e-02,-30.8
-2.381e-02,-31.6
-2.378e-02,-32.4
-2.374e-02,-32.4
-2.371e-02,-33.2
-2.368e-02,-34
-2.365e-02,-34
-2.362e-02,-34.8
-2.358e-02,-34.8
-2.355e-02,-35.6
-2.352e-02,-36.4
-2.349e-02,-36.4
-2.346e-02,-37.2
-2.342e-02,-38
-2.339e-02,-38
-2.336e-02,-38.8
-2.333e-02,-38.8
-2.330e-02,-39.6
-2.326e-02,-40.4
-2.323e-02,-40.4
-2.320e-02,-41.2
-2.317e-02,-42
-2.314e-02,-42
-2.310e-02,-42
-2.307e-02,-42.8
-2.304e-02,-43.6
-2.301e-02,-43.6
-2.298e-02,-44.4
-2.294e-02,-44.4
-2.291e-02,-46
-2.288e-02,-46
-2.285e-02,-46.8
-2.282e-02,-46.8
-2.278e-02,-47.6
-2.275e-02,-47.6
-2.272e-02,-48.4
-2.269e-02,-48.4
-2.266e-02,-49.2
-2.262e-02,-50
-2.259e-02,-50
-2.256e-02,-50.8
-2.253e-02,-51.6
-2.250e-02,-51.6
-2.246e-02,-52.4
-2.243e-02,-52.4
-2.240e-02,-53.2
-2.237e-02,-53.2
-2.234e-02,-54
-2.230e-02,-54.8
-2.227e-02,-54.8
-2.224e-02,-55.6
-2.221e-02,-55.6
-2.218e-02,-56.4
-2.214e-02,-57.2
-2.211e-02,-57.2
-2.208e-02,-58
-2.205e-02,-58
-2.202e-02,-58.8
-2.198e-02,-59.6
-2.195e-02,-59.6
-2.192e-02,-60.4
-2.189e-02,-61.2
-2.186e-02,-62
-2.182e-02,-62
-2.179e-02,-62
-2.176e-02,-62.8
-2.173e-02,-63.6
-2.170e-02,-64.4
-2.166e-02,-64.4
-2.163e-02,-65.2
-2.160e-02,-66
-2.157e-02,-66
-2.154e-02,-66.8
-2.150e-02,-66.8
-2.147e-02,-67.6
-2.144e-02,-67.6
-2.141e-02,-68.4
-2.138e-02,-68.4
-2.134e-02,-67.6
-2.131e-02,-67.6
-2.128e-02,-66.8
-2.125e-02,-66
-2.122e-02,-65.2
-2.118e-02,-65.2
-2.115e-02,-64.4
-2.112e-02,-64.4
-2.109e-02,-62.8
-2.106e-02,-62.8
-2.102e-02,-62
-2.099e-02,-61.2
-2.096e-02,-61.2
-2.093e-02,-60.4
-2.090e-02,-59.6
-2.086e-02,-59.6
-2.083e-02,-58.8
-2.080e-02,-58.8
-2.077e-02,-58
-2.074e-02,-57.2
-2.070e-02,-56.4
-2.067e-02,-55.6
-2.064e-02,-55.6
-2.061e-02,-54.8
-2.058e-02,-54
-2.054e-02,-54
-2.051e-02,-53.2
-2.048e-02,-53.2
-2.045e-02,-52.4
-2.042e-02,-51.6
-2.038e-02,-51.6
-2.035e-02,-50.8
-2.032e-02,-50
-2.029e-02,-49.2
-2.026e-02,-49.2
-2.022e-02,-49.2
-2.019e-02,-47.6
-2.016e-02,-47.6
-2.013e-02,-46.8
-2.010e-02,-46.8
-2.006e-02,-46
-2.003e-02,-45.2
-2.000e-02,-45.2
-1.997e-02,-44.4
-1.994e-02,-43.6
-1.990e-02,-43.6
-1.987e-02,-42.8
-1.984e-02,-42.8
-1.981e-02,-42
-1.978e-02,-41.2
-1.974e-02,-41.2
-1.971e-02,-40.4
-1.968e-02,-39.6
-1.965e-02,-38.8
-1.962e-02,-38.8
-1.958e-02,-38
-1.955e-02,-37.2
-1.952e-02,-37.2
-1.949e-02,-36.4
-1.946e-02,-36.4
-1.942e-02,-35.6
-1.939e-02,-34.8
-1.936e-02,-34.8
-1.933e-02,-34
-1.930e-02,-34
-1.926e-02,-32.4
-1.923e-02,-32.4
-1.920e-02,-31.6
-1.917e-02,-31.6
-1.914e-02,-30.8
-1.910e-02,-30.8
-1.907e-02,-30
-1.904e-02,-29.2
-1.901e-02,-29.2
-1.898e-02,-28.4
-1.894e-02,-27.6
-1.891e-02,-27.6
-1.888e-02,-26.8
-1.885e-02,-26.8
-1.882e-02,-26
-1.878e-02,-25.2
-1.875e-02,-24.4
-1.872e-02,-24.4
-1.869e-02,-24.4
-1.866e-02,-22.8
-1.862e-02,-22.8
-1.859e-02,-22.8
-1.856e-02,-22
-1.853e-02,-21.2
-1.850e-02,-21.2
-1.846e-02,-20.4
-1.843e-02,-19.6
-1.840e-02,-19.6
-1.837e-02,-18.8
-1.834e-02,-18.8
-1.830e-02,-18
-1.827e-02,-17.2
-1.824e-02,-17.2
-1.821e-02,-16.4
-1.818e-02,-15.6
-1.814e-02,-15.6
-1.811e-02,-14.8
-1.808e-02,-14
-1.805e-02,-14
-1.802e-02,-13.2
-1.798e-02,-13.2
-1.795e-02,-13.2
-1.792e-02,-11.6
-1.789e-02,-11.6
-1.786e-02,-10.8
-1.782e-02,-10.8
-1.779e-02,-10
-1.776e-02,-9.2
-1.773e-02,-9.2
-1.770e-02,-8.4
-1.766e-02,-7.6
-1.763e-02,-7.6
-1.760e-02,-6.8
-1.757e-02,-6.8
-1.754e-02,-6
-1.750e-02,-5.2
-1.747e-02,-5.2
-1.744e-02,-4.4
-1.741e-02,-4.4
-1.738e-02,-3.6
-1.734e-02,-2.8
-1.731e-02,-2.8
-1.728e-02,-2
-1.725e-02,-1.2
-1.722e-02,-1.2
-1.718e-02,-0.4
-1.715e-02,-0.4
-1.712e-02,0.4
-1.709e-02,0.4
-1.706e-02,1.2
-1.702e-02,2
-1.699e-02,2.8
-1.696e-02,2.8
-1.693e-02,2.8
-1.690e-02,3.6
-1.686e-02,4.4
-1.683e-02,4.4
-1.680e-02,5.2
-1.677e-02,5.2
-1.674e-02,6
-1.670e-02,6.8
-1.667e-02,6.8
-1.664e-02,7.6
-1.661e-02,7.6
-1.658e-02,8.4
-1.654e-02,9.2
-1.651e-02,9.2
-1.648e-02,10
-1.645e-02,10
-1.642e-02,10.8
-1.638e-02,11.6
-1.635e-02,12.4
-1.632e-02,12.4
-1.629e-02,13.2
-1.626e-02,13.2
-1.622e-02,14
-1.619e-02,14
-1.616e-02,14.8
-1.613e-02,15.6
-1.610e-02,15.6
-1.606e-02,16.4
-1.603e-02,16.4
-1.600e-02,17.2
-1.597e-02,17.2
-1.594e-02,18
-1.590e-02,18.8
-1.587e-02,18.8
-1.584e-02,19.6
-1.581e-02,20.4
-1.578e-02,20.4
-1.574e-02,21.2
-1.571e-02,21.2
-1.568e-02,22
-1.565e-02,22
-1.562e-02,22.8
-1.558e-02,22.8
-1.555e-02,23.6
-1.552e-02,24.4
-1.549e-02,24.4
-1.546e-02,25.2
-1.542e-02,26
-1.539e-02,26
-1.536e-02,26.8
-1.533e-02,26.8
-1.530e-02,27.6
-1.526e-02,28.4
-1.523e-02,28.4
-1.520e-02,28.4
-1.517e-02,29.2
-1.514e-02,30
-1.510e-02,30.8
-1.507e-02,30.8
-1.504e-02,31.6
-1.501e-02,31.6
-1.498e-02,32.4
-1.494e-02,33.2
-1.491e-02,33.2
-1.488e-02,34
-1.485e-02,34.8
-1.482e-02,34.8
-1.478e-02,34.8
-1.475e-02,35.6
-1.472e-02,36.4
-1.469e-02,36.4
-1.466e-02,37.2
-1.462e-02,37.2
-1.459e-02,38
-1.456e-02,38.8
-1.453e-02,39.6
-1.450e-02,39.6
-1.446e-02,39.6
-1.443e-02,40.4
-1.440e-02,41.2
-1.437e-02,41.2
-1.434e-02,42
-1.430e-02,42
-1.427e-02,42.8
-1.424e-02,43.6
-1.421e-02,43.6
-1.418e-02,44.4
-1.414e-02,44.4
-1.411e-02,45.2
-1.408e-02,46
-1.405e-02,46
-1.402e-02,46.8
-1.398e-02,46.8
-1.395e-02,47.6
-1.392e-02,47.6
-1.389e-02,48.4
-1.386e-02,49.2
-1.382e-02,49.2
-1.379e-02,50
-1.376e-02,50
-1.373e-02,50.8
-1.370e-02,51.6
-1.366e-02,52.4
-1.363e-02,52.4
-1.360e-02,53.2
-1.357e-02,53.2
-1.354e-02,54
-1.350e-02,54.8
-1.347e-02,54.8
-1.344e-02,55.6
-1.341e-02,55.6
-1.338e-02,56.4
-1.334e-02,57.2
-1.331e-02,57.2
-1.328e-02,58
-1.325e-02,58
-1.322e-02,58.8
-1.318e-02,58.8
-1.315e-02,59.6
-1.312e-02,59.6
-1.309e-02,60.4
-1.306e-02,61.2
-1.302e-02,61.2
-1.299e-02,62
-1.296e-02,62
-1.293e-02,62.8
-1.290e-02,62.8
-1.286e-02,63.6
-1.283e-02,64.4
-1.280e-02,64.4
-1.277e-02,65.2
-1.274e-02,66
-1.270e-02,66
-1.267e-02,66.8
-1.264e-02,65.2
-1.261e-02,65.2
-1.258e-02,64.4
-1.254e-02,64.4
-1.251e-02,63.6
-1.248e-02,62.8
-1.245e-02,62
-1.242e-02,62
-1.238e-02,61.2
-1.235e-02,60.4
-1.232e-02,60.4
-1.229e-02,59.6
-1.226e-02,58.8
-1.222e-02,58
-1.219e-02,58
-1.216e-02,58
-1.213e-02,56.4
-1.210e-02,56.4
-1.206e-02,55.6
-1.203e-02,55.6
-1.200e-02,54.8
-1.197e-02,54
-1.194e-02,53.2
-1.190e-02,53.2
-1.187e-02,52.4
-1.184e-02,50.8
-1.181e-02,50.8
-1.178e-02,50.8
-1.174e-02,50
-1.171e-02,49.2
-1.168e-02,49.2
-1.165e-02,48.4
-1.162e-02,47.6
-1.158e-02,46.8
-1.155e-02,46.8
-1.152e-02,46
-1.149e-02,45.2
-1.146e-02,45.2
-1.142e-02,44.4
-1.139e-02,43.6
-1.136e-02,43.6
-1.133e-02,42.8
-1.130e-02,42
-1.126e-02,41.2
-1.123e-02,41.2
-1.120e-02,41.2
-1.117e-02,40.4
-1.114e-02,39.6
-1.110e-02,38.8
-1.107e-02,38.8
-1.104e-02,38
-1.101e-02,37.2
-1.098e-02,37.2
-1.094e-02,36.4
-1.091e-02,36.4
-1.088e-02,34.8
-1.085e-02,34.8
-1.082e-02,34.8
-1.078e-02,34
-1.075e-02,33.2
-1.072e-02,32.4
-1.069e-02,32.4
-1.066e-02,31.6
-1.062e-02,30.8
-1.059e-02,30.8
-1.056e-02,30
-1.053e-02,29.2
-1.050e-02,29.2
-1.046e-02,28.4
-1.043e-02,27.6
-1.040e-02,27.6
-1.037e-02,26.8
-1.034e-02,26
-1.030e-02,26
-1.027e-02,25.2
-1.024e-02,24.4
-1.021e-02,24.4
-1.018e-02,23.6
-1.014e-02,23.6
-1.011e-02,22.8
-1.008e-02,22.8
-1.005e-02,21.2
-1.002e-02,21.2
-9.984e-03,20.4
-9.952e-03,20.4
-9.920e-03,19.6
-9.888e-03,18.8
-9.856e-03,18.8
-9.824e-03,18
-9.792e-03,18
-9.760e-03,17.2
-9.728e-03,16.4
-9.696e-03,15.6
-9.664e-03,15.6
-9.632e-03,14.8
-9.600e-03,14.8
-9.568e-03,14
-9.536e-03,14
-9.504e-03,13.2
-9.472e-03,12.4
-9.440e-03,12.4
-9.408e-03,11.6
-9.376e-03,11.6
-9.344e-03,10.8
-9.312e-03,10
-9.280e-03,9.2
-9.248e-03,9.2
-9.216e-03,8.4
-9.184e-03,7.6
-9.152e-03,7.6
-9.120e-03,6.8
-9.088e-03,6.8
-9.056e-03,6
-9.024e-03,5.2
-8.992e-03,5.2
-8.960e-03,5.2
-8.928e-03,3.6
-8.896e-03,3.6
-8.864e-03,2.8
-8.832e-03,2.8
-8.800e-03,2
-8.768e-03,2
-8.736e-03,1.2
-8.704e-03,0.4
-8.672e-03,0.4
-8.640e-03,-0.4
-8.608e-03,-0.4
-8.576e-03,-1.2
-8.544e-03,-2
-8.512e-03,-2
-8.480e-03,-2.8
-8.448e-03,-3.6
-8.416e-03,-3.6
-8.384e-03,-4.4
-8.352e-03,-5.2
-8.320e-03,-5.2
-8.288e-03,-5.2
-8.256e-03,-6
-8.224e-03,-6.8
-8.192e-03,-6.8
-8.160e-03,-8.4
-8.128e-03,-8.4
-8.096e-03,-9.2
-8.064e-03,-9.2
-8.032e-03,-10
-8.000e-03,-10
-7.968e-03,-10.8
-7.936e-03,-11.6
-7.904e-03,-11.6
-7.872e-03,-12.4
-7.840e-03,-12.4
-7.808e-03,-13.2
-7.776e-03,-14
-7.744e-03,-14
-7.712e-03,-14.8
-7.680e-03,-14.8
-7.648e-03,-15.6
-7.616e-03,-16.4
-7.584e-03,-16.4
-7.552e-03,-17.2
-7.520e-03,-18
-7.488e-03,-18
-7.456e-03,-18.8
-7.424e-03,-19.6
-7.392e-03,-19.6
-7.360e-03,-20.4
-7.328e-03,-20.4
-7.296e-03,-20.4
-7.264e-03,-22
-7.232e-03,-22
-7.200e-03,-22.8
-7.168e-03,-23.6
-7.136e-03,-23.6
-7.104e-03,-24.4
-7.072e-03,-24.4
-7.040e-03,-24.4
-7.008e-03,-25.2
-6.976e-03,-26
-6.944e-03,-26
-6.912e-03,-27.6
-6.880e-03,-27.6
-6.848e-03,-27.6
-6.816e-03,-28.4
-6.784e-03,-29.2
-6.752e-03,-29.2
-6.720e-03,-30
-6.688e-03,-30.8
-6.656e-03,-30.8
-6.624e-03,-31.6
-6.592e-03,-31.6
-6.560e-03,-32.4
-6.528e-03,-33.2
-6.496e-03,-33.2
-6.464e-03,-34
-6.432e-03,-34
-6.400e-03,-34.8
-6.368e-03,-34.8
-6.336e-03,-35.6
-6.304e-03,-36.4
-6.272e-03,-37.2
-6.240e-03,-37.2
-6.208e-03,-38
-6.176e-03,-38
-6.144e-03,-38.8
-6.112e-03,-39.6
-6.080e-03,-39.6
-6.048e-03,-40.4
-6.016e-03,-40.4
-5.984e-03,-42
-5.952e-03,-41.2
-5.920e-03,-42
-5.888e-03,-42.8
-5.856e-03,-42.8
-5.824e-03,-43.6
-5.792e-03,-43.6
-5.760e-03,-44.4
-5.728e-03,-45.2
-5.696e-03,-46
-5.664e-03,-46
-5.632e-03,-46.8
-5.600e-03,-46.8
-5.568e-03,-47.6
-5.536e-03,-47.6
-5.504e-03,-48.4
-5.472e-03,-49.2
-5.440e-03,-49.2
-5.408e-03,-50
-5.376e-03,-50
-5.344e-03,-51.6
-5.312e-03,-51.6
-5.280e-03,-51.6
-5.248e-03,-52.4
-5.216e-03,-53.2
-5.184e-03,-53.2
-5.152e-03,-54
-5.120e-03,-54
-5.088e-03,-54.8
-5.056e-03,-55.6
-5.024e-03,-55.6
-4.992e-03,-56.4
-4.960e-03,-56.4
-4.928e-03,-57.2
-4.896e-03,-58
-4.864e-03,-58
-4.832e-03,-58.8
-4.800e-03,-58.8
-4.768e-03,-59.6
-4.736e-03,-60.4
-4.704e-03,-60.4
-4.672e-03,-61.2
-4.640e-03,-62
-4.608e-03,-62
-4.576e-03,-62.8
-4.544e-03,-62.8
-4.512e-03,-63.6
-4.480e-03,-63.6
-4.448e-03,-64.4
-4.416e-03,-65.2
-4.384e-03,-65.2
-4.352e-03,-66
-4.320e-03,-66.8
-4.288e-03,-66.8
-4.256e-03,-67.6
-4.224e-03,-68.4
-4.192e-03,-68.4
-4.160e-03,-68.4
-4.128e-03,-68.4
-4.096e-03,-66.8
-4.064e-03,-66.8
-4.032e-03,-66
-4.000e-03,-66
-3.968e-03,-65.2
-3.936e-03,-64.4
-3.904e-03,-63.6
-3.872e-03,-62.8
-3.840e-03,-62.8
-3.808e-03,-62
-3.776e-03,-61.2
-3.744e-03,-60.4
-3.712e-03,-60.4
-3.680e-03,-59.6
-3.648e-03,-58.8
-3.616e-03,-58.8
-3.584e-03,-58
-3.552e-03,-58
-3.520e-03,-57.2
-3.488e-03,-56.4
-3.456e-03,-55.6
-3.424e-03,-54.8
-3.392e-03,-54.8
-3.360e-03,-54
-3.328e-03,-54
-3.296e-03,-53.2
-3.264e-03,-52.4
-3.232e-03,-52.4
-3.200e-03,-51.6
-3.168e-03,-50.8
-3.136e-03,-50.8
-3.104e-03,-50
-3.072e-03,-50
-3.040e-03,-49.2
-3.008e-03,-48.4
-2.976e-03,-47.6
-2.944e-03,-47.6
-2.912e-03,-46.8
-2.880e-03,-46.8
-2.848e-03,-46
-2.816e-03,-45.2
-2.784e-03,-44.4
-2.752e-03,-44.4
-2.720e-03,-43.6
-2.688e-03,-42.8
-2.656e-03,-42.8
-2.624e-03,-42
-2.592e-03,-42
-2.560e-03,-41.2
-2.528e-03,-41.2
-2.496e-03,-40.4
-2.464e-03,-39.6
-2.432e-03,-38.8
-2.400e-03,-38.8
-2.368e-03,-38
-2.336e-03,-37.2
-2.304e-03,-37.2
-2.272e-03,-36.4
-2.240e-03,-36.4
-2.208e-03,-35.6
-2.176e-03,-34.8
-2.144e-03,-34.8
-2.112e-03,-34
-2.080e-03,-33.2
-2.048e-03,-33.2
-2.016e-03,-32.4
-1.984e-03,-31.6
-1.952e-03,-31.6
-1.920e-03,-30.8
-1.888e-03,-30
-1.856e-03,-30
-1.824e-03,-29.2
-1.792e-03,-28.4
-1.760e-03,-28.4
-1.728e-03,-27.6
-1.696e-03,-27.6
-1.664e-03,-26.8
-1.632e-03,-26
-1.600e-03,-25.2
-1.568e-03,-25.2
-1.536e-03,-24.4
-1.504e-03,-24.4
-1.472e-03,-23.6
-1.440e-03,-22.8
-1.408e-03,-22.8
-1.376e-03,-22
-1.344e-03,-21.2
-1.312e-03,-21.2
-1.280e-03,-20.4
-1.248e-03,-20.4
-1.216e-03,-19.6
-1.184e-03,-19.6
-1.152e-03,-18.8
-1.120e-03,-18
-1.088e-03,-18
-1.056e-03,-17.2
-1.024e-03,-16.4
-9.920e-04,-16.4
-9.600e-04,-15.6
-9.280e-04,-15.6
-8.960e-04,-14.8
-8.640e-04,-14
-8.320e-04,-14
-8.000e-04,-13.2
-7.680e-04,-13.2
-7.360e-04,-12.4
-7.040e-04,-12.4
-6.720e-04,-10.8
-6.400e-04,-10.8
-6.080e-04,-10
-5.760e-04,-10
-5.440e-04,-9.2
-5.120e-04,-9.2
-4.800e-04,-8.4
-4.480e-04,-8.4
-4.160e-04,-7.6
-3.840e-04,-7.6
-3.520e-04,-6.8
-3.200e-04,-6
-2.880e-04,-5.2
-2.560e-04,-5.2
-2.240e-04,-4.4
-1.920e-04,-3.6
-1.600e-04,-3.6
-1.280e-04,-2.8
-9.600e-05,-2.8
-6.400e-05,-1.2
-3.200e-05,-1.2
4.880e-16,-1.2
3.200e-05,-0.4
6.400e-05,-0.4
9.600e-05,0.4
1.280e-04,1.2
1.600e-04,2
1.920e-04,2
2.240e-04,2.8
2.560e-04,2.8
2.880e-04,3.6
3.200e-04,3.6
3.520e-04,4.4
3.840e-04,5.2
4.160e-04,5.2
4.480e-04,6
4.800e-04,6
5.120e-04,6.8
5.440e-04,6.8
5.760e-04,7.6
6.080e-04,8.4
6.400e-04,8.4
6.720e-04,9.2
7.040e-04,10
7.360e-04,10
7.680e-04,10
8.000e-04,10.8
8.320e-04,11.6
8.640e-04,12.4
8.960e-04,12.4
9.280e-04,13.2
9.600e-04,13.2
9.920e-04,14
1.024e-03,14.8
1.056e-03,14.8
1.088e-03,15.6
1.120e-03,15.6
1.152e-03,16.4
1.184e-03,16.4
1.216e-03,17.2
1.248e-03,18
1.280e-03,18
1.312e-03,18.8
1.344e-03,18.8
1.376e-03,19.6
1.408e-03,20.4
1.440e-03,20.4
1.472e-03,21.2
1.504e-03,21.2
1.536e-03,22
1.568e-03,22
1.600e-03,22.8
1.632e-03,23.6
1.664e-03,24.4
1.696e-03,24.4
1.728e-03,25.2
1.760e-03,25.2
1.792e-03,26
1.824e-03,26
1.856e-03,26.8
1.888e-03,26.8
1.920e-03,27.6
1.952e-03,28.4
1.984e-03,29.2
2.016e-03,29.2
2.048e-03,29.2
2.080e-03,30
2.112e-03,30.8
2.144e-03,30.8
2.176e-03,31.6
2.208e-03,31.6
2.240e-03,32.4
2.272e-03,33.2
2.304e-03,34
2.336e-03,34
2.368e-03,34.8
2.400e-03,34.8
2.432e-03,35.6
2.464e-03,35.6
2.496e-03,36.4
2.528e-03,37.2
2.560e-03,37.2
2.592e-03,37.2
2.624e-03,38
2.656e-03,38.8
2.688e-03,39.6
2.720e-03,39.6
2.752e-03,40.4
2.784e-03,40.4
2.816e-03,41.2
2.848e-03,42
2.880e-03,42
2.912e-03,42.8
2.944e-03,42.8
2.976e-03,43.6
3.008e-03,43.6
3.040e-03,44.4
3.072e-03,45.2
3.104e-03,45.2
3.136e-03,46
3.168e-03,46
3.200e-03,46.8
3.232e-03,47.6
3.264e-03,47.6
3.296e-03,48.4
3.328e-03,48.4
3.360e-03,49.2
3.392e-03,49.2
3.424e-03,50
3.456e-03,50.8
3.488e-03,50.8
3.520e-03,51.6
3.552e-03,52.4
3.584e-03,53.2
3.616e-03,53.2
3.648e-03,53.2
3.680e-03,54
3.712e-03,54.8
3.744e-03,54.8
3.776e-03,55.6
3.808e-03,56.4
3.840e-03,56.4
3.872e-03,57.2
3.904e-03,57.2
3.936e-03,58
3.968e-03,58.8
4.000e-03,58.8
4.032e-03,58.8
4.064e-03,59.6
4.096e-03,60.4
4.128e-03,60.4
4.160e-03,61.2
4.192e-03,61.2
4.224e-03,62
4.256e-03,62.8
4.288e-03,62.8
4.320e-03,63.6
4.352e-03,63.6
4.384e-03,64.4
4.416e-03,65.2
4.448e-03,65.2
4.480e-03,66
4.512e-03,66.8
4.544e-03,66
4.576e-03,66
4.608e-03,65.2
4.640e-03,64.4
4.672e-03,63.6
4.704e-03,62.8
4.736e-03,62.8
4.768e-03,62
4.800e-03,61.2
4.832e-03,61.2
4.864e-03,61.2
4.896e-03,59.6
4.928e-03,58.8
4.960e-03,58.8
4.992e-03,58
5.024e-03,57.2
5.056e-03,56.4
5.088e-03,56.4
5.120e-03,55.6
5.152e-03,55.6
5.184e-03,54.8
5.216e-03,54.8
5.248e-03,53.2
5.280e-03,53.2
5.312e-03,52.4
5.344e-03,52.4
5.376e-03,51.6
5.408e-03,51.6
5.440e-03,50.8
5.472e-03,49.2
5.504e-03,49.2
5.536e-03,48.4
5.568e-03,48.4
5.600e-03,47.6
5.632e-03,46.8
5.664e-03,46.8
5.696e-03,46
5.728e-03,45.2
5.760e-03,45.2
5.792e-03,44.4
5.824e-03,43.6
5.856e-03,43.6
5.888e-03,42.8
5.920e-03,42
5.952e-03,42
5.984e-03,41.2
6.016e-03,40.4
6.048e-03,39.6
6.080e-03,39.6
6.112e-03,38.8
6.144e-03,38
6.176e-03,38
6.208e-03,37.2
6.240e-03,37.2
6.272e-03,36.4
6.304e-03,35.6
6.336e-03,34.8
6.368e-03,34.8
6.400e-03,34
6.432e-03,33.2
6.464e-03,33.2
6.496e-03,32.4
6.528e-03,32.4
6.560e-03,31.6
6.592e-03,30.8
6.624e-03,30.8
6.656e-03,30
6.688e-03,29.2
6.720e-03,29.2
6.752e-03,28.4
6.784e-03,27.6
6.816e-03,26.8
6.848e-03,26.8
6.880e-03,26
6.912e-03,26
6.944e-03,25.2
6.976e-03,24.4
7.008e-03,24.4
7.040e-03,23.6
7.072e-03,22.8
7.104e-03,22.8
7.136e-03,22
7.168e-03,22
7.200e-03,21.2
7.232e-03,20.4
7.264e-03,19.6
7.296e-03,19.6
7.328e-03,18.8
7.360e-03,18.8
7.392e-03,18
7.424e-03,17.2
7.456e-03,16.4
7.488e-03,16.4
7.520e-03,15.6
7.552e-03,15.6
7.584e-03,14.8
7.616e-03,14.8
7.648e-03,14
7.680e-03,13.2
7.712e-03,12.4
7.744e-03,12.4
7.776e-03,12.4
7.808e-03,11.6
7.840e-03,10.8
7.872e-03,10
7.904e-03,10
7.936e-03,9.2
7.968e-03,8.4
8.000e-03,8.4
8.032e-03,7.6
