Lab 2/2b/2b.4.CSV

Model,TBS1052C
Firmware Version,v2015-08-04-prequal4ch70_v1.3

Point Format,Y
Horizontal Units,S
Horizontal Scale,0.0001
Sample Interval,8e-07
Filter Frequency,2e+08
Record Length,2000
Gating,0.0% to 100.0%
Probe Attenuation,1
Vertical Units,V
Vertical Offset,0
Vertical Scale,1
Label,
TIME,CH1
-8.000e-04,0.4
-7.992e-04,0.36
-7.984e-04,0.28
-7.976e-04,0.24
-7.968e-04,0.2
-7.960e-04,0.12
-7.952e-04,0.08
-7.944e-04,0
-7.936e-04,0
-7.928e-04,-0.04
-7.920e-04,-0.12
-7.912e-04,-0.16
-7.904e-04,-0.2
-7.896e-04,-0.24
-7.888e-04,-0.28
-7.880e-04,-0.36
-7.872e-04,-0.4
-7.864e-04,-0.44
-7.856e-04,-0.52
-7.848e-04,-0.56
-7.840e-04,-0.6
-7.832e-04,-0.64
-7.824e-04,-0.68
-7.816e-04,-0.76
-7.808e-04,-0.8
-7.800e-04,-0.84
-7.792e-04,-0.88
-7.784e-04,-0.92
-7.776e-04,-0.96
-7.768e-04,-1
-7.760e-04,-1.04
-7.752e-04,-1.08
-7.744e-04,-1.16
-7.736e-04,-1.16
-7.728e-04,-1.2
-7.720e-04,-1.28
-7.712e-04,-1.32
-7.704e-04,-1.36
-7.696e-04,-1.36
-7.688e-04,-1.44
-7.680e-04,-1.48
-7.672e-04,-1.52
-7.664e-04,-1.56
-7.656e-04,-1.6
-7.648e-04,-1.64
-7.640e-04,-1.68
-7.632e-04,-1.72
-7.624e-04,-1.76
-7.616e-04,-1.8
-7.608e-04,-1.84
-7.600e-04,-1.88
-7.592e-04,-1.92
-7.584e-04,-1.96
-7.576e-04,-2
-7.568e-04,-2.04
-7.560e-04,-2.04
-7.552e-04,-2.08
-7.544e-04,-2.12
-7.536e-04,-2.2
-7.528e-04,-2.16
-7.520e-04,-2.2
-7.512e-04,-2.24
-7.504e-04,-2.28
-7.496e-04,-2.32
-7.488e-04,-2.32
-7.480e-04,-2.36
-7.472e-04,-2.44
-7.464e-04,-2.44
-7.456e-04,-2.48
-7.448e-04,-2.52
-7.440e-04,-2.56
-7.432e-04,-2.6
-7.424e-04,-2.64
-7.416e-04,-2.64
-7.408e-04,-2.68
-7.400e-04,-2.72
-7.392e-04,-2.72
-7.384e-04,-2.76
-7.376e-04,-2.8
-7.368e-04,-2.84
-7.360e-04,-2.88
-7.352e-04,-2.88
-7.344e-04,-2.92
-7.336e-04,-2.96
-7.328e-04,-2.96
-7.320e-04,-3
-7.312e-04,-3.04
-7.304e-04,-3.04
-7.296e-04,-3.08
-7.288e-04,-3.12
-7.280e-04,-3.16
-7.272e-04,-3.2
-7.264e-04,-3.2
-7.256e-04,-3.24
-7.248e-04,-3.28
-7.240e-04,-3.28
-7.232e-04,-3.28
-7.224e-04,-3.32
-7.216e-04,-3.32
-7.208e-04,-3.36
-7.200e-04,-3.36
-7.192e-04,-3.4
-7.184e-04,-3.04
-7.176e-04,-3.16
-7.168e-04,-3.16
-7.160e-04,-3.04
-7.152e-04,-3
-7.144e-04,-2.92
-7.136e-04,-2.84
-7.128e-04,-2.76
-7.120e-04,-2.68
-7.112e-04,-2.64
-7.104e-04,-2.52
-7.096e-04,-2.48
-7.088e-04,-2.4
-7.080e-04,-2.32
-7.072e-04,-2.28
-7.064e-04,-2.16
-7.056e-04,-2.12
-7.048e-04,-2.04
-7.040e-04,-2
-7.032e-04,-1.92
-7.024e-04,-1.84
-7.016e-04,-1.76
-7.008e-04,-1.72
-7.000e-04,-1.64
-6.992e-04,-1.56
-6.984e-04,-1.52
-6.976e-04,-1.44
-6.968e-04,-1.4
-6.960e-04,-1.32
-6.952e-04,-1.24
-6.944e-04,-1.2
-6.936e-04,-1.12
-6.928e-04,-1.04
-6.920e-04,-1
-6.912e-04,-0.92
-6.904e-04,-0.88
-6.896e-04,-0.8
-6.888e-04,-0.76
-6.880e-04,-0.72
-6.872e-04,-0.6
-6.864e-04,-0.56
-6.856e-04,-0.52
-6.848e-04,-0.48
-6.840e-04,-0.4
-6.832e-04,-0.32
-6.824e-04,-0.28
-6.816e-04,-0.28
-6.808e-04,-0.16
-6.800e-04,-0.12
-6.792e-04,-0.08
-6.784e-04,0
-6.776e-04,0.04
-6.768e-04,0.08
-6.760e-04,0.16
-6.752e-04,0.2
-6.744e-04,0.28
-6.736e-04,0.32
-6.728e-04,0.4
-6.720e-04,0.44
-6.712e-04,0.48
-6.704e-04,0.52
-6.696e-04,0.56
-6.688e-04,0.64
-6.680e-04,0.68
-6.672e-04,0.72
-6.664e-04,0.76
-6.656e-04,0.8
-6.648e-04,0.84
-6.640e-04,0.92
-6.632e-04,0.96
-6.624e-04,1
-6.616e-04,1.04
-6.608e-04,1.08
-6.600e-04,1.12
-6.592e-04,1.2
-6.584e-04,1.24
-6.576e-04,1.28
-6.568e-04,1.32
-6.560e-04,1.36
-6.552e-04,1.4
-6.544e-04,1.48
-6.536e-04,1.48
-6.528e-04,1.56
-6.520e-04,1.6
-6.512e-04,1.6
-6.504e-04,1.64
-6.496e-04,1.72
-6.488e-04,1.72
-6.480e-04,1.8
-6.472e-04,1.8
-6.464e-04,1.88
-6.456e-04,1.88
-6.448e-04,1.92
-6.440e-04,1.96
-6.432e-04,2
-6.424e-04,2.04
-6.416e-04,2.08
-6.408e-04,2.12
-6.400e-04,2.2
-6.392e-04,2.2
-6.384e-04,2.2
-6.376e-04,2.28
-6.368e-04,2.28
-6.360e-04,2.36
-6.352e-04,2.36
-6.344e-04,2.4
-6.336e-04,2.44
-6.328e-04,2.48
-6.320e-04,2.52
-6.312e-04,2.56
-6.304e-04,2.56
-6.296e-04,2.64
-6.288e-04,2.64
-6.280e-04,2.68
-6.272e-04,2.68
-6.264e-04,2.76
-6.256e-04,2.76
-6.248e-04,2.8
-6.240e-04,2.84
-6.232e-04,2.88
-6.224e-04,2.88
-6.216e-04,2.92
-6.208e-04,2.96
-6.200e-04,3.04
-6.192e-04,3
-6.184e-04,3.04
-6.176e-04,3.08
-6.168e-04,3.12
-6.160e-04,3.16
-6.152e-04,3.16
-6.144e-04,3.2
-6.136e-04,3.24
-6.128e-04,3.24
-6.120e-04,3.28
-6.112e-04,3.28
-6.104e-04,3.32
-6.096e-04,3.04
-6.088e-04,3.24
-6.080e-04,3.2
-6.072e-04,3.12
-6.064e-04,3.04
-6.056e-04,2.96
-6.048e-04,2.88
-6.040e-04,2.84
-6.032e-04,2.76
-6.024e-04,2.64
-6.016e-04,2.56
-6.008e-04,2.52
-6.000e-04,2.52
-5.992e-04,2.4
-5.984e-04,2.32
-5.976e-04,2.24
-5.968e-04,2.2
-5.960e-04,2.12
-5.952e-04,2.04
-5.944e-04,2
-5.936e-04,1.92
-5.928e-04,1.88
-5.920e-04,1.8
-5.912e-04,1.72
-5.904e-04,1.64
-5.896e-04,1.6
-5.888e-04,1.52
-5.880e-04,1.48
-5.872e-04,1.4
-5.864e-04,1.32
-5.856e-04,1.28
-5.848e-04,1.2
-5.840e-04,1.16
-5.832e-04,1.12
-5.824e-04,1.04
-5.816e-04,0.96
-5.808e-04,0.92
-5.800e-04,0.84
-5.792e-04,0.76
-5.784e-04,0.72
-5.776e-04,0.68
-5.768e-04,0.64
-5.760e-04,0.56
-5.752e-04,0.52
-5.744e-04,0.44
-5.736e-04,0.4
-5.728e-04,0.32
-5.720e-04,0.32
-5.712e-04,0.28
-5.704e-04,0.16
-5.696e-04,0.12
-5.688e-04,0.08
-5.680e-04,0.04
-5.672e-04,-0.04
-5.664e-04,-0.12
-5.656e-04,-0.12
-5.648e-04,-0.16
-5.640e-04,-0.24
-5.632e-04,-0.28
-5.624e-04,-0.32
-5.616e-04,-0.4
-5.608e-04,-0.4
-5.600e-04,-0.48
-5.592e-04,-0.52
-5.584e-04,-0.56
-5.576e-04,-0.6
-5.568e-04,-0.68
-5.560e-04,-0.68
-5.552e-04,-0.8
-5.544e-04,-0.8
-5.536e-04,-0.88
-5.528e-04,-0.88
-5.520e-04,-0.92
-5.512e-04,-1
-5.504e-04,-1.04
-5.496e-04,-1.08
-5.488e-04,-1.12
-5.480e-04,-1.16
-5.472e-04,-1.2
-5.464e-04,-1.24
-5.456e-04,-1.28
-5.448e-04,-1.32
-5.440e-04,-1.36
-5.432e-04,-1.4
-5.424e-04,-1.44
-5.416e-04,-1.48
-5.408e-04,-1.52
-5.400e-04,-1.56
-5.392e-04,-1.6
-5.384e-04,-1.68
-5.376e-04,-1.68
-5.368e-04,-1.72
-5.360e-04,-1.76
-5.352e-04,-1.8
-5.344e-04,-1.88
-5.336e-04,-1.88
-5.328e-04,-1.88
-5.320e-04,-1.96
-5.312e-04,-2
-5.304e-04,-2
-5.296e-04,-2.04
-5.288e-04,-2.04
-5.280e-04,-2.12
-5.272e-04,-2.16
-5.264e-04,-2.16
-5.256e-04,-2.2
-5.248e-04,-2.28
-5.240e-04,-2.32
-5.232e-04,-2.36
-5.224e-04,-2.36
-5.216e-04,-2.4
-5.208e-04,-2.44
-5.200e-04,-2.48
-5.192e-04,-2.52
-5.184e-04,-2.52
-5.176e-04,-2.56
-5.168e-04,-2.6
-5.160e-04,-2.6
-5.152e-04,-2.64
-5.144e-04,-2.68
-5.136e-04,-2.72
-5.128e-04,-2.76
-5.120e-04,-2.8
-5.112e-04,-2.8
-5.104e-04,-2.84
-5.096e-04,-2.84
-5.088e-04,-2.88
-5.080e-04,-2.92
-5.072e-04,-2.96
-5.064e-04,-3
-5.056e-04,-3
-5.048e-04,-3.04
-5.040e-04,-3.12
-5.032e-04,-3.08
-5.024e-04,-3.12
-5.016e-04,-3.16
-5.008e-04,-3.2
-5.000e-04,-3.2
-4.992e-04,-3.2
-4.984e-04,-3.24
-4.976e-04,-3.24
-4.968e-04,-3.32
-4.960e-04,-3.32
-4.952e-04,-3.32
-4.944e-04,-3.36
-4.936e-04,-3.36
-4.928e-04,-3.28
-4.920e-04,-3.04
-4.912e-04,-3.16
-4.904e-04,-3.16
-4.896e-04,-3.04
-4.888e-04,-3
-4.880e-04,-2.92
-4.872e-04,-2.84
-4.864e-04,-2.8
-4.856e-04,-2.68
-4.848e-04,-2.6
-4.840e-04,-2.52
-4.832e-04,-2.48
-4.824e-04,-2.4
-4.816e-04,-2.32
-4.808e-04,-2.24
-4.800e-04,-2.16
-4.792e-04,-2.08
-4.784e-04,-2
-4.776e-04,-2
-4.768e-04,-1.92
-4.760e-04,-1.84
-4.752e-04,-1.76
-4.744e-04,-1.68
-4.736e-04,-1.64
-4.728e-04,-1.56
-4.720e-04,-1.52
-4.712e-04,-1.44
-4.704e-04,-1.36
-4.696e-04,-1.28
-4.688e-04,-1.24
-4.680e-04,-1.16
-4.672e-04,-1.12
-4.664e-04,-1.04
-4.656e-04,-1
-4.648e-04,-0.92
-4.640e-04,-0.88
-4.632e-04,-0.8
-4.624e-04,-0.72
-4.616e-04,-0.68
-4.608e-04,-0.6
-4.600e-04,-0.56
-4.592e-04,-0.48
-4.584e-04,-0.44
-4.576e-04,-0.4
-4.568e-04,-0.32
-4.560e-04,-0.24
-4.552e-04,-0.24
-4.544e-04,-0.16
-4.536e-04,-0.12
-4.528e-04,-0.08
-4.520e-04,0
-4.512e-04,0.04
-4.504e-04,0.08
-4.496e-04,0.16
-4.488e-04,0.2
-4.480e-04,0.24
-4.472e-04,0.32
-4.464e-04,0.36
-4.456e-04,0.44
-4.448e-04,0.48
-4.440e-04,0.52
-4.432e-04,0.56
-4.424e-04,0.6
-4.416e-04,0.68
-4.408e-04,0.72
-4.400e-04,0.8
-4.392e-04,0.84
-4.384e-04,0.84
-4.376e-04,0.92
-4.368e-04,0.96
-4.360e-04,1
-4.352e-04,1.08
-4.344e-04,1.08
-4.336e-04,1.16
-4.328e-04,1.2
-4.320e-04,1.24
-4.312e-04,1.24
-4.304e-04,1.32
-4.296e-04,1.36
-4.288e-04,1.4
-4.280e-04,1.44
-4.272e-04,1.48
-4.264e-04,1.56
-4.256e-04,1.6
-4.248e-04,1.64
-4.240e-04,1.68
-4.232e-04,1.72
-4.224e-04,1.76
-4.216e-04,1.76
-4.208e-04,1.84
-4.200e-04,1.84
-4.192e-04,1.88
-4.184e-04,1.92
-4.176e-04,2
-4.168e-04,2
-4.160e-04,2.08
-4.152e-04,2.08
-4.144e-04,2.12
-4.136e-04,2.16
-4.128e-04,2.2
-4.120e-04,2.2
-4.112e-04,2.28
-4.104e-04,2.32
-4.096e-04,2.32
-4.088e-04,2.4
-4.080e-04,2.4
-4.072e-04,2.44
-4.064e-04,2.48
-4.056e-04,2.52
-4.048e-04,2.56
-4.040e-04,2.6
-4.032e-04,2.6
-4.024e-04,2.64
-4.016e-04,2.68
-4.008e-04,2.72
-4.000e-04,2.72
-3.992e-04,2.76
-3.984e-04,2.8
-3.976e-04,2.84
-3.968e-04,2.88
-3.960e-04,2.88
-3.952e-04,2.92
-3.944e-04,2.96
-3.936e-04,3
-3.928e-04,3
-3.920e-04,3.08
-3.912e-04,3.12
-3.904e-04,3.12
-3.896e-04,3.12
-3.888e-04,3.16
-3.880e-04,3.24
-3.872e-04,3.24
-3.864e-04,3.24
-3.856e-04,3.28
-3.848e-04,3.28
-3.840e-04,3.04
-3.832e-04,3.08
-3.824e-04,3.24
-3.816e-04,3.2
-3.808e-04,3.08
-3.800e-04,3
-3.792e-04,2.96
-3.784e-04,2.88
-3.776e-04,2.8
-3.768e-04,2.72
-3.760e-04,2.68
-3.752e-04,2.6
-3.744e-04,2.52
-3.736e-04,2.48
-3.728e-04,2.4
-3.720e-04,2.32
-3.712e-04,2.24
-3.704e-04,2.16
-3.696e-04,2.12
-3.688e-04,2.04
-3.680e-04,1.96
-3.672e-04,1.88
-3.664e-04,1.84
-3.656e-04,1.8
-3.648e-04,1.72
-3.640e-04,1.64
-3.632e-04,1.6
-3.624e-04,1.52
-3.616e-04,1.48
-3.608e-04,1.4
-3.600e-04,1.32
-3.592e-04,1.24
-3.584e-04,1.2
-3.576e-04,1.12
-3.568e-04,1.08
-3.560e-04,1
-3.552e-04,0.96
-3.544e-04,0.88
-3.536e-04,0.84
-3.528e-04,0.8
-3.520e-04,0.72
-3.512e-04,0.64
-3.504e-04,0.6
-3.496e-04,0.56
-3.488e-04,0.52
-3.480e-04,0.44
-3.472e-04,0.4
-3.464e-04,0.36
-3.456e-04,0.28
-3.448e-04,0.24
-3.440e-04,0.16
-3.432e-04,0.12
-3.424e-04,0.04
-3.416e-04,0
-3.408e-04,-0.08
-3.400e-04,-0.08
-3.392e-04,-0.12
-3.384e-04,-0.2
-3.376e-04,-0.24
-3.368e-04,-0.32
-3.360e-04,-0.32
-3.352e-04,-0.4
-3.344e-04,-0.44
-3.336e-04,-0.48
-3.328e-04,-0.52
-3.320e-04,-0.56
-3.312e-04,-0.6
-3.304e-04,-0.68
-3.296e-04,-0.68
-3.288e-04,-0.76
-3.280e-04,-0.84
-3.272e-04,-0.88
-3.264e-04,-0.92
-3.256e-04,-0.96
-3.248e-04,-0.96
-3.240e-04,-1.04
-3.232e-04,-1.08
-3.224e-04,-1.12
-3.216e-04,-1.16
-3.208e-04,-1.2
-3.200e-04,-1.28
-3.192e-04,-1.28
-3.184e-04,-1.32
-3.176e-04,-1.36
-3.168e-04,-1.4
-3.160e-04,-1.44
-3.152e-04,-1.52
-3.144e-04,-1.52
-3.136e-04,-1.6
-3.128e-04,-1.64
-3.120e-04,-1.64
-3.112e-04,-1.72
-3.104e-04,-1.72
-3.096e-04,-1.76
-3.088e-04,-1.8
-3.080e-04,-1.84
-3.072e-04,-1.92
-3.064e-04,-1.88
-3.056e-04,-1.96
-3.048e-04,-1.96
-3.040e-04,-2.04
-3.032e-04,-2.08
-3.024e-04,-2.12
-3.016e-04,-2.12
-3.008e-04,-2.16
-3.000e-04,-2.2
-2.992e-04,-2.24
-2.984e-04,-2.24
-2.976e-04,-2.28
-2.968e-04,-2.32
-2.960e-04,-2.36
-2.952e-04,-2.4
-2.944e-04,-2.44
-2.936e-04,-2.48
-2.928e-04,-2.52
-2.920e-04,-2.56
-2.912e-04,-2.56
-2.904e-04,-2.6
-2.896e-04,-2.6
-2.888e-04,-2.64
-2.880e-04,-2.68
-2.872e-04,-2.72
-2.864e-04,-2.76
-2.856e-04,-2.76
-2.848e-04,-2.8
-2.840e-04,-2.84
-2.832e-04,-2.88
-2.824e-04,-2.92
-2.816e-04,-2.96
-2.808e-04,-2.96
-2.800e-04,-3
-2.792e-04,-3
-2.784e-04,-3.08
-2.776e-04,-3.08
-2.768e-04,-3.08
-2.760e-04,-3.12
-2.752e-04,-3.16
-2.744e-04,-3.16
-2.736e-04,-3.2
-2.728e-04,-3.2
-2.720e-04,-3.28
-2.712e-04,-3.32
-2.704e-04,-3.32
-2.696e-04,-3.32
-2.688e-04,-3.36
-2.680e-04,-3.36
-2.672e-04,-3.4
-2.664e-04,-2.92
-2.656e-04,-3.12
-2.648e-04,-3.2
-2.640e-04,-3.12
-2.632e-04,-3.04
-2.624e-04,-3
-2.616e-04,-2.88
-2.608e-04,-2.84
-2.600e-04,-2.76
-2.592e-04,-2.68
-2.584e-04,-2.6
-2.576e-04,-2.52
-2.568e-04,-2.44
-2.560e-04,-2.36
-2.552e-04,-2.28
-2.544e-04,-2.24
-2.536e-04,-2.16
-2.528e-04,-2.12
-2.520e-04,-2
-2.512e-04,-1.96
-2.504e-04,-1.88
-2.496e-04,-1.84
-2.488e-04,-1.76
-2.480e-04,-1.68
-2.472e-04,-1.6
-2.464e-04,-1.56
-2.456e-04,-1.48
-2.448e-04,-1.4
-2.440e-04,-1.36
-2.432e-04,-1.28
-2.424e-04,-1.24
-2.416e-04,-1.16
-2.408e-04,-1.12
-2.400e-04,-1.04
-2.392e-04,-0.96
-2.384e-04,-0.92
-2.376e-04,-0.84
-2.368e-04,-0.8
-2.360e-04,-0.72
-2.352e-04,-0.64
-2.344e-04,-0.64
-2.336e-04,-0.56
-2.328e-04,-0.52
-2.320e-04,-0.44
-2.312e-04,-0.36
-2.304e-04,-0.32
-2.296e-04,-0.28
-2.288e-04,-0.2
-2.280e-04,-0.16
-2.272e-04,-0.08
-2.264e-04,-0.04
-2.256e-04,0
-2.248e-04,0.08
-2.240e-04,0.12
-2.232e-04,0.16
-2.224e-04,0.2
-2.216e-04,0.28
-2.208e-04,0.36
-2.200e-04,0.4
-2.192e-04,0.4
-2.184e-04,0.48
-2.176e-04,0.52
-2.168e-04,0.6
-2.160e-04,0.6
-2.152e-04,0.68
-2.144e-04,0.72
-2.136e-04,0.76
-2.128e-04,0.8
-2.120e-04,0.88
-2.112e-04,0.92
-2.104e-04,0.96
-2.096e-04,1
-2.088e-04,1.04
-2.080e-04,1.08
-2.072e-04,1.16
-2.064e-04,1.2
-2.056e-04,1.24
-2.048e-04,1.32
-2.040e-04,1.32
-2.032e-04,1.36
-2.024e-04,1.4
-2.016e-04,1.48
-2.008e-04,1.52
-2.000e-04,1.56
-1.992e-04,1.6
-1.984e-04,1.64
-1.976e-04,1.68
-1.968e-04,1.72
-1.960e-04,1.76
-1.952e-04,1.8
-1.944e-04,1.84
-1.936e-04,1.88
-1.928e-04,1.92
-1.920e-04,1.96
-1.912e-04,2
-1.904e-04,2
-1.896e-04,2.08
-1.888e-04,2.12
-1.880e-04,2.12
-1.872e-04,2.16
-1.864e-04,2.2
-1.856e-04,2.28
-1.848e-04,2.32
-1.840e-04,2.32
-1.832e-04,2.32
-1.824e-04,2.36
-1.816e-04,2.44
-1.808e-04,2.48
-1.800e-04,2.48
-1.792e-04,2.52
-1.784e-04,2.56
-1.776e-04,2.6
-1.768e-04,2.6
-1.760e-04,2.64
-1.752e-04,2.64
-1.744e-04,2.68
-1.736e-04,2.76
-1.728e-04,2.76
-1.720e-04,2.8
-1.712e-04,2.84
-1.704e-04,2.88
-1.696e-04,2.92
-1.688e-04,2.96
-1.680e-04,3
-1.672e-04,3
-1.664e-04,3.04
-1.656e-04,3.08
-1.648e-04,3.12
-1.640e-04,3.12
-1.632e-04,3.16
-1.624e-04,3.2
-1.616e-04,3.2
-1.608e-04,3.24
-1.600e-04,3.28
-1.592e-04,3.28
-1.584e-04,3.32
-1.576e-04,2.8
-1.568e-04,3.12
-1.560e-04,3.2
-1.552e-04,3.16
-1.544e-04,3.12
-1.536e-04,3
-1.528e-04,2.92
-1.520e-04,2.84
-1.512e-04,2.8
-1.504e-04,2.72
-1.496e-04,2.64
-1.488e-04,2.56
-1.480e-04,2.56
-1.472e-04,2.44
-1.464e-04,2.4
-1.456e-04,2.28
-1.448e-04,2.24
-1.440e-04,2.16
-1.432e-04,2.08
-1.424e-04,2
-1.416e-04,1.92
-1.408e-04,1.88
-1.400e-04,1.88
-1.392e-04,1.8
-1.384e-04,1.72
-1.376e-04,1.64
-1.368e-04,1.56
-1.360e-04,1.52
-1.352e-04,1.48
-1.344e-04,1.36
-1.336e-04,1.32
-1.328e-04,1.24
-1.320e-04,1.2
-1.312e-04,1.16
-1.304e-04,1.08
-1.296e-04,1
-1.288e-04,0.96
-1.280e-04,0.92
-1.272e-04,0.84
-1.264e-04,0.8
-1.256e-04,0.72
-1.248e-04,0.68
-1.240e-04,0.6
-1.232e-04,0.52
-1.224e-04,0.48
-1.216e-04,0.44
-1.208e-04,0.36
-1.200e-04,0.32
-1.192e-04,0.28
-1.184e-04,0.2
-1.176e-04,0.16
-1.168e-04,0.12
-1.160e-04,0.04
-1.152e-04,0
-1.144e-04,-0.08
-1.136e-04,-0.08
-1.128e-04,-0.16
-1.120e-04,-0.2
-1.112e-04,-0.24
-1.104e-04,-0.28
-1.096e-04,-0.32
-1.088e-04,-0.36
-1.080e-04,-0.44
-1.072e-04,-0.52
-1.064e-04,-0.52
-1.056e-04,-0.6
-1.048e-04,-0.6
-1.040e-04,-0.68
-1.032e-04,-0.72
-1.024e-04,-0.76
-1.016e-04,-0.84
-1.008e-04,-0.88
-1.000e-04,-0.92
-9.920e-05,-0.96
-9.840e-05,-1
-9.760e-05,-1.04
-9.680e-05,-1.08
-9.600e-05,-1.12
-9.520e-05,-1.2
-9.440e-05,-1.2
-9.360e-05,-1.28
-9.280e-05,-1.28
-9.200e-05,-1.36
-9.120e-05,-1.4
-9.040e-05,-1.4
-8.960e-05,-1.48
-8.880e-05,-1.52
-8.800e-05,-1.56
-8.720e-05,-1.6
-8.640e-05,-1.6
-8.560e-05,-1.64
-8.480e-05,-1.68
-8.400e-05,-1.76
-8.320e-05,-1.76
-8.240e-05,-1.8
-8.160e-05,-1.84
-8.080e-05,-1.88
-8.000e-05,-1.92
-7.920e-05,-1.96
-7.840e-05,-2
-7.760e-05,-2.04
-7.680e-05,-2.04
-7.600e-05,-2.12
-7.520e-05,-2.12
-7.440e-05,-2.16
-7.360e-05,-2.2
-7.280e-05,-2.24
-7.200e-05,-2.28
-7.120e-05,-2.28
-7.040e-05,-2.32
-6.960e-05,-2.36
-6.880e-05,-2.4
-6.800e-05,-2.44
-6.720e-05,-2.48
-6.640e-05,-2.48
-6.560e-05,-2.52
-6.480e-05,-2.56
-6.400e-05,-2.6
-6.320e-05,-2.64
-6.240e-05,-2.68
-6.160e-05,-2.68
-6.080e-05,-2.72
-6.000e-05,-2.76
-5.920e-05,-2.8
-5.840e-05,-2.84
-5.760e-05,-2.84
-5.680e-05,-2.88
-5.600e-05,-2.92
-5.520e-05,-2.96
-5.440e-05,-2.96
-5.360e-05,-2.96
-5.280e-05,-3
-5.200e-05,-3.08
-5.120e-05,-3.08
-5.040e-05,-3.12
-4.960e-05,-3.12
-4.880e-05,-3.16
-4.800e-05,-3.2
-4.720e-05,-3.2
-4.640e-05,-3.2
-4.560e-05,-3.28
-4.480e-05,-3.28
-4.400e-05,-3.32
-4.320e-05,-3.32
-4.240e-05,-3.36
-4.160e-05,-3.36
-4.080e-05,-3.4
-4.000e-05,-2.84
-3.920e-05,-3.12
-3.840e-05,-3.16
-3.760e-05,-3.12
-3.680e-05,-3.04
-3.600e-05,-2.96
-3.520e-05,-2.88
-3.440e-05,-2.8
-3.360e-05,-2.72
-3.280e-05,-2.68
-3.200e-05,-2.6
-3.120e-05,-2.48
-3.040e-05,-2.44
-2.960e-05,-2.36
-2.880e-05,-2.28
-2.800e-05,-2.2
-2.720e-05,-2.16
-2.640e-05,-2.08
-2.560e-05,-2
-2.480e-05,-1.96
-2.400e-05,-1.84
-2.320e-05,-1.8
-2.240e-05,-1.72
-2.160e-05,-1.68
-2.080e-05,-1.64
-2.000e-05,-1.56
-1.920e-05,-1.48
-1.840e-05,-1.4
-1.760e-05,-1.32
-1.680e-05,-1.28
-1.600e-05,-1.2
-1.520e-05,-1.16
-1.440e-05,-1.08
-1.360e-05,-1.04
-1.280e-05,-0.96
-1.200e-05,-0.88
-1.120e-05,-0.84
-1.040e-05,-0.8
-9.600e-06,-0.72
-8.800e-06,-0.68
-8.000e-06,-0.64
-7.200e-06,-0.56
-6.400e-06,-0.48
-5.600e-06,-0.44
-4.800e-06,-0.4
-4.000e-06,-0.32
-3.200e-06,-0.24
-2.400e-06,-0.2
-1.600e-06,-0.16
-8.000e-07,-0.12
1.278e-17,-0.04
8.000e-07,0
1.600e-06,0.08
2.400e-06,0.08
3.200e-06,0.16
4.000e-06,0.24
4.800e-06,0.28
5.600e-06,0.36
6.400e-06,0.4
7.200e-06,0.44
8.000e-06,0.52
8.800e-06,0.56
9.600e-06,0.6
1.040e-05,0.64
1.120e-05,0.68
1.200e-05,0.72
1.280e-05,0.8
1.360e-05,0.84
1.440e-05,0.88
1.520e-05,0.92
1.600e-05,0.96
1.680e-05,1.04
1.760e-05,1.08
1.840e-05,1.12
1.920e-05,1.12
2.000e-05,1.2
2.080e-05,1.28
2.160e-05,1.32
2.240e-05,1.36
2.320e-05,1.36
2.400e-05,1.4
2.480e-05,1.48
2.560e-05,1.52
2.640e-05,1.56
2.720e-05,1.6
2.800e-05,1.64
2.880e-05,1.68
2.960e-05,1.72
3.040e-05,1.76
3.120e-05,1.8
3.200e-05,1.8
3.280e-05,1.88
3.360e-05,1.92
3.440e-05,1.96
3.520e-05,2
3.600e-05,2
3.680e-05,2.04
3.760e-05,2.08
3.840e-05,2.12
3.920e-05,2.16
4.000e-05,2.24
4.080e-05,2.24
4.160e-05,2.32
4.240e-05,2.32
4.320e-05,2.36
4.400e-05,2.4
4.480e-05,2.4
4.560e-05,2.44
4.640e-05,2.48
4.720e-05,2.52
4.800e-05,2.56
4.880e-05,2.6
4.960e-05,2.6
5.040e-05,2.64
5.120e-05,2.68
5.200e-05,2.76
5.280e-05,2.8
5.360e-05,2.8
5.440e-05,2.8
5.520e-05,2.88
5.600e-05,2.88
5.680e-05,2.92
5.760e-05,2.96
5.840e-05,2.96
5.920e-05,3
6.000e-05,3.04
6.080e-05,3.08
6.160e-05,3.12
6.240e-05,3.12
6.320e-05,3.12
6.400e-05,3.2
6.480e-05,3.2
6.560e-05,3.28
6.640e-05,3.24
6.720e-05,3.28
6.800e-05,3.32
6.880e-05,2.72
6.960e-05,3.2
7.040e-05,3.2
7.120e-05,3.12
7.200e-05,3.08
7.280e-05,3
7.360e-05,2.92
7.440e-05,2.84
7.520e-05,2.76
7.600e-05,2.68
7.680e-05,2.64
7.760e-05,2.56
7.840e-05,2.52
7.920e-05,2.44
8.000e-05,2.36
8.080e-05,2.32
8.160e-05,2.24
8.240e-05,2.16
8.320e-05,2.08
8.400e-05,2
8.480e-05,1.96
8.560e-05,1.88
8.640e-05,1.84
8.720e-05,1.76
8.800e-05,1.68
8.880e-05,1.64
8.960e-05,1.6
9.040e-05,1.52
9.120e-05,1.44
9.200e-05,1.36
9.280e-05,1.32
9.360e-05,1.28
9.440e-05,1.2
9.520e-05,1.12
9.600e-05,1.04
9.680e-05,1.04
9.760e-05,0.96
9.840e-05,0.92
9.920e-05,0.8
1.000e-04,0.76
1.008e-04,0.72
1.016e-04,0.68
1.024e-04,0.6
1.032e-04,0.52
1.040e-04,0.48
1.048e-04,0.44
1.056e-04,0.4
1.064e-04,0.32
1.072e-04,0.28
1.080e-04,0.2
1.088e-04,0.16
1.096e-04,0.08
1.104e-04,0.04
1.112e-04,-0.04
1.120e-04,-0.04
1.128e-04,-0.12
1.136e-04,-0.16
1.144e-04,-0.2
1.152e-04,-0.24
1.160e-04,-0.28
1.168e-04,-0.36
1.176e-04,-0.4
1.184e-04,-0.44
1.192e-04,-0.52
1.200e-04,-0.52
1.208e-04,-0.6
1.216e-04,-0.64
1.224e-04,-0.68
1.232e-04,-0.76
1.240e-04,-0.8
1.248e-04,-0.84
1.256e-04,-0.88
1.264e-04,-0.92
1.272e-04,-0.96
1.280e-04,-1
1.288e-04,-1.04
1.296e-04,-1.08
1.304e-04,-1.12
1.312e-04,-1.2
1.320e-04,-1.2
1.328e-04,-1.28
1.336e-04,-1.32
1.344e-04,-1.32
1.352e-04,-1.4
1.360e-04,-1.44
1.368e-04,-1.48
1.376e-04,-1.52
1.384e-04,-1.56
1.392e-04,-1.56
1.400e-04,-1.64
1.408e-04,-1.68
1.416e-04,-1.68
1.424e-04,-1.76
1.432e-04,-1.76
1.440e-04,-1.84
1.448e-04,-1.88
1.456e-04,-1.92
1.464e-04,-1.92
1.472e-04,-1.96
1.480e-04,-2
1.488e-04,-2.04
1.496e-04,-2.08
1.504e-04,-2.12
1.512e-04,-2.12
1.520e-04,-2.16
1.528e-04,-2.2
1.536e-04,-2.24
1.544e-04,-2.28
1.552e-04,-2.28
1.560e-04,-2.36
1.568e-04,-2.4
1.576e-04,-2.44
1.584e-04,-2.44
1.592e-04,-2.48
1.600e-04,-2.52
1.608e-04,-2.56
1.616e-04,-2.6
1.624e-04,-2.6
1.632e-04,-2.64
1.640e-04,-2.68
1.648e-04,-2.72
1.656e-04,-2.72
1.664e-04,-2.76
1.672e-04,-2.8
1.680e-04,-2.8
1.688e-04,-2.84
1.696e-04,-2.88
1.704e-04,-2.92
1.712e-04,-2.96
1.720e-04,-3
1.728e-04,-3
1.736e-04,-3.04
1.744e-04,-3.04
1.752e-04,-3.04
1.760e-04,-3.12
1.768e-04,-3.16
1.776e-04,-3.16
1.784e-04,-3.2
1.792e-04,-3.2
1.800e-04,-3.24
1.808e-04,-3.28
1.816e-04,-3.32
