Lab 2/2b/2b.6.CSV

Model,TBS1052C
Firmware Version,v2015-08-04-prequal4ch70_v1.3

Point Format,Y
Horizontal Units,S
Horizontal Scale,0.002
Sample Interval,1.6e-05
Filter Frequency,2e+08
Record Length,2000
Gating,0.0% to 100.0%
Probe Attenuation,1
Vertical Units,V
Vertical Offset,0
Vertical Scale,0.1
Label,
TIME,CH1
-1.600e-02,-0.296
-1.598e-02,-0.3
-1.597e-02,-0.296
-1.595e-02,-0.32
-1.594e-02,-0.32
-1.592e-02,-0.3
-1.590e-02,-0.312
-1.589e-02,-0.292
-1.587e-02,-0.272
-1.586e-02,-0.312
-1.584e-02,-0.296
-1.582e-02,-0.3
-1.581e-02,-0.308
-1.579e-02,-0.308
-1.578e-02,-0.296
-1.576e-02,-0.304
-1.574e-02,-0.284
-1.573e-02,-0.3
-1.571e-02,-0.316
-1.570e-02,-0.308
-1.568e-02,-0.288
-1.566e-02,-0.284
-1.565e-02,-0.292
-1.563e-02,-0.284
-1.562e-02,-0.3
-1.560e-02,-0.3
-1.558e-02,-0.312
-1.557e-02,-0.288
-1.555e-02,-0.308
-1.554e-02,-0.284
-1.552e-02,-0.304
-1.550e-02,-0.312
-1.549e-02,-0.312
-1.547e-02,-0.3
-1.546e-02,-0.284
-1.544e-02,-0.292
-1.542e-02,-0.288
-1.541e-02,-0.3
-1.539e-02,-0.304
-1.538e-02,-0.296
-1.536e-02,-0.292
-1.534e-02,-0.288
-1.533e-02,-0.304
-1.531e-02,-0.296
-1.530e-02,-0.308
-1.528e-02,-0.248
-1.526e-02,-0.16
-1.525e-02,-0.084
-1.523e-02,-0.032
-1.522e-02,0.004
-1.520e-02,0.036
-1.518e-02,0.1
-1.517e-02,0.128
-1.515e-02,0.156
-1.514e-02,0.172
-1.512e-02,0.176
-1.510e-02,0.2
-1.509e-02,0.212
-1.507e-02,0.232
-1.506e-02,0.24
-1.504e-02,0.248
-1.502e-02,0.26
-1.501e-02,0.26
-1.499e-02,0.256
-1.498e-02,0.28
-1.496e-02,0.292
-1.494e-02,0.276
-1.493e-02,0.268
-1.491e-02,0.268
-1.490e-02,0.276
-1.488e-02,0.284
-1.486e-02,0.3
-1.485e-02,0.288
-1.483e-02,0.296
-1.482e-02,0.284
-1.480e-02,0.272
-1.478e-02,0.308
-1.477e-02,0.296
-1.475e-02,0.292
-1.474e-02,0.284
-1.472e-02,0.292
-1.470e-02,0.304
-1.469e-02,0.32
-1.467e-02,0.312
-1.466e-02,0.308
-1.464e-02,0.296
-1.462e-02,0.304
-1.461e-02,0.304
-1.459e-02,0.288
-1.458e-02,0.292
-1.456e-02,0.316
-1.454e-02,0.308
-1.453e-02,0.296
-1.451e-02,0.308
-1.450e-02,0.296
-1.448e-02,0.316
-1.446e-02,0.308
-1.445e-02,0.296
-1.443e-02,0.304
-1.442e-02,0.324
-1.440e-02,0.312
-1.438e-02,0.308
-1.437e-02,0.292
-1.435e-02,0.3
-1.434e-02,0.312
-1.432e-02,0.296
-1.430e-02,0.32
-1.429e-02,0.3
-1.427e-02,0.292
-1.426e-02,0.312
-1.424e-02,0.296
-1.422e-02,0.308
-1.421e-02,0.304
-1.419e-02,0.3
-1.418e-02,0.312
-1.416e-02,0.3
-1.414e-02,0.308
-1.413e-02,0.308
-1.411e-02,0.316
-1.410e-02,0.292
-1.408e-02,0.304
-1.406e-02,0.304
-1.405e-02,0.308
-1.403e-02,0.316
-1.402e-02,0.3
-1.400e-02,0.308
-1.398e-02,0.32
-1.397e-02,0.292
-1.395e-02,0.304
-1.394e-02,0.316
-1.392e-02,0.308
-1.390e-02,0.308
-1.389e-02,0.312
-1.387e-02,0.304
-1.386e-02,0.3
-1.384e-02,0.312
-1.382e-02,0.284
-1.381e-02,0.308
-1.379e-02,0.3
-1.378e-02,0.32
-1.376e-02,0.316
-1.374e-02,0.316
-1.373e-02,0.292
-1.371e-02,0.312
-1.370e-02,0.316
-1.368e-02,0.296
-1.366e-02,0.312
-1.365e-02,0.316
-1.363e-02,0.296
-1.362e-02,0.316
-1.360e-02,0.3
-1.358e-02,0.3
-1.357e-02,0.304
-1.355e-02,0.308
-1.354e-02,0.308
-1.352e-02,0.324
-1.350e-02,0.316
-1.349e-02,0.304
-1.347e-02,0.292
-1.346e-02,0.308
-1.344e-02,0.292
-1.342e-02,0.324
-1.341e-02,0.296
-1.339e-02,0.304
-1.338e-02,0.304
-1.336e-02,0.3
-1.334e-02,0.304
-1.333e-02,0.3
-1.331e-02,0.304
-1.330e-02,0.284
-1.328e-02,0.304
-1.326e-02,0.292
-1.325e-02,0.284
-1.323e-02,0.3
-1.322e-02,0.296
-1.320e-02,0.284
-1.318e-02,0.308
-1.317e-02,0.308
-1.315e-02,0.304
-1.314e-02,0.312
-1.312e-02,0.312
-1.310e-02,0.312
-1.309e-02,0.296
-1.307e-02,0.308
-1.306e-02,0.308
-1.304e-02,0.308
-1.302e-02,0.312
-1.301e-02,0.3
-1.299e-02,0.312
-1.298e-02,0.32
-1.296e-02,0.312
-1.294e-02,0.304
-1.293e-02,0.284
-1.291e-02,0.292
-1.290e-02,0.304
-1.288e-02,0.284
-1.286e-02,0.312
-1.285e-02,0.32
-1.283e-02,0.268
-1.282e-02,0.216
-1.280e-02,0.16
-1.278e-02,0.064
-1.277e-02,0.04
-1.275e-02,-0.02
-1.274e-02,-0.06
-1.272e-02,-0.104
-1.270e-02,-0.14
-1.269e-02,-0.152
-1.267e-02,-0.156
-1.266e-02,-0.184
-1.264e-02,-0.196
-1.262e-02,-0.22
-1.261e-02,-0.236
-1.259e-02,-0.232
-1.258e-02,-0.264
-1.256e-02,-0.24
-1.254e-02,-0.264
-1.253e-02,-0.276
-1.251e-02,-0.264
-1.250e-02,-0.272
-1.248e-02,-0.272
-1.246e-02,-0.28
-1.245e-02,-0.264
-1.243e-02,-0.284
-1.242e-02,-0.28
-1.240e-02,-0.284
-1.238e-02,-0.292
-1.237e-02,-0.292
-1.235e-02,-0.288
-1.234e-02,-0.308
-1.232e-02,-0.288
-1.230e-02,-0.296
-1.229e-02,-0.304
-1.227e-02,-0.308
-1.226e-02,-0.3
-1.224e-02,-0.296
-1.222e-02,-0.308
-1.221e-02,-0.264
-1.219e-02,-0.288
-1.218e-02,-0.296
-1.216e-02,-0.308
-1.214e-02,-0.3
-1.213e-02,-0.296
-1.211e-02,-0.284
-1.210e-02,-0.288
-1.208e-02,-0.304
-1.206e-02,-0.288
-1.205e-02,-0.288
-1.203e-02,-0.316
-1.202e-02,-0.296
-1.200e-02,-0.296
-1.198e-02,-0.296
-1.197e-02,-0.288
-1.195e-02,-0.284
-1.194e-02,-0.312
-1.192e-02,-0.284
-1.190e-02,-0.288
-1.189e-02,-0.308
-1.187e-02,-0.284
-1.186e-02,-0.312
-1.184e-02,-0.3
-1.182e-02,-0.316
-1.181e-02,-0.308
-1.179e-02,-0.3
-1.178e-02,-0.288
-1.176e-02,-0.292
-1.174e-02,-0.3
-1.173e-02,-0.3
-1.171e-02,-0.3
-1.170e-02,-0.292
-1.168e-02,-0.312
-1.166e-02,-0.28
-1.165e-02,-0.292
-1.163e-02,-0.32
-1.162e-02,-0.284
-1.160e-02,-0.292
-1.158e-02,-0.296
-1.157e-02,-0.296
-1.155e-02,-0.304
-1.154e-02,-0.292
-1.152e-02,-0.3
-1.150e-02,-0.296
-1.149e-02,-0.304
-1.147e-02,-0.3
-1.146e-02,-0.292
-1.144e-02,-0.312
-1.142e-02,-0.304
-1.141e-02,-0.292
-1.139e-02,-0.308
-1.138e-02,-0.296
-1.136e-02,-0.316
-1.134e-02,-0.304
-1.133e-02,-0.288
-1.131e-02,-0.296
-1.130e-02,-0.288
-1.128e-02,-0.312
-1.126e-02,-0.28
-1.125e-02,-0.304
-1.123e-02,-0.292
-1.122e-02,-0.316
-1.120e-02,-0.3
-1.118e-02,-0.308
-1.117e-02,-0.296
-1.115e-02,-0.292
-1.114e-02,-0.3
-1.112e-02,-0.32
-1.110e-02,-0.308
-1.109e-02,-0.296
-1.107e-02,-0.288
-1.106e-02,-0.292
-1.104e-02,-0.292
-1.102e-02,-0.304
-1.101e-02,-0.3
-1.099e-02,-0.3
-1.098e-02,-0.3
-1.096e-02,-0.292
-1.094e-02,-0.304
-1.093e-02,-0.288
-1.091e-02,-0.3
-1.090e-02,-0.296
-1.088e-02,-0.304
-1.086e-02,-0.3
-1.085e-02,-0.308
-1.083e-02,-0.308
-1.082e-02,-0.296
-1.080e-02,-0.292
-1.078e-02,-0.308
-1.077e-02,-0.32
-1.075e-02,-0.296
-1.074e-02,-0.288
-1.072e-02,-0.296
-1.070e-02,-0.304
-1.069e-02,-0.324
-1.067e-02,-0.292
-1.066e-02,-0.284
-1.064e-02,-0.28
-1.062e-02,-0.308
-1.061e-02,-0.3
-1.059e-02,-0.304
-1.058e-02,-0.292
-1.056e-02,-0.276
-1.054e-02,-0.296
-1.053e-02,-0.276
-1.051e-02,-0.288
-1.050e-02,-0.3
-1.048e-02,-0.296
-1.046e-02,-0.308
-1.045e-02,-0.3
-1.043e-02,-0.32
-1.042e-02,-0.308
-1.040e-02,-0.312
-1.038e-02,-0.308
-1.037e-02,-0.296
-1.035e-02,-0.3
-1.034e-02,-0.308
-1.032e-02,-0.296
-1.030e-02,-0.304
-1.029e-02,-0.316
-1.027e-02,-0.296
-1.026e-02,-0.312
-1.024e-02,-0.288
-1.022e-02,-0.304
-1.021e-02,-0.228
-1.019e-02,-0.168
-1.018e-02,-0.092
-1.016e-02,-0.032
-1.014e-02,0.012
-1.013e-02,0.048
-1.011e-02,0.084
-1.010e-02,0.112
-1.008e-02,0.152
-1.006e-02,0.188
-1.005e-02,0.192
-1.003e-02,0.184
-1.002e-02,0.22
-1.000e-02,0.248
-9.984e-03,0.244
-9.968e-03,0.252
-9.952e-03,0.252
-9.936e-03,0.256
-9.920e-03,0.26
-9.904e-03,0.276
-9.888e-03,0.292
-9.872e-03,0.292
-9.856e-03,0.272
-9.840e-03,0.268
-9.824e-03,0.276
-9.808e-03,0.292
-9.792e-03,0.304
-9.776e-03,0.292
-9.760e-03,0.3
-9.744e-03,0.296
-9.728e-03,0.292
-9.712e-03,0.312
-9.696e-03,0.316
-9.680e-03,0.3
-9.664e-03,0.304
-9.648e-03,0.288
-9.632e-03,0.296
-9.616e-03,0.296
-9.600e-03,0.304
-9.584e-03,0.296
-9.568e-03,0.3
-9.552e-03,0.3
-9.536e-03,0.296
-9.520e-03,0.292
-9.504e-03,0.292
-9.488e-03,0.304
-9.472e-03,0.3
-9.456e-03,0.3
-9.440e-03,0.292
-9.424e-03,0.308
-9.408e-03,0.304
-9.392e-03,0.288
-9.376e-03,0.304
-9.360e-03,0.288
-9.344e-03,0.316
-9.328e-03,0.316
-9.312e-03,0.3
-9.296e-03,0.308
-9.280e-03,0.304
-9.264e-03,0.304
-9.248e-03,0.3
-9.232e-03,0.292
-9.216e-03,0.304
-9.200e-03,0.304
-9.184e-03,0.312
-9.168e-03,0.296
-9.152e-03,0.312
-9.136e-03,0.296
-9.120e-03,0.304
-9.104e-03,0.304
-9.088e-03,0.324
-9.072e-03,0.316
-9.056e-03,0.308
-9.040e-03,0.324
-9.024e-03,0.324
-9.008e-03,0.316
-8.992e-03,0.328
-8.976e-03,0.304
-8.960e-03,0.292
-8.944e-03,0.288
-8.928e-03,0.316
-8.912e-03,0.292
-8.896e-03,0.304
-8.880e-03,0.296
-8.864e-03,0.3
-8.848e-03,0.296
-8.832e-03,0.304
-8.816e-03,0.288
-8.800e-03,0.292
-8.784e-03,0.296
-8.768e-03,0.312
-8.752e-03,0.316
-8.736e-03,0.316
-8.720e-03,0.296
-8.704e-03,0.292
-8.688e-03,0.312
-8.672e-03,0.312
-8.656e-03,0.324
-8.640e-03,0.308
-8.624e-03,0.316
-8.608e-03,0.312
-8.592e-03,0.32
-8.576e-03,0.312
-8.560e-03,0.332
-8.544e-03,0.312
-8.528e-03,0.316
-8.512e-03,0.308
-8.496e-03,0.304
-8.480e-03,0.288
-8.464e-03,0.296
-8.448e-03,0.308
-8.432e-03,0.308
-8.416e-03,0.3
-8.400e-03,0.292
-8.384e-03,0.296
-8.368e-03,0.292
-8.352e-03,0.3
-8.336e-03,0.304
-8.320e-03,0.292
-8.304e-03,0.316
-8.288e-03,0.316
-8.272e-03,0.312
-8.256e-03,0.324
-8.240e-03,0.304
-8.224e-03,0.32
-8.208e-03,0.316
-8.192e-03,0.308
-8.176e-03,0.324
-8.160e-03,0.332
-8.144e-03,0.312
-8.128e-03,0.3
-8.112e-03,0.324
-8.096e-03,0.316
-8.080e-03,0.312
-8.064e-03,0.324
-8.048e-03,0.308
-8.032e-03,0.292
-8.016e-03,0.296
-8.000e-03,0.308
-7.984e-03,0.292
-7.968e-03,0.28
-7.952e-03,0.292
-7.936e-03,0.312
-7.920e-03,0.296
-7.904e-03,0.3
-7.888e-03,0.312
-7.872e-03,0.308
-7.856e-03,0.316
-7.840e-03,0.304
-7.824e-03,0.304
-7.808e-03,0.296
-7.792e-03,0.296
-7.776e-03,0.296
-7.760e-03,0.252
-7.744e-03,0.184
-7.728e-03,0.14
-7.712e-03,0.08
-7.696e-03,0.02
-7.680e-03,-0.004
-7.664e-03,-0.052
-7.648e-03,-0.092
-7.632e-03,-0.128
-7.616e-03,-0.144
-7.600e-03,-0.172
-7.584e-03,-0.2
-7.568e-03,-0.224
-7.552e-03,-0.22
-7.536e-03,-0.212
-7.520e-03,-0.224
-7.504e-03,-0.228
-7.488e-03,-0.264
-7.472e-03,-0.256
-7.456e-03,-0.26
-7.440e-03,-0.28
-7.424e-03,-0.272
-7.408e-03,-0.272
-7.392e-03,-0.272
-7.376e-03,-0.28
-7.360e-03,-0.28
-7.344e-03,-0.296
-7.328e-03,-0.288
-7.312e-03,-0.288
-7.296e-03,-0.276
-7.280e-03,-0.28
-7.264e-03,-0.284
-7.248e-03,-0.308
-7.232e-03,-0.3
-7.216e-03,-0.296
-7.200e-03,-0.276
-7.184e-03,-0.292
-7.168e-03,-0.3
-7.152e-03,-0.288
-7.136e-03,-0.292
-7.120e-03,-0.3
-7.104e-03,-0.284
-7.088e-03,-0.292
-7.072e-03,-0.28
-7.056e-03,-0.284
-7.040e-03,-0.288
-7.024e-03,-0.288
-7.008e-03,-0.296
-6.992e-03,-0.292
-6.976e-03,-0.304
-6.960e-03,-0.292
-6.944e-03,-0.292
-6.928e-03,-0.288
-6.912e-03,-0.288
-6.896e-03,-0.304
-6.880e-03,-0.3
-6.864e-03,-0.284
-6.848e-03,-0.292
-6.832e-03,-0.304
-6.816e-03,-0.3
-6.800e-03,-0.308
-6.784e-03,-0.304
-6.768e-03,-0.308
-6.752e-03,-0.272
-6.736e-03,-0.296
-6.720e-03,-0.304
-6.704e-03,-0.288
-6.688e-03,-0.288
-6.672e-03,-0.288
-6.656e-03,-0.296
-6.640e-03,-0.308
-6.624e-03,-0.312
-6.608e-03,-0.304
-6.592e-03,-0.276
-6.576e-03,-0.304
-6.560e-03,-0.292
-6.544e-03,-0.316
-6.528e-03,-0.284
-6.512e-03,-0.304
-6.496e-03,-0.308
-6.480e-03,-0.28
-6.464e-03,-0.304
-6.448e-03,-0.3
-6.432e-03,-0.3
-6.416e-03,-0.304
-6.400e-03,-0.308
-6.384e-03,-0.312
-6.368e-03,-0.304
-6.352e-03,-0.296
-6.336e-03,-0.304
-6.320e-03,-0.308
-6.304e-03,-0.292
-6.288e-03,-0.288
-6.272e-03,-0.312
-6.256e-03,-0.292
-6.240e-03,-0.292
-6.224e-03,-0.268
-6.208e-03,-0.304
-6.192e-03,-0.3
-6.176e-03,-0.296
-6.160e-03,-0.32
-6.144e-03,-0.292
-6.128e-03,-0.316
-6.112e-03,-0.308
-6.096e-03,-0.28
-6.080e-03,-0.292
-6.064e-03,-0.296
-6.048e-03,-0.3
-6.032e-03,-0.304
-6.016e-03,-0.276
-6.000e-03,-0.296
-5.984e-03,-0.292
-5.968e-03,-0.288
-5.952e-03,-0.308
-5.936e-03,-0.3
-5.920e-03,-0.3
-5.904e-03,-0.316
-5.888e-03,-0.292
-5.872e-03,-0.308
-5.856e-03,-0.3
-5.840e-03,-0.3
-5.824e-03,-0.316
-5.808e-03,-0.296
-5.792e-03,-0.3
-5.776e-03,-0.316
-5.760e-03,-0.316
-5.744e-03,-0.284
-5.728e-03,-0.32
-5.712e-03,-0.296
-5.696e-03,-0.296
-5.680e-03,-0.3
-5.664e-03,-0.288
-5.648e-03,-0.288
-5.632e-03,-0.296
-5.616e-03,-0.304
-5.600e-03,-0.276
-5.584e-03,-0.276
-5.568e-03,-0.284
-5.552e-03,-0.296
-5.536e-03,-0.308
-5.520e-03,-0.288
-5.504e-03,-0.3
-5.488e-03,-0.304
-5.472e-03,-0.292
-5.456e-03,-0.3
-5.440e-03,-0.268
-5.424e-03,-0.288
-5.408e-03,-0.296
-5.392e-03,-0.32
-5.376e-03,-0.284
-5.360e-03,-0.308
-5.344e-03,-0.304
-5.328e-03,-0.292
-5.312e-03,-0.292
-5.296e-03,-0.304
-5.280e-03,-0.3
-5.264e-03,-0.296
-5.248e-03,-0.296
-5.232e-03,-0.292
-5.216e-03,-0.296
-5.200e-03,-0.284
-5.184e-03,-0.316
-5.168e-03,-0.296
-5.152e-03,-0.304
-5.136e-03,-0.24
-5.120e-03,-0.128
-5.104e-03,-0.092
-5.088e-03,-0.028
-5.072e-03,0
-5.056e-03,0.052
-5.040e-03,0.104
-5.024e-03,0.132
-5.008e-03,0.156
-4.992e-03,0.176
-4.976e-03,0.204
-4.960e-03,0.2
-4.944e-03,0.204
-4.928e-03,0.24
-4.912e-03,0.228
-4.896e-03,0.244
-4.880e-03,0.264
-4.864e-03,0.256
-4.848e-03,0.272
-4.832e-03,0.268
-4.816e-03,0.292
-4.800e-03,0.292
-4.784e-03,0.3
-4.768e-03,0.28
-4.752e-03,0.28
-4.736e-03,0.296
-4.720e-03,0.304
-4.704e-03,0.276
-4.688e-03,0.296
-4.672e-03,0.292
-4.656e-03,0.3
-4.640e-03,0.304
-4.624e-03,0.28
-4.608e-03,0.324
-4.592e-03,0.296
-4.576e-03,0.296
-4.560e-03,0.288
-4.544e-03,0.328
-4.528e-03,0.288
-4.512e-03,0.312
-4.496e-03,0.292
-4.480e-03,0.288
-4.464e-03,0.312
-4.448e-03,0.304
-4.432e-03,0.296
-4.416e-03,0.292
-4.400e-03,0.312
-4.384e-03,0.3
-4.368e-03,0.304
-4.352e-03,0.308
-4.336e-03,0.324
-4.320e-03,0.296
-4.304e-03,0.304
-4.288e-03,0.3
-4.272e-03,0.292
-4.256e-03,0.312
-4.240e-03,0.292
-4.224e-03,0.304
-4.208e-03,0.304
-4.192e-03,0.304
-4.176e-03,0.324
-4.160e-03,0.3
-4.144e-03,0.304
-4.128e-03,0.312
-4.112e-03,0.324
-4.096e-03,0.28
-4.080e-03,0.316
-4.064e-03,0.312
-4.048e-03,0.304
-4.032e-03,0.304
-4.016e-03,0.308
-4.000e-03,0.312
-3.984e-03,0.296
-3.968e-03,0.296
-3.952e-03,0.3
-3.936e-03,0.3
-3.920e-03,0.3
-3.904e-03,0.32
-3.888e-03,0.284
-3.872e-03,0.296
-3.856e-03,0.32
-3.840e-03,0.288
-3.824e-03,0.304
-3.808e-03,0.308
-3.792e-03,0.316
-3.776e-03,0.312
-3.760e-03,0.296
-3.744e-03,0.312
-3.728e-03,0.292
-3.712e-03,0.308
-3.696e-03,0.296
-3.680e-03,0.312
-3.664e-03,0.296
-3.648e-03,0.324
-3.632e-03,0.292
-3.616e-03,0.3
-3.600e-03,0.32
-3.584e-03,0.304
-3.568e-03,0.312
-3.552e-03,0.304
-3.536e-03,0.316
-3.520e-03,0.304
-3.504e-03,0.32
-3.488e-03,0.272
-3.472e-03,0.304
-3.456e-03,0.3
-3.440e-03,0.3
-3.424e-03,0.308
-3.408e-03,0.3
-3.392e-03,0.308
-3.376e-03,0.32
-3.360e-03,0.3
-3.344e-03,0.3
-3.328e-03,0.308
-3.312e-03,0.304
-3.296e-03,0.328
-3.280e-03,0.288
-3.264e-03,0.304
-3.248e-03,0.292
-3.232e-03,0.3
-3.216e-03,0.316
-3.200e-03,0.308
-3.184e-03,0.3
-3.168e-03,0.304
-3.152e-03,0.308
-3.136e-03,0.312
-3.120e-03,0.316
-3.104e-03,0.32
-3.088e-03,0.292
-3.072e-03,0.304
-3.056e-03,0.312
-3.040e-03,0.308
-3.024e-03,0.308
-3.008e-03,0.32
-2.992e-03,0.304
-2.976e-03,0.312
-2.960e-03,0.296
-2.944e-03,0.292
-2.928e-03,0.304
-2.912e-03,0.32
-2.896e-03,0.328
-2.880e-03,0.308
-2.864e-03,0.288
-2.848e-03,0.284
-2.832e-03,0.312
-2.816e-03,0.324
-2.800e-03,0.304
-2.784e-03,0.3
-2.768e-03,0.296
-2.752e-03,0.32
-2.736e-03,0.292
-2.720e-03,0.3
-2.704e-03,0.312
-2.688e-03,0.28
-2.672e-03,0.196
-2.656e-03,0.144
-2.640e-03,0.072
-2.624e-03,0.012
-2.608e-03,-0.028
-2.592e-03,-0.084
-2.576e-03,-0.096
-2.560e-03,-0.128
-2.544e-03,-0.148
-2.528e-03,-0.164
-2.512e-03,-0.184
-2.496e-03,-0.188
-2.480e-03,-0.208
-2.464e-03,-0.232
-2.448e-03,-0.244
-2.432e-03,-0.232
-2.416e-03,-0.24
-2.400e-03,-0.26
-2.384e-03,-0.272
-2.368e-03,-0.268
-2.352e-03,-0.288
-2.336e-03,-0.292
-2.320e-03,-0.276
-2.304e-03,-0.268
-2.288e-03,-0.292
-2.272e-03,-0.268
-2.256e-03,-0.284
-2.240e-03,-0.284
-2.224e-03,-0.3
-2.208e-03,-0.304
-2.192e-03,-0.292
-2.176e-03,-0.3
-2.160e-03,-0.304
-2.144e-03,-0.288
-2.128e-03,-0.284
-2.112e-03,-0.296
-2.096e-03,-0.292
-2.080e-03,-0.292
-2.064e-03,-0.296
-2.048e-03,-0.28
-2.032e-03,-0.28
-2.016e-03,-0.3
-2.000e-03,-0.28
-1.984e-03,-0.304
-1.968e-03,-0.3
-1.952e-03,-0.3
-1.936e-03,-0.3
-1.920e-03,-0.284
-1.904e-03,-0.3
-1.888e-03,-0.3
-1.872e-03,-0.288
-1.856e-03,-0.308
-1.840e-03,-0.308
-1.824e-03,-0.304
-1.808e-03,-0.292
-1.792e-03,-0.3
-1.776e-03,-0.292
-1.760e-03,-0.296
-1.744e-03,-0.304
-1.728e-03,-0.308
-1.712e-03,-0.304
-1.696e-03,-0.308
-1.680e-03,-0.308
-1.664e-03,-0.312
-1.648e-03,-0.304
-1.632e-03,-0.296
-1.616e-03,-0.292
-1.600e-03,-0.3
-1.584e-03,-0.304
-1.568e-03,-0.304
-1.552e-03,-0.28
-1.536e-03,-0.316
-1.520e-03,-0.304
-1.504e-03,-0.288
-1.488e-03,-0.316
-1.472e-03,-0.304
-1.456e-03,-0.292
-1.440e-03,-0.296
-1.424e-03,-0.312
-1.408e-03,-0.312
-1.392e-03,-0.312
-1.376e-03,-0.3
-1.360e-03,-0.308
-1.344e-03,-0.3
-1.328e-03,-0.32
-1.312e-03,-0.308
-1.296e-03,-0.304
-1.280e-03,-0.268
-1.264e-03,-0.3
-1.248e-03,-0.296
-1.232e-03,-0.288
-1.216e-03,-0.288
-1.200e-03,-0.296
-1.184e-03,-0.296
-1.168e-03,-0.284
-1.152e-03,-0.296
-1.136e-03,-0.292
-1.120e-03,-0.304
-1.104e-03,-0.3
-1.088e-03,-0.312
-1.072e-03,-0.308
-1.056e-03,-0.308
-1.040e-03,-0.304
-1.024e-03,-0.304
-1.008e-03,-0.32
-9.920e-04,-0.316
-9.760e-04,-0.296
-9.600e-04,-0.292
-9.440e-04,-0.296
-9.280e-04,-0.308
-9.120e-04,-0.28
-8.960e-04,-0.284
-8.800e-04,-0.288
-8.640e-04,-0.288
-8.480e-04,-0.288
-8.320e-04,-0.3
-8.160e-04,-0.292
-8.000e-04,-0.284
-7.840e-04,-0.276
-7.680e-04,-0.304
-7.520e-04,-0.288
-7.360e-04,-0.288
-7.200e-04,-0.292
-7.040e-04,-0.296
-6.880e-04,-0.304
-6.720e-04,-0.308
-6.560e-04,-0.288
-6.400e-04,-0.296
-6.240e-04,-0.292
-6.080e-04,-0.296
-5.920e-04,-0.292
-5.760e-04,-0.292
-5.600e-04,-0.292
-5.440e-04,-0.32
-5.280e-04,-0.316
-5.120e-04,-0.308
-4.960e-04,-0.292
-4.800e-04,-0.288
-4.640e-04,-0.276
-4.480e-04,-0.284
-4.320e-04,-0.28
-4.160e-04,-0.284
-4.000e-04,-0.296
-3.840e-04,-0.284
-3.680e-04,-0.308
-3.520e-04,-0.292
-3.360e-04,-0.28
-3.200e-04,-0.296
-3.040e-04,-0.296
-2.880e-04,-0.304
-2.720e-04,-0.296
-2.560e-04,-0.304
-2.400e-04,-0.3
-2.240e-04,-0.284
-2.080e-04,-0.276
-1.920e-04,-0.292
-1.760e-04,-0.292
-1.600e-04,-0.288
-1.440e-04,-0.292
-1.280e-04,-0.292
-1.120e-04,-0.284
-9.600e-05,-0.296
-8.000e-05,-0.284
-6.400e-05,-0.212
-4.800e-05,-0.148
-3.200e-05,-0.084
-1.600e-05,-0.028
2.440e-16,0.016
1.600e-05,0.056
3.200e-05,0.084
4.800e-05,0.12
6.400e-05,0.136
8.000e-05,0.168
9.600e-05,0.176
1.120e-04,0.196
1.280e-04,0.216
1.440e-04,0.24
1.600e-04,0.244
1.760e-04,0.244
1.920e-04,0.252
2.080e-04,0.268
2.240e-04,0.284
2.400e-04,0.268
2.560e-04,0.288
2.720e-04,0.284
2.880e-04,0.28
3.040e-04,0.288
3.200e-04,0.296
3.360e-04,0.304
3.520e-04,0.296
3.680e-04,0.296
3.840e-04,0.3
4.000e-04,0.308
4.160e-04,0.312
4.320e-04,0.292
4.480e-04,0.292
4.640e-04,0.296
4.800e-04,0.312
4.960e-04,0.284
5.120e-04,0.3
5.280e-04,0.308
5.440e-04,0.324
5.600e-04,0.3
5.760e-04,0.304
5.920e-04,0.308
6.080e-04,0.288
6.240e-04,0.3
6.400e-04,0.296
6.560e-04,0.308
6.720e-04,0.312
6.880e-04,0.304
7.040e-04,0.3
7.200e-04,0.312
7.360e-04,0.288
7.520e-04,0.316
7.680e-04,0.312
7.840e-04,0.3
8.000e-04,0.304
8.160e-04,0.328
8.320e-04,0.312
8.480e-04,0.3
8.640e-04,0.3
8.800e-04,0.296
8.960e-04,0.312
9.120e-04,0.3
9.280e-04,0.3
9.440e-04,0.3
9.600e-04,0.3
9.760e-04,0.312
9.920e-04,0.304
1.008e-03,0.308
1.024e-03,0.328
1.040e-03,0.308
1.056e-03,0.308
1.072e-03,0.292
1.088e-03,0.3
1.104e-03,0.308
1.120e-03,0.3
1.136e-03,0.3
1.152e-03,0.312
1.168e-03,0.308
1.184e-03,0.296
1.200e-03,0.3
1.216e-03,0.288
1.232e-03,0.308
1.248e-03,0.304
1.264e-03,0.296
1.280e-03,0.312
1.296e-03,0.324
1.312e-03,0.308
1.328e-03,0.316
1.344e-03,0.324
1.360e-03,0.316
1.376e-03,0.308
1.392e-03,0.304
1.408e-03,0.296
1.424e-03,0.312
1.440e-03,0.324
1.456e-03,0.308
1.472e-03,0.316
1.488e-03,0.304
1.504e-03,0.312
1.520e-03,0.3
1.536e-03,0.3
1.552e-03,0.3
1.568e-03,0.3
1.584e-03,0.284
1.600e-03,0.308
1.616e-03,0.308
1.632e-03,0.312
1.648e-03,0.288
1.664e-03,0.284
1.680e-03,0.296
1.696e-03,0.324
1.712e-03,0.308
1.728e-03,0.292
1.744e-03,0.292
1.760e-03,0.32
1.776e-03,0.296
1.792e-03,0.316
1.808e-03,0.316
1.824e-03,0.308
1.840e-03,0.304
1.856e-03,0.324
1.872e-03,0.3
1.888e-03,0.304
1.904e-03,0.304
1.920e-03,0.292
1.936e-03,0.312
1.952e-03,0.292
1.968e-03,0.316
1.984e-03,0.316
2.000e-03,0.296
2.016e-03,0.32
2.032e-03,0.304
2.048e-03,0.312
2.064e-03,0.316
2.080e-03,0.292
2.096e-03,0.292
2.112e-03,0.312
2.128e-03,0.3
2.144e-03,0.296
2.160e-03,0.328
2.176e-03,0.304
2.192e-03,0.312
2.208e-03,0.296
2.224e-03,0.292
2.240e-03,0.288
2.256e-03,0.304
2.272e-03,0.308
2.288e-03,0.316
2.304e-03,0.312
2.320e-03,0.308
2.336e-03,0.308
2.352e-03,0.304
2.368e-03,0.292
2.384e-03,0.252
2.400e-03,0.168
2.416e-03,0.12
2.432e-03,0.052
2.448e-03,0.008
2.464e-03,-0.04
2.480e-03,-0.08
2.496e-03,-0.112
